{
	"label": "Опасности (Основные книги)",
	"mapping": {
		"name": {
			"path": "name",
			"converter": "actorNameConverter"
		},
		"descriptionHazard": "system.details.description",
		"disable": "system.details.disable",
		"reset": "system.details.reset",
		"routine": "system.details.routine",
		"stealth": "system.attributes.stealth.details",
		"hp": "system.attributes.hp.details",
		"items": {
			"path": "items",
			"converter": "actorItemCollectionConverter"
		}
	},
	"entries": {
		"Armageddon Orb": {
			"name": "Сфера армагеддона",
			"descriptionHazard": "<p>Бурлящий красный шар, выкованный из капли крови бога @UUID[Compendium.pf2e.deities.Item.Bhxji0kxIbMKqdkw]{Ровагуга}, проливает с неба огненный дождь при выполнении определенного условия.</p>",
			"disable": "<p>@Check[thievery|dc:48|name:Наполнить инструменты вора|traits:action:disable-a-device] (легенда) наполнить инструменты вора аспектами @UUID[Compendium.pf2e.deities.Item.QRkcFciCOmFoxF1B]{Асмодея} и @UUID[Compendium.pf2e.deities.Item.BNycwu3I21dTh4D9]{Саренрэй} и использовать их, чтобы истощать силу сферы в течение 10 минут; персонаж, совершающий эту проверку, получает 5 урона огнем за каждый раунд, пока сфера не будет истощена</p>",
			"stealth": "или @UUID[Compendium.pf2e.spells-srd.Item.gpzpAAAJ1Lza2JVl]{Обнаружение магии}",
			"items": [
				{
					"id": "KaYeYfefttO5X9OF",
					"name": "Сжечь все",
					"description": "<p><strong>Триггер:</strong> Происходит особое условие, установленное создателем ловушки; обычно это событие их смерти.</p>\n<hr />\n<p><strong>Эффект:</strong> В радиусе 100 миль с неба идет огненный дождь, нанося существам и объектам в области @Damage[10d6[fire]]. Каждое существо или объект может сделать простой спасбросок @Check[reflex|dc:46|basic]{Рефлекса}. Любое существо, у которого от этого урона ОЗ снизились до 0, мгновенно умирает. Этого урона недостаточно, чтобы полностью сжечь лес или сравнять с землей целую гору или город, но он обычно убивает большинство существ в области.</p>"
				}
			]
		},
		"Banshee's Symphony": {
			"name": "Симфония банши",
			"descriptionHazard": "<p>Магически заразное заклинание @UUID[Compendium.pf2e.spells-srd.Item.FEsuyf203wTNE2et]{Вой банши} застряло в горле невидимого мумифицированного эльфа.</p>",
			"disable": "<p>@Check[thievery|dc:42|name:Пронзить горло|traits:action:disable-a-device] (мастер) пронзить невидимое горло так точно, чтобы магия высвободилась тонкой струйкой до того, как сработает ловушка, @Check[thievery|dc:44|name:Разрушить гортань|traits:action:disable-a-device] (легенда) 3 раза, разрушить гортань, пока ловушка активна, чтобы разорвать заклинание на части, или @UUID[Compendium.pf2e.spells-srd.Item.9HpwDN4MYQJnW0LG] (9-й ранг; противодействие КС 38) противодействовать вою банши до того как ловушка активируется</p>",
			"reset": "<p>Ловушка заканчивается когда больше не может заставить существо кричать (обычно потому что нет существ, проваливших свой спасбросок в прошлый ход, или потому что ранее все существа получили крит.успех). Потом она сбрасывается в течение 24 часов, пока в мумифицированном горле собирается новый крик.</p>",
			"routine": "<p>(1 действие): Ловушка использует свое действие, чтобы заставить одно случайное существо, которое провалило свой спасбросок против <em>воя банши</em> в прошлый ход, издать <em>вой банши</em> с теми же характеристиками, что и исходный. Существо воет даже если оно мертво или не может говорить, независимо от того, как далеко оно от ловушки. В отличие от сотворения этого заклинания, состояние @UUID[Compendium.pf2e.conditionitems.Item.4D2KBtexWXa6oUMR]{Истощен} от заклинаний <em>вой банши</em> этой ловушки, увеличивает у целей значение состояния @Condition[Drained]{истощен}. Существо, которое критически успешно сделало любой из своих спасбросков, всё ещё может быть подвержено ловушке в дальнейших раундах, но ловушка не может заставить его выть.</p>",
			"stealth": "<p>(легенда)</p>",
			"items": [
				{
					"id": "nqcgUfOiRWy6Kti7",
					"name": "Крик",
					"description": "<p><strong>Триггер:</strong> Три или больше живых существ остаются в пределах 100 футов от ловушки в течение 6 секунд или дольше.</p>\n<hr />\n<p><strong>Эффект:</strong> Ловушка выпускает арканное @UUID[Compendium.pf2e.spells-srd.Item.FEsuyf203wTNE2et]{Вой банши} (КС 40) со @Template[emanation|distance:100]{100-футовой эманацией}, вместо 40-футовой, беря целями всех живых существ в области, и кидает инициативу.</p>"
				}
			]
		},
		"Bloodthirsty Urge": {
			"name": "Кровожадный порыв",
			"descriptionHazard": "<p>Объект, терзаемый эхом порочного разума, пытается убить того, кто приближается.</p>",
			"disable": "<p>@Check[religion|dc:29|name:Изгнать дух] (мастер) чтобы изгнать дух, или @Check[diplomacy|dc:31|name:Заговорить дух] (эксперт) чтобы заговорить его</p>",
			"stealth": "<p>(обучен)</p>",
			"items": [
				{
					"id": "0FpzSygcs7G688GT",
					"name": "Умереть",
					"description": "<p><strong>Триггер:</strong> Существо проходит в пределах 10 футов от объекта с призраком</p>\n<hr />\n<p><strong>Эффект:</strong> Призрак берет контроль над спровоцировавшим существом, заставляя его атаковать себя. Существо должно сделать спасбросок @Check[will|dc:29]{Воли}.</p>\n<hr />\n<p><strong>Критический успех:</strong> Цель невредима.</p>\n<p><strong>Успех:</strong> Цель совершает \"Удар\" по себе и автоматически попадает; цель также становится @UUID[Compendium.pf2e.conditionitems.Item.TBSHQspnbcqxsmjL]{Напуганной 1}.</p>\n<p><strong>Провал:</strong> Цель совершает \"Удар\" по себе и автоматически критически попадает; цель также становится @UUID[Compendium.pf2e.conditionitems.Item.TBSHQspnbcqxsmjL]{Напуганной 2}.</p>\n<p><strong>Критический провал:</strong> Цель совершает спасбросок Стойкости. Если цель получает успех, то вместо этого подвергается эффектам провала. Если цель проваливает, то ее ОЗ снижаются до 0 и она умирает.</p>"
				}
			]
		},
		"Bottomless Pit": {
			"name": "Бездонная яма",
			"descriptionHazard": "<p>Железный люк закрывает квадратную бесконечно глубокую яму со стороной 10 футов.</p>",
			"disable": "<p>@Check[thievery|dc:28|name:Убрать люк|traits:action:disable-a-device] (обучен) убрать люк</p>",
			"reset": "<p>Если существа упадут в нее, то ловушка всё ещё заставляет существ падать бесконечно, но люк должен быть сброшен вручную, чтобы ловушка снова стала Спрятанной.</p>",
			"stealth": "<p>(или 0 если люк отключен или сломан), или @UUID[Compendium.pf2e.spells-srd.Item.gpzpAAAJ1Lza2JVl]</p>",
			"items": [
				{
					"id": "WJtDPJzNrJO19H6k",
					"name": "Бесконечное падение в яму",
					"description": "<p><strong>Триггер:</strong> Существо проходит по люку</p>\n<hr />\n<p><strong>Эффект:</strong> Спровоцировавшее существо падает и продолжает падать, потенциально бесконечно. Это существо может попытаться @UUID[Compendium.pf2e.actionspf2e.Item.3yoajuKjwHZ9ApUY]{Схватиться за уступ}, чтобы избежать падения. Чтобы @UUID[Compendium.pf2e.actionspf2e.Item.pprgrYQ1QnIDGZiy]{Карабкаться} по стенам или \"Схватиться за уступ\" — КС 26. В яме есть множество мест, за которые можно ухватиться, поэтому падающее существо может снова попытаться \"Схватиться за уступ\" каждые 6 секунд. Если существо преуспевает, оно может начать \"Карабкаться\" с этой точки (однако подъем может быть очень долгим в зависимости от того, как далеко упало существо). Поскольку существо падает бесконечно, оно может отдыхать и даже готовить заклинания во время падения, однако предметы, выпавшие при падении, обычно теряются навсегда.</p>"
				}
			]
		},
		"Brown Mold": {
			"name": "Коричневая плесень",
			"descriptionHazard": "<p>Этот неприметный грибок выкачивает тепло из воздуха.</p>",
			"disable": "<p>@Check[survival|dc:18|name:Убрать коричневую плесень|traits:environmental,fungus] (обучен) безопасно убрать плесень</p>",
			"reset": "<p>После расширения, коричневая плесень не может расти снова 1 день.</p>",
			"stealth": "<p>(обучен)</p>",
			"items": [
				{
					"id": "NcyiM0WihYrncbSF",
					"name": "Выделение холода",
					"description": "<p>@Template[emanation|distance:5] @UUID[Compendium.pf2e.bestiary-ability-glossary-srd.Item.v61oEQaDdcRpaZ9X]</p>\n<hr />\n<p>Коричневая плесень наносит @Damage[2d6[cold]] существам поблизости.</p>"
				},
				{
					"id": "MQ3CKYIdF6zrMg0x",
					"name": "Выкачивание тепла",
					"description": "<p><strong>Триггер:</strong> В 5 футах от коричневой плесени появляется огонь.</p>\n<hr />\n<p><strong>Эффект:</strong> Коричневая плесень расширяется на каждый квадрат рядом со своим пространством. По мере роста, она вытягивает больше тепла из окружения, после расширения нанося существам в пределах 10 футов @Damage[(2d6+6)[cold]] (@Check[fortitude|dc:18|basic]).</p>"
				}
			]
		},
		"Confounding Betrayal": {
			"name": "Запутывающее предательство",
			"descriptionHazard": "<p>Союзники сбрасывают маскировку и оказываются злобными монстрами.</p>",
			"disable": "<p>@Check[deception|dc:28|name:Запутать призрака] (эксперт) дважды — запутать призрак своими собственными обманами, или @Check[occultism|dc:28|name:Создать оберег от влияния] (обучен) дважды — создать оберег от ментального влияния призрака</p>",
			"reset": "<p>Призрак отключается через 1 минуту после того, как все существа покидают его область, но сразу после этого сбрасывается.</p>",
			"routine": "<p>(1 действие, @Trait[Illusion]{иллюзия}, @Trait[Incapacitation]{недееспособность}, @Trait[Occult]{оккультный}) Призрак продолжает сбивать с толку чувства жертв и побуждает их совершить насилие друг над другом. Каждое существо в области призрака должно совершить спасбросок @Check[will|dc:26].</p>\n<hr />\n<p><strong>Критический успех:</strong> Существо невредимо и временно иммунно на 1 минуту.</p>\n<p><strong>Успех:</strong> Существо невредимо.</p>\n<p><strong>Провал:</strong> Существо в @UUID[Compendium.pf2e.conditionitems.Item.yblD8fOR1J8rDwEQ]{Замешательстве} на 1 раунд.</p>\n<p><strong>Критический провал:</strong> Существо в @UUID[Compendium.pf2e.conditionitems.Item.yblD8fOR1J8rDwEQ]{Замешательстве} на 1 минуту.</p>",
			"stealth": "<p>(эксперт)</p>",
			"items": [
				{
					"id": "QrgnumULVnz8pWfK",
					"name": "Разоблачение",
					"description": "<p><strong>Триггер:</strong> 2 или более существ оказываются в области призрака</p>\n<hr />\n<p><strong>Эффект:</strong> Каждое существо видит, как формы ближайших существ коверкаются и изменяются, будто превращаясь в чудовищных или отвратительных существ, жаждущих крови. Каждое существо в этой области должно совершить спасбросок @Check[will|dc:30]{Воли}.</p>\n<hr />\n<p><strong>Критический успех:</strong> Существо полностью видит сквозь иллюзии и временно иммунно к рутине призрака на 1 минуту.</p>\n<p><strong>Успех:</strong> Существо невредимо этими странными образами.</p>\n<p><strong>Провал:</strong> Существо верит, что иллюзии правдивы; если оно будет в замешательстве из-за рутины призрака, то при получении урона не может совершить чистую проверку для завершения этого @UUID[Compendium.pf2e.conditionitems.Item.yblD8fOR1J8rDwEQ]{Замешательства}.</p>\n<p><strong>Критический провал:</strong> Как провал, но у существа остаётся длительное подозрение по отношении к другим и оно не может получать преимущества от реакции @UUID[Compendium.pf2e.actionspf2e.Item.HCl3pzVefiv9ZKQW]{Помощь} в течение 24 часов.</p>"
				}
			]
		},
		"Dance Of Death": {
			"name": "Танец смерти",
			"descriptionHazard": "<p>Жуткий оркестр заставляет всех, кто его слышит, танцевать до изнеможения.</p>",
			"disable": "<p>@Check[intimidation|dc:42|name:Напугать оркестр|traits:action:demoralize] (эксперт) 3 раза — напугать танцующих и призрачных музыкантов перестать участвовать в смертельном выступлении, @Check[performance|dc:40|name:Нарушить принуждение] (мастер) 2 раза — создать мелодию, достаточно диссонирующую, чтобы нарушить принуждение, или @Check[religion|dc:42|name:Изгнать духов] (мастер) 3 раза — изгнать духов молитвами</p>",
			"reset": "<p>Жуткий оркестр тратит 1 час на перенастройку своих призрачных инструментов, после чего он снова готов начать свою рутину.</p>",
			"routine": "<p>(1 действие, @Trait[Mental]{ментальный}, @Trait[Occult]{оккультный}, @Trait[Auditory]{слуховой}, @Trait[Incapacitation]{недееспособность}) Оркестр исполняет грубую мелодию, заставляя всех существ, которые ее слышат, тратить действия на танцы. Каждый раунд существо должно совершить спасбросок @Check[will|dc:37]; результаты этого спасброска изменяют количество действий, которые существо должно тратить каждый раунд на танец. Если это заставит существо потратить на танцы больше действий, чем оно может использовать в свой ход, оно получает @Damage[10d6[untyped]] (или двойной при критическом провале) от того, что движется быстрее, чем может выдержать его тело.</p>\n<hr />\n<p><strong>Критический успех:</strong> Существо снижает количество действий, которые оно должно тратить танцуя, на 1.</p>\n<p><strong>Успех:</strong> Нет эффекта.</p>\n<p><strong>Провал:</strong> Существо увеличивает действия, которые оно должно тратить танцуя, на 1.</p>\n<p><strong>Критический провал:</strong> Существо увеличивает действия, которые оно должно тратить танцуя, на 2.</p>",
			"stealth": "<p>(мастер)</p>",
			"items": [
				{
					"id": "Bov9feGVYpn5nmUl",
					"name": "Прелюдия",
					"description": "<p><strong>Триггер:</strong> Существо приближается к оркестру на расстояние 30 футов</p>\n<hr />\n<p><strong>Эффект:</strong> Оркестр заставляет всех существ, которые могут слышать его начать танцевать. Каждое существо должно совершить спасбросок @Check[will|dc:41] со следующими эффектами. Затем призрак бросает инициативу.</p>\n<hr />\n<p><strong>Критический успех:</strong> Существо невредимо.</p>\n<p><strong>Успех:</strong> Существо @UUID[Compendium.pf2e.conditionitems.Item.AJh5ex99aV6VTggg]{Застигнуто врасплох} и не может использовать реакции. Еще оно должно тратить 1 из своих действий каждый раунд на танец. Танец это действие @Trait[Move]{движения}, позволяющее существу @UUID[Compendium.pf2e.actionspf2e.Item.Bcxarzksqt9ezrs6]{Переместиться} вплоть до половины своей Скорости.</p>\n<p><strong>Провал:</strong> Как успех, но существо должно каждый раунд тратить 2 своих действия на танец.</p>\n<p><strong>Критический провал:</strong> Как провал, но существо должно каждый раунд тратить 3 своих действия на танец.</p>"
				}
			]
		},
		"Darkside Mirror": {
			"name": "Зеркало темной стороны",
			"descriptionHazard": "<p>Магическое зеркало заменяет персонажей злыми зеркальными двойниками из другого измерения.</p>",
			"disable": "<p>@Check[thievery|dc:34|name:Вытащить существо из другого измерения|traits:action:disable-a-device] (легенда) вытащить существо из другого измерения в течение 10 минут после замены (это возможно только если их зеркальный двойник мертв), @Check[thievery|dc:39|name:Навсегда отключить зеркало|traits:action:disable-a-device] (мастер) навсегда отключить зеркало как только все двойники мертвы, или @UUID[Compendium.pf2e.spells-srd.Item.9HpwDN4MYQJnW0LG] (7-й ранг; противодействие КС 32) противодействовать зеркалу 1 минуту и в течение этого времени предотвратить дополнительные подмены</p>",
			"reset": "<p>Зеркало всегда готово поглощать существ в другое измерение. Через 10 минут, после того, как существо засасывается в зеркало, если союзник не спасет существо с помощью Воровства, оно достигает другого измерения, где может быть схвачено или убито. В зеркальном измерении, оно само считается зеркальным двойником, поэтому обитатели другого измерения не могут уничтожить зеркало на их стороне, пока поглощенное существо там. Эти измерения являются альтернативными реальностями, а не планами, поэтому даже заклинания, такие как @UUID[Compendium.pf2e.spells-srd.Item.5bTt2CvYHPvaR7QQ]{Планарный переход} не могут достичь их.</p>",
			"routine": "<p>(1 действие): Зеркало поглощает другое отраженное существо и заменяет его зеркальным двойником. Зеркальные двойники атакуют во время своей собственной инициативы, используя те же характеристики, что и оригинальные существа, но со злым мировоззрением (изменяя только возможности, которые меняются с изменением мировоззрения). Зеркальный двойник может потратить 3 действия контактируя с зеркалом, чтобы вернуться в свое измерение и отпустить существо, которое он копирует, но большинство зеркальных двойников предпочитают этого не делать.</p>",
			"stealth": "<p>(мастер) заметить, что это не простое зеркало</p>",
			"hp": "Зеркалу нельзя нанести урон пока жив любой из зеркальных двойников",
			"items": [
				{
					"id": "JEXj6WkaqB0iscnL",
					"name": "Отражения зла",
					"description": "<p><strong>Триггер:</strong> В зеркале отражается незлое существо.</p>\n<hr />\n<p><strong>Эффект:</strong> Зеркало поглощает существо внутрь зеркала, заменяя его злым зеркальным двойником (спасбросок @Check[reflex|dc:34]{Рефлекса}, чтобы избежать поглощения зеркалом), и кидает инициативу.</p>"
				}
			]
		},
		"Drowning Pit": {
			"name": "Яма для утопления",
			"descriptionHazard": "<p>Люк закрывает квадратную яму со стороной 10 футов, глубиной 30 футов, и с 5 футами воды на дне. Четыре (4) водосточных трубы в стенах соединяются со скрытыми резервуарами для воды. Каждая труба выходит из разных стен, в 6 дюймах от верха ямы.</p>",
			"disable": "<p>@Check[thievery|dc:18] (обучен) запечатать каждую водосточную трубу, @Check[thievery|dc:22] (обучен) открыть люк, или @Check[athletics|dc:22] @UUID[Compendium.pf2e.action-macros.Macro.yMTKMnaYSGtDz4wk] люк</p>",
			"reset": "<p>Ловушка может быть сброшена, если вручную открыть дверь и заново наполнить резервуары для воды; ее можно сбросить без осушения ямы, но это сделает ее менее эффективной.</p>",
			"routine": "<p>(4 действия): Каждый ход ловушка теряет 1 действие за каждую отключенную трубу. За каждое из действий ловушки, труба выливает воду, увеличивая глубину воды на 5 футов. Как только яма заполнена водой, она перестаёт использовать действия, но существа в яме начинают тонуть (@UUID[Compendium.pf2e.journals.JournalEntry.S55aqwWIzpQRFhcq.JournalEntryPage.KdoLyU91c0oS2hTw#tonutь-i-zadyhatьsya]{Тонуть и задыхаться}).</p>",
			"stealth": "<p>(обучен); @Check[perception|dc:22|traits:action:seek] (эксперт) заметить струи воды, когда яма открывается</p>",
			"hp": "<strong>Твердость трубы</strong> 8, <strong>ОЗ трубы</strong> 32 (ПП 16)",
			"items": [
				{
					"id": "iji2yCS44gpqc5p3",
					"name": "Падение в яму",
					"description": "<p><strong>Триггер:</strong> Существо проходит по люку</p>\n<hr />\n<p><strong>Эффект:</strong> Спровоцировавшее существо падает и получает урон от падения, сниженный на 5 футов из-за падения в воду (обычно @Damage[12[bludgeoning]|options:fall-damage]). Чтобы избежать падения, существо может @UUID[Compendium.pf2e.actionspf2e.Item.3yoajuKjwHZ9ApUY]{Схватиться за уступ}. После этого люк захлопывается и опасность кидает инициативу.</p>"
				}
			]
		},
		"Electric Latch Rune": {
			"name": "Защелка с электрической руной",
			"descriptionHazard": "<p>Невидимая руна, нанесенная на дверной защелке, выпускает мощный электрический разряд.</p>",
			"disable": "<p>@Check[thievery|dc:20|name:Соскрести руну] (эксперт) соскрести руну не позволяя течь электричеству, или @UUID[Compendium.pf2e.spells-srd.Item.9HpwDN4MYQJnW0LG] (2-й ранг; противодействие КС 18), чтобы противодействовать руне</p>",
			"stealth": "<p>(обучен)</p>",
			"items": [
				{
					"id": "FzfgLXTt6R8bYmTP",
					"name": "Удар током",
					"description": "<p><strong>Триггер:</strong> Существо хватается за дверную защелку напрямую или с помощью инструмента</p>\n<hr />\n<p><strong>Эффект:</strong> Ловушка наносит спровоцировавшему существу @Damage[3d12[electricity]] (простой спасбросок @Check[reflex|dc:22|basic]{Рефлекса}).</p>"
				}
			]
		},
		"Eternal Flame": {
			"name": "Вечное пламя",
			"descriptionHazard": "<p>Бушующее призрачное инферно возникает из воздуха, усиливая всех существ-нежить в пределах своей области. Чаще всего этот призрак возникает из обугленных останков группы из трех человек, которые сгорели заживо, будь то в результате ужасного несчастного случая или преднамеренной казни, и их неотмщенные души пылают от ярости.</p>",
			"disable": "<p>@Check[diplomacy|dc:27|name:Успокоить гнев духа] (эксперт) временно успокоить гнев одного из 3 духов, или @Check[religion|dc:30|name:Изгнать духа] (обучен) изгнать 1 из духов; для обезвреживания призрака требуется 3 успеха</p>",
			"reset": "<p>Пламя утихает спустя 1 минуту после того как все живые существа покидают область, но через 1 час гнев и боль закипают, и призрак снова готов сработать.</p>",
			"routine": "<p>(1 действия): Фантомное пламя бушует вокруг области обитания призрака, нанося @Damage[4d6[fire]] всем живым существам в этой области (простой спасбросок @Check[will|dc:23|basic]{Воли}). Существа-нежить в области насыщаются пламенем на следующий раунд. Они получают признак @Trait[Fire]{огонь} и иммунитет к огню, а все их атаки наносят дополнительные @Damage[1d6[fire]]. Объекты в области невредимы.</p>",
			"stealth": "<p>(эксперт)</p>",
			"items": [
				{
					"id": "E8X8ETVNwXuUF08C",
					"name": "Опаляющая агония",
					"description": "<p><strong>Триггер:</strong> Живое существо приближается на 10 футов к остаткам жертвы изначального огня</p>\n<hr />\n<p><strong>Эффект:</strong> Разум спровоцировавшего существа атакуют воспоминания о боли, которую испытали бывшие жертвы пожара. Существо должно совершить спасбросок @Check[will|dc:25] и затем призрак кидает инициативу.</p>\n<hr />\n<p><strong>Критический успех:</strong> Существо невредимо.</p>\n<p><strong>Успех:</strong> Существо испытывает @UUID[Compendium.pf2e.conditionitems.Item.fesd1n5eVhpCSS18]{Тошноту 1}.</p>\n<p><strong>Провал:</strong> Существо испытывает @UUID[Compendium.pf2e.conditionitems.Item.fesd1n5eVhpCSS18]{Тошноту 2}.</p>\n<p><strong>Критический провал:</strong> Существо испытывает @UUID[Compendium.pf2e.conditionitems.Item.fesd1n5eVhpCSS18]{Тошноту 3} и @UUID[Compendium.pf2e.conditionitems.Item.AJh5ex99aV6VTggg]{Застигнуто врасплох} пока остаётся в области призрака, и на 3 раунда после этого.</p>"
				}
			]
		},
		"Fireball Rune": {
			"name": "Руна огненного шара",
			"descriptionHazard": "<p>Невидимая руна создает невидимый сферический магический сенсор радиусом 20 футов.</p>",
			"disable": "<p>@Check[thievery|dc:22|name:Стереть руну] (эксперт) стереть руну, не активируя сенсор, или @UUID[Compendium.pf2e.spells-srd.Item.9HpwDN4MYQJnW0LG] (3-й ранг; КС противодействия 20), чтобы противодействовать руне</p>",
			"stealth": "<p>(эксперт)</p>",
			"items": [
				{
					"id": "uJpg7vUJ1qag7R3t",
					"name": "Огненный шар",
					"description": "<p><strong>Триггер:</strong> Живое существо попадает в область сенсора</p>\n<hr />\n<p><strong>Эффект:</strong> Руна взрывает @UUID[Compendium.pf2e.spells-srd.Item.sxQZ6yqTn0czJxVd]{Огненный шар} с центром в квадрате спровоцировавшего существа. Это заклинание <em>огненного шара</em> 3-го ранга, которое наносит @Damage[6d6[fire]] (простой спасбросок @Check[reflex|dc:22|basic]{Рефлекса}).</p>"
				}
			]
		},
		"Flensing Blades": {
			"name": "Свежующие лезвия",
			"descriptionHazard": "<p>Вращающийся торнадо из призрачно раскручиваемого стекла и стали разрезает на лоскуты все, к чему прикасается.</p>",
			"disable": "<p>@Check[thievery|dc:35|name:Сместить лезвия|traits:action:disable-a-device] (мастер) точно сместить лезвия, чтобы они уничтожили друг друга, или @Check[religion|dc:38|name:Ослабить призрак] (эксперт) ослабить призрак; для отключения требуется 4 успеха</p>",
			"reset": "<p>В течение 1 часа призрак притягивает зазубренные осколки обратно в свою область, после чего может сработать снова.</p>",
			"routine": "<p>(3 действия) Торнадо из лезвий использует 3 действия, чтобы передвинуться, проходя вплоть до 30 футов каждым действием и нанося @Damage[(2d10+10)[slashing]]. Каждое существо на его пути должно совершить спасбросок @Check[reflex|dc:33]{Рефлекса}.</p>\n<p><strong>Критический успех:</strong> Существо невредимо.</p>\n<p><strong>Успех:</strong> Существо получает половину урона.</p>\n<p><strong>Провал:</strong> Существо получает полный урон и @Damage[1d10[bleed]].</p>\n<p><strong>Критический провал:</strong> Существо получает двойной урон и @Damage[1d10[bleed]]. Еще оно становится @UUID[Compendium.pf2e.conditionitems.Item.Yl48xTdMh3aeQYL2]{Раненым 1} (или увеличивает на 1 уже имевшееся у него состояние @Condition[Wounded]{ранен}).</p>\n<p>Каждая успешная проверка для отключения этой опасности снижает передвижение призрака на 30 футов, а 4-й успех обезвреживает его полностью.</p>",
			"stealth": "<p>(эксперт)</p>",
			"items": [
				{
					"id": "jSBfyDGUXAPbIJTT",
					"name": "Вращающиеся лезвия",
					"description": "<p><strong>Триггер:</strong> 3 или более существ попадают в область призрака</p>\n<hr />\n<p><strong>Эффект:</strong> Острые осколки поднимаются с земли и начинают быстро кружиться, занимая 1 (один) 5-футовый квадрат. Призрак кидает инициативу.</p>"
				}
			]
		},
		"Frozen Moment": {
			"name": "Застывший момент",
			"descriptionHazard": "<p>Защитная магия пытается поймать злоумышленников или потенциальных воров в нарушенный поток времени.</p>",
			"disable": "<p>@Check[thievery|dc:38|name:Разобрать компоненты заклинания|traits:action:disable-a-device] (легенда) в мгновение ока быстро разобрать мириады компонентов заклинания; или @UUID[Compendium.pf2e.spells-srd.Item.9HpwDN4MYQJnW0LG] (9-й ранг; противодействие КС 36), чтобы противодействовать ловушке до того как она активируется, или противодействовать эффекту на одном существе, после того как ловушка сработала</p>",
			"stealth": "<p>(мастер)</p>",
			"items": [
				{
					"id": "SoObyOgEreU0KLDs",
					"name": "Дрейфовать во времени",
					"description": "<p><strong>Триггер:</strong> Существо трогает охраняемый объект или область.</p>\n<hr />\n<p><strong>Эффект:</strong> Спровоцировавшее существо и все существа в пределах 30 футов захвачены в нарушенный временной поток (спасбросок @Check[fortitude|dc:38]{Стойкости} отменяет). Разумы существ двигаются так быстро, что каждый раунд будто длится столетие, но их тела и магические энергии движутся так медленно, что они не могут использовать никакие действия кроме @UUID[Compendium.pf2e.actionspf2e.Item.1OagaWtBpVXExToo]{Вспомнить информацию}. Существо, подвергшееся воздействию, сразу должно сделать спасбросок @Check[will|dc:36] против заклинания @UUID[Compendium.pf2e.spells-srd.Item.8kJbiBEjMWG4VUjs], и снова каждую минуту реального времени, которое проходит пока существо поймано в застывшем моменте. Этот эффект имеет бесконечную продолжительность, но ему можно противодействовать.</p>"
				}
			]
		},
		"Ghostly Choir": {
			"name": "Хор привидений",
			"descriptionHazard": "Хор потерянных душ поднимается из пола, исполняя жуткий напев, который повергает слушателей в ужас и сотрясает их тела стенами звука.",
			"disable": "<p>@Check[performance|dc:28|name:Спеть другой мотив|traits:haunt] (обучен) прервать резонанс песни другим мотивом, или @Check[religion|dc:28|name:Ритуально заглушить призрак|traits:haunt] (обучен) ритуально заглушить духов</p>",
			"stealth": "<p>(эксперт)</p>",
			"items": [
				{
					"id": "oZGdTS4jvoAj1myH",
					"name": "Оскверняющее пение",
					"description": "<p><strong>Триггер:</strong> Существо передвигается в пределах 10 футов от места пола, из которого может подняться хор.</p>\n<hr />\n<p><strong>Эффект:</strong> Хор поднимается и его песня наносит @Damage[(4d8+18)[mental]] живым существам в пределах 30 футов от призрачных форм духов. Подверженные существа должны совершить спасбросок @Check[will|dc:24|traits:damaging-effect]{Воли}.</p>\n<hr />\n<p><strong>Критический успех:</strong> Существо невредимо.</p>\n<p><strong>Успех:</strong> Существо получает половину урона и становится @UUID[Compendium.pf2e.conditionitems.Item.TBSHQspnbcqxsmjL]{Напугано 1}.</p>\n<p><strong>Провал:</strong> Существо получает полный урон и становится @UUID[Compendium.pf2e.conditionitems.Item.TBSHQspnbcqxsmjL]{Напугано 2}.</p>\n<p><strong>Критический провал:</strong> Существо получает двойной урон. Еще оно @UUID[Compendium.pf2e.conditionitems.Item.TBSHQspnbcqxsmjL]{Напугано 3} и впадает в @UUID[Compendium.pf2e.conditionitems.Item.sDPxOjQ9kx2RZE8D]{Бегство} на 1 раунд.</p>"
				}
			]
		},
		"Grasp Of The Damned": {
			"name": "Хватка проклятых",
			"descriptionHazard": "<p>Эти отчаявшиеся духи — отголоски людей, совершивших великие злодеяния во имя злого бога. Теперь у них осталось только знание того, что их души были прокляты, и непоколебимая вера в то, что они могут улучшить свою судьбу, принеся могущественные жертвы своим жестоким хозяевам.</p>",
			"disable": "<p>@Check[religion|dc:46|name:Вызвать божественное вмешательство] (мастер) вдохновить божество вмешаться и прервать этот ритуал</p>",
			"reset": "<p>1 день</p>",
			"stealth": "<p>(мастер)</p>",
			"items": [
				{
					"id": "hK2a0NJwqQgjs15q",
					"name": "Метка проклятия",
					"description": "<p><strong>Триггер:</strong> 3 или более разумных живых существ 13-го уровня или выше попадают в область призрака.</p>\n<hr />\n<p><strong>Эффект:</strong> Призрак наносит @Damage[(6d12+35)[void]] каждому существу в области призрака, и каждое существо должно совершить спасбросок @Check[will|dc:40|traits:damaging-effect]{Воли}.</p>\n<hr />\n<p><strong>Критический успех:</strong> Существо не получает урона и @UUID[Compendium.pf2e.conditionitems.Item.3uh1r86TzbQvosxv]{Обречено 1}.</p>\n<p><strong>Успех:</strong> Существо получает половину урона и @UUID[Compendium.pf2e.conditionitems.Item.3uh1r86TzbQvosxv]{Обречено 1}.</p>\n<p><strong>Провал:</strong> Существо получает полный урон, @UUID[Compendium.pf2e.conditionitems.Item.3uh1r86TzbQvosxv]{Обречено 2} и отмечено проклятием.</p>\n<p><strong>Критический провал:</strong> Существо получает двойной урон, @UUID[Compendium.pf2e.conditionitems.Item.3uh1r86TzbQvosxv]{Обречено 3} и отмечено проклятием.</p>\n<p>Если существо, отмеченное проклятием, умирает в следующие 24 часа, в том числе от урона этого признака, его душа мгновенно утаскивается на план злого божества, которому служили проклятые призраки, где душа существа держится в плену одним из могущественных служителей этого божества. Только @UUID[Compendium.pf2e.spells-srd.Item.6dDtGIUerazSHIOu]{Желание} и эффекты подобной силы способны напрямую вернуть утраченную душу; однако, возможно вернуть душу отправившись на этот злой план и победив взявшего душу в плен.</p>"
				}
			]
		},
		"Gravehall Trap": {
			"name": "Ловушка в могильном зале(*)",
			"descriptionHazard": "<p>Когда живое существо пересекает середину туннеля с ловушкой, некромантическая магия частично оживляет трупы захороненные в стенах и потолке.</p>",
			"disable": "<p>@Check[thievery|dc:24|name:Прервать магический триггер|traits:action:disable-a-device] (эксперт) чтобы прервать магический триггер до того, как опасность выполнит бросок инициативы, или @Check[religion|dc:18|name:Наполнить область энергией жизненности] (обучен) чтобы наполнить область энергией жизненности и не дать опасности использовать свою рутину в течение 1 раунда; при третьей успешной проверке Религии, некромантическая энергия разрушается и опасность уничтожается.</p>",
			"routine": "<p>(1 действие) Кулаки нежити атакуют всех существ в зале, нанося @Damage[4d6[bludgeoning]]. Существа в зале должны совершить спасбросок @Check[reflex|dc:21]{Рефлекса}.</p>\n<hr />\n<p><strong>Критический успех:</strong> Цель невредима.</p>\n<p><strong>Успех:</strong> Цель получает половину урона.</p>\n<p><strong>Провал:</strong> Цель получает полный урон, и её Скорости снижены на 10 футов (до минимума в 5 футов) на 1 раунд.</p>\n<p><strong>Критический провал:</strong> Цель получает двойной урон и @UUID[Compendium.pf2e.conditionitems.Item.eIcWbB5o3pP6OIMe]{Обездвижена} на 1 раунд.</p>",
			"items": [
				{
					"id": "8yNeU3TLczTIlFjP",
					"name": "Стремительные мертвецы",
					"description": "<p><strong>Триггер:</strong> Живое существо пересекает середину туннеля</p>\n<hr />\n<p><strong>Эффект:</strong> Мертвецы тянутся из стен и потолка, стонут и извергают извивающихся личинок. Существа должны совершить спасбросок @Check[will|dc:21]{Воли}. Затем ловушка бросает инициативу.</p>\n<hr />\n<p><strong>Критический успех:</strong> Цель невредима.</p>\n<p><strong>Успех:</strong> Цель @UUID[Compendium.pf2e.conditionitems.Item.TBSHQspnbcqxsmjL]{Напугана 1}</p>\n<p><strong>Провал:</strong> Цель @UUID[Compendium.pf2e.conditionitems.Item.TBSHQspnbcqxsmjL]{Напугана 2}. Она не может уменьшить состояние @Condition[Frightened]{напуган} ниже 1, находясь в зоне ловушки.</p>\n<p><strong>Критический провал:</strong> Как провал, но цель @UUID[Compendium.pf2e.conditionitems.Item.6uEgoh53GbXuHpTF]{Парализована} на 1 раунд.</p>"
				}
			]
		},
		"Green Slime": {
			"name": "Зеленая слизь",
			"descriptionHazard": "<p>Едкая зеленая пленка прилипает к потолку в ожидании проходящей под ней жертвы.</p>",
			"disable": "<p>@Check[survival|dc:33|name:Соскрести слизь с потолка] (эксперт) осторожно соскрести слизь с потолка не трогая ее</p>",
			"reset": "<p>1 час, так как слизь питается и затем медленно заползает на потолок</p>",
			"stealth": "<p>(эксперт)</p>",
			"items": [
				{
					"id": "aNYeaG5N3o5PQ9IB",
					"name": "Растворяющее нападение",
					"description": "<p><strong>Триггер:</strong> Существо проходит под слизью.</p>\n<hr />\n<p><strong>Эффект:</strong> Зеленая слизь падает на существо, пытаясь растворить его в питательную жижу. Цель должна совершить спасбросок @Check[reflex|dc:28]{Рефлекса}.</p>\n<hr />\n<p><strong>Критический успех:</strong> Цель отскакивает и невредима.</p>\n<p><strong>Успех:</strong> Небольшое количество слизи брызгает на цель. Цель @UUID[Compendium.pf2e.conditionitems.Item.4D2KBtexWXa6oUMR]{Истощена 1}.</p>\n<p><strong>Провал:</strong> Слизь приземляется на цель. Цель @UUID[Compendium.pf2e.conditionitems.Item.4D2KBtexWXa6oUMR]{Истощена 1} и каждый раунд значение этого состояния увеличивается на 1 в конце ее хода, пока слизь не убрана. Если цель достигает @Condition[Drained]{истощен 4}, то при следующем увеличении состояния она умирает и распадается в питательную жижу. Слизь, покрывающая цель, больше не может быть убрана проверкой Выживания и урон, наносимый слизи, также наносится цели (применяя иммунитеты, слабости и сопротивления цели, а не зеленой слизи).</p>\n<p><strong>Критический провал:</strong> Слизь полностью покрывает цель. Эффекты такие же как у провала, но цель сразу же @UUID[Compendium.pf2e.conditionitems.Item.4D2KBtexWXa6oUMR]{Истощена 2}, становится @Condition[Drained]{истощена 4} через 1 раунд и умирает через 2 раунда.</p>"
				}
			]
		},
		"Hallucination Powder Trap": {
			"name": "Ловушка с галлюциногенным порошком",
			"descriptionHazard": "<p>Трубка с галлюциногенным порошком, оборудованная миниатюрным взрывчатым веществом, соединена с дверной ручкой или аналогичной защелкой.</p>",
			"disable": "<p>@Check[thievery|dc:26|name:Отключить боёк|traits:action:disable-a-device] (эксперт) отключить боёк, который ударяет по капсюлю</p>",
			"stealth": "<p>(эксперт)</p>",
			"items": [
				{
					"id": "NjmHPcx6IEA14Yul",
					"name": "Взрыв порошка",
					"description": "<p><strong>Триггер:</strong> Открыта защелка или сломана трубка.</p>\n<hr />\n<p><strong>Эффект:</strong> Трубка взрывается, распыляя галлюциногенный порошок в @Template[cone|distance:30]{30-футовом конусе}. Любое существо в конусе должно успешно пройти спасбросок @Check[will|dc:24]{Воли}, иначе получит состояние @UUID[Compendium.pf2e.conditionitems.Item.yblD8fOR1J8rDwEQ]{Замешательство} на 1 раунд, и штраф состояния −2 на проверки Восприятия и спасброски против ментальных эффектов на [[/gmr 1d4 #часы]]{1d4 часа}. При критическом провале штраф становится −4.</p>\n<p>@UUID[Compendium.pf2e.bestiary-effects.Item.6OpwHz0f55wPawHI]</p>"
				}
			]
		},
		"Hammer Of Forbiddance": {
			"name": "Молот запрета",
			"descriptionHazard": "<p>Огромный молот у входа в сооружение размахивается сверху вниз в попытке нанести урон существу, входящему в область, оттолкнуть его и предотвратить возможность пройти дальше.</p>",
			"disable": "<p>@Check[thievery|dc:28|name:Не дать молоту размахиваться|traits:action:disable-a-device] (эксперт) один раз на самом молоте и один раз на шарнире, чтобы не дать ему размахиваться</p>",
			"reset": "<p>Ловушка сбрасывается в течение 1 раунда и снова готова к взмаху через 1 раунд.</p>",
			"stealth": "<p>(эксперт)</p>",
			"hp": "<strong>Твердость шарнира:</strong> 16, <strong>ОЗ шарнира:</strong> 64 (ПП 32)",
			"items": [
				{
					"id": "caUgV11OydLsLw1j",
					"name": "Запретить вход",
					"description": "<p><strong>Триггер:</strong> Существо пытается пройти через проход.</p>\n<hr />\n<p><strong>Эффект:</strong> Молот размахивается вниз, совершая @UUID[Compendium.pf2e.actionspf2e.Item.VjxZFuUXrCU94MWR]{Удар} по спровоцировавшему существу.</p>"
				},
				{
					"id": "pLuxXYKq1Wi28Czn",
					"name": "Молот",
					"description": "<p>При попадании, цель отталкивается назад на 10 футов и должна успешно пройти спасбросок @Check[will|dc:30]{Воли}, иначе в течение 24 часов не сможет входить в сооружение через любой вход (при крит.попадании цель автоматически проваливает спасбросок Воли); нет штрафа множественной атаки</p>"
				}
			]
		},
		"Hampering Web": {
			"name": "Мешающая паутина",
			"descriptionHazard": "<p>Полупрозрачные куски паутины загораживают проход, готовые поймать мелких насекомых или затруднить проход более крупных существ.</p>",
			"disable": "<p>@Check[survival|dc:17|name:Убрать паутину] (обучен) убрать паутину</p>",
			"stealth": "<p>(эксперт)</p>",
			"items": [
				{
					"id": "CHZ0RRKgpq6eI2AS",
					"name": "Опутывание",
					"description": "<p><strong>Триггер:</strong> Существо, не являющееся пауком, попадает в паутину.</p>\n<hr />\n<p><strong>Эффект:</strong> Паутина оборачивается вокруг тела спровоцировавшего существа, прилипая к конечностям. Спровоцировавшее существо должно преуспеть в спасброске @Check[reflex|dc:20]{Рефлекса}, иначе получает штраф обстоятельства −10 футов к своим Скоростям пока не @UUID[Compendium.pf2e.actionspf2e.Item.SkZAQRkLLkmBQNB9]{Вырвется} (КС 20) из паутины. При критическом провале, паутина липнет к лицу существа, вызывая @UUID[Compendium.pf2e.conditionitems.Item.fesd1n5eVhpCSS18]{Тошноту 1}, и оно не может попытаться снизить это состояние пока не \"Вырвется\" из паутины.</p>"
				}
			]
		},
		"Hidden Pit": {
			"name": "Спрятанная яма",
			"descriptionHazard": "<p>Деревянный люк закрывает квадратную яму со стороной 10 футов и глубиной @Unit[Foot|20]{20 футов}.</p>",
			"disable": "@Check[thievery|dc:12|name:Убрать люк] убрать люк",
			"reset": "<p>Существа всё ещё могут упасть в ловушку, но люк нужно сбросить вручную, чтобы ловушка снова стала спрятанной.</p>",
			"stealth": "<p>(или 0 если люк отключен или сломан)</p>",
			"items": [
				{
					"id": "lY83oUjx0DLxDByK",
					"name": "Падение в яму",
					"description": "<p><strong>Триггер:</strong> Существо проходит по люку.</p>\n<hr />\n<p><strong>Эффект:</strong> Спровоцировавшее существо падает в яму и получает урон от падения (обычно @Damage[10[bludgeoning]|options:fall-damage]). Это существо может использовать реакцию @UUID[Compendium.pf2e.actionspf2e.Item.3yoajuKjwHZ9ApUY]{Схватиться за уступ}, чтобы избежать падения.</p>"
				}
			]
		},
		"Insistent Privacy Fence": {
			"name": "Электрическая ограда",
			"descriptionHazard": "<p>Отрезок ограды находится под током от спрятанной стазиевой катушки.</p>",
			"disable": "<p>@Check[thievery|dc:28|name:Отключить катушку от ограды|traits:electricity,hazard,trap,mechanical] (эксперт) осторожно отключить катушку от ограды или @Check[crafting|dc:30|name:Собрать заземляющее устройство|traits:electricity,hazard,trap,mechanical] (мастер) налету собрать заземляющее устройство для нивелирования электрического удара</p>",
			"reset": "<p>Ловушка деактивируется и сбрасывается через 1 минуту.</p>",
			"stealth": "<p>(эксперт)</p>",
			"items": [
				{
					"id": "HhzDfHd26GkdqhME",
					"name": "Удар током",
					"description": "<p><strong>Триггер:</strong> Существо касается ограды напрямую, инструментом или оружием</p>\n<hr />\n<p><strong>Эффект:</strong> Ограда наносит спровоцировавшему существу @Damage[7d12[electricity]] (простой спасбросок @Check[reflex|dc:26|basic|traits:electricity,mechanical,trap,hazard]{Рефлекса}).</p>"
				}
			]
		},
		"Jealous Abjurer": {
			"name": "Завистливый маг-преградитель",
			"descriptionHazard": "<p>Из пола поднимается облаченный в мантию дух, обвиняюще указывая пальцем.</p>",
			"disable": "<p>@Check[arcana|dc:36|name:Убедить духа] (мастер), @Check[nature|dc:36|name:Убедить духа] (мастер), @Check[occultism|dc:36|name:Убедить духа] (мастер) или @Check[religion|dc:36|name:Убедить духа] (мастер) убедить духа в том, что магические знания цели слишком велики, чтобы с ними можно было шутить</p>",
			"reset": "<p>1 час</p>",
			"stealth": "<p>(мастер)</p>",
			"items": [
				{
					"id": "e90G0Brsf6uhlGp6",
					"name": "Разрывание магии",
					"description": "<p><strong>Триггер:</strong> Существо, подверженное полезному заклинанию, приближается на 30 футов к магу-преградителю.</p>\n<hr />\n<p><strong>Эффект:</strong> Завидуя славе и магическому мастерству других, завистливый маг-преградитель пытается вызвать катастрофический сбой в самом высокоуровневом полезном заклинании, действующем на цель. Он совершает проверку @UUID[Compendium.pf2e.journals.JournalEntry.S55aqwWIzpQRFhcq.JournalEntryPage.E4Q7EiSG18sIvFwg]{Противодействия} с модификатором [[/r 1d20+26#противодействие]]{+26}. Если проверка противодействия успешна, заклинание рассеивается, а существо, на которое оно воздействовало, получает @Damage[(4d12+30)[force]], так как заклинание дико разрывается (простой спасбросок @Check[reflex|dc:32|basic]{Рефлекса}).</p>"
				}
			]
		},
		"Lava Flume Tube": {
			"name": "Трубы лавовых потоков",
			"descriptionHazard": "<p>Четыре закрытых, вырезанных в камне, канала, позволяют лаве течь в комнату высотой 15 футов; пол может отодвинуться, чтобы затвердевшая лава упала в нижнюю камеру.</p>",
			"disable": "<p>@Check[thievery|dc:29|name:Заблокировать канал|traits:action:disable-a-device] (эксперт) заблокировать канал, или @Check[thievery|dc:31|name:Открыть защелку пола|traits:action:disable-a-device] (мастер) открыть защелку пола и сбежать в нижнюю камеру</p>",
			"reset": "<p>Ловушка деактивируется и сбрасывается через 1 час, когда пол сдвигается, раскалывая и сбрасывая затвердевшую лаву в камеру (со всеми оказавшимися внутри существами). Существа падают 40 футов, получая урон от @UUID[Compendium.pf2e.journals.JournalEntry.S55aqwWIzpQRFhcq.JournalEntryPage.QnqlEgRJdEsrdM9q]{Падения} (обычно @Damage[17[bludgeoning]|options:fall-damage]).</p>",
			"routine": "<p>(4 действия): Ловушка теряет 1 действие в ход за каждый отключенный канал. Каждым действием, разные каналы извергают лаву, нанося @Damage[4d6[fire]] каждому существу в пределах 10 футов от этого канала (@Check[reflex|basic|dc:27|traits:damaging-effect]), и увеличивая глубину лавы в комнате на 1 фут (4 фута/раунд, если активны все каналы).</p>\n<p>Существо, которое начинает свой ход в лаве, получает @Damage[8d6[fire]] и состояние @UUID[Compendium.pf2e.conditionitems.Item.eIcWbB5o3pP6OIMe]{Обездвижен} пока не сможет [[/act escape dc=27]] из затвердевающей лавы. Существо может начать задыхаться, если покрыто лавой (@UUID[Compendium.pf2e.journals.JournalEntry.S55aqwWIzpQRFhcq.JournalEntryPage.KdoLyU91c0oS2hTw#tonutь-i-zadyhatьsya]{Тонуть и задыхаться}). В начале хода ловушки, лава с прошлого хода полностью затвердевает, фактически поднимая пол комнаты. Как только комната заполнена лавой, ловушка перестаёт получать действия, но существа в комнате остаются застрявшими, пока не откроется пол и ловушка не сбросится.</p>",
			"stealth": "<p>(обучен)</p>",
			"hp": "для уничтожения заслонки канала (предотвращает отключение этого канала и останавливает сброс ловушки); <strong>Твердость пола:</strong> 18; <strong>ОЗ пола:</strong> 72 (ПП 36)",
			"items": [
				{
					"id": "slQb54KbvJ8vJpRb",
					"name": "Активация потоков",
					"description": "<p><strong>Триггер:</strong> Существо пытается покинуть комнату.</p>\n<hr />\n<p><strong>Эффект:</strong> Выходы мгновенно запечатываются и ловушка кидает инициативу.</p>"
				}
			]
		},
		"Malevolent Mannequins": {
			"name": "Зловредные манекены",
			"descriptionHazard": "<p>Сонма жестоких духов населяет 3 заводных манекена, и каждый из них бросается на любых существ, которые осмеливаются пройти рядом.</p>",
			"disable": "<p>@Check[thievery|dc:37|name:Заклинить заводные механизмы манекена|traits:clockwork,haunt,mechanical,hazard] (мастер) заклинить заводные механизмы манекена или @Check[religion|dc:35|name:Изгнать дух из манекена|traits:clockwork,haunt,mechanical,hazard] (эксперт) дважды, изгнать дух из манекена.</p>",
			"reset": "<p>Призрак отключается после того, как у него нет существ-целей и сбрасывается, обычно в течение 1 раунда, когда манекены идут к своим изначальным позициям. Если манекен в более чем @Unit[Foot|150]{150 футах} от своей изначальной позиции, то призрак сбрасывается дольше, так как манекен двигается обратно по 150 футов за раунд.</p>",
			"routine": "<p>(9 действий): Каждый ход, каждый из манекенов использует 3 действия призрака, и за каждый отключенный или уничтоженный манекен, призрак каждый ход теряет 3 действия. Каждый манекен использует свое 1-е действие для @UUID[Compendium.pf2e.actionspf2e.Item.Bcxarzksqt9ezrs6]{Перемещения} на расстояние вплоть до 50 футов и оставшиеся 2 действия на нанесение @UUID[Compendium.pf2e.actionspf2e.Item.VjxZFuUXrCU94MWR]{Ударов} заводным кулаком.</p>",
			"items": [
				{
					"id": "Q2074Gj6y8XUUgAk",
					"name": "Пробуждение",
					"description": "<p><strong>Триггер:</strong> Существо проходит в 30 футах от манекена</p>\n<hr />\n<p><strong>Эффект:</strong> Все манекены пошатываясь направляются к спровоцировавшему существу, @UUID[Compendium.pf2e.actionspf2e.Item.Bcxarzksqt9ezrs6]{Перемещаясь} вплоть до 50 футов, а потом кидают инициативу.</p>"
				},
				{
					"id": "h1kUAmChVAo2xByF",
					"name": "Заводной кулак"
				}
			]
		},
		"Perilous Flash Flood": {
			"name": "Опасный поток",
			"descriptionHazard": "<p>Будь то вода, несущаяся по улицам и подхватывающая по пути опасный мусор, или менее естественное вещество, вырвавшееся из своего контейнера, этот неумолимый поток бьет все на своем пути.</p>",
			"disable": "<p>3 проверки @Check[athletics|dc:35|name:Передвинуть баррикаду], @Check[crafting|dc:35|name:Создать баррикаду] или @Check[survival|dc:35|name:Создать баррикаду] — передвинуть или создать баррикаду достаточно сильную, чтобы обеспечить укрытие от потопа. Хотя это создает безопасное место чтобы стоять, существа за пределами области этой баррикады всё ещё могут быть в опасности, в зависимости от природы и источника потопа.</p>",
			"routine": "<p>(1 действие): Потоп продвигается на 60 футов вперед, обрушиваясь на всех существ в своей области. Каждое существо должно совершить спасбросок @Check[fortitude|dc:30]{Стойкости}, так как потоки воды захлестывают их и тянут дальше по течению. Величина и тип наносимого урона зависят от природы потопа, а некоторые его виды накладывают дополнительные эффекты. Из-за бурных вод, существа находящиеся в области наводнения, для передвижения должны совершать проверку @Check[athletics|dc:20]{Атлетики} чтобы @UUID[Compendium.pf2e.actionspf2e.Item.c8TGiZ48ygoSPofx]{Плыть}, а те, кто каждый раунд не преуспеет в проверке \"Плавания\", могут утонуть.</p>\n<hr />\n<p><strong>Критический успех:</strong> Существо не получает урона.</p>\n<p><strong>Успех:</strong> Существо получает половину урона.</p>\n<p><strong>Провал:</strong> ущество получает полный урон и передвигается на 10 футов вместе с водой.</p>\n<p><strong>Критический провал:</strong> Существо получает двойной урон и передвигается на 20 футов вместе с водой.</p>\n<hr />\n<ul>\n<li><strong>Кислотный поток:</strong> Этот едкий поток растворяет плоть по мере движения, нанося @Damage[1d12[bludgeoning],(1d12+8)[acid]]. Еще он наносит @Damage[2d6[persistent,acid]] существам, критически провалившим свой спасбросок Стойкости.</li>\n<li><strong>Бьющие волны:</strong> Поток бушующей воды наносит @Damage[(2d12+10)[bludgeoning]].</li>\n<li><strong>Отвратительные помои:</strong> Этот поток подхватил испорченные или зараженные болезнями объекты, такие как канализационные стоки или гниющая пища. Он наносит @Damage[(2d12+8)[bludgeoning]]. Каждое существо, подвергнутое этому потоку, должно совершить спасбросок @Check[fortitude|dc:29], при провале испытывая @UUID[Compendium.pf2e.conditionitems.Item.fesd1n5eVhpCSS18]{Тошноту 1}, либо @UUID[Compendium.pf2e.conditionitems.Item.fesd1n5eVhpCSS18]{Тошноту 2} при крит.провале. Еще, существа контактирующие с водами этого потока, подвергаются <a href=https://clck.ru/h3frk>грязной лихорадке</a> (@Check[fortitude|dc:20]).</li>\n<li><strong>Острые осколки:</strong> Воды несут различные объекты, некоторые из которых особенно острые. Поток наносит @Damage[1d12[bludgeoning],(1d12+12)[piercing]].</li>\n<li><strong>Липкая слизь:</strong> Это вещество особенно липкое. Оно наносит @Damage[(2d12+6)[bludgeoning]]. Еще, каждый раунд, каждое существо в потоке, в начале своего хода должно совершить спасбросок @Check[reflex|dc:29]{Рефлекса}. При провале они получают штраф обстоятельства −10 футов ко всем Скоростям на 1 раунд. При крит.провале, они вместо этого @UUID[Compendium.pf2e.conditionitems.Item.eIcWbB5o3pP6OIMe]{Обездвижены} на 1 раунд.</li>\n</ul>",
			"stealth": "<p>(эксперт)</p>",
			"items": [
				{
					"id": "gxjS3APksgflCuua",
					"name": "Высвободиться",
					"description": "<p><strong>Триггер:</strong> Существо или эффект разбивает то, что сдерживает потоп.</p>\n<hr />\n<p><strong>Эффект:</strong> Опасность кидает инициативу, так как поток вырывается.</p>"
				},
				{
					"id": "Pz2JfI4HEqH5iEwA",
					"name": "Грязная лихорадка",
					"description": "<p>Состояния @UUID[Compendium.pf2e.conditionitems.Item.fesd1n5eVhpCSS18]{Тошнота} и @UUID[Compendium.pf2e.conditionitems.Item.fBnFDH2MTzgFijKf] от грязной лихорадки не улучшаются сами по себе, пока не вылечена болезнь.</p>\n<p><strong>Спасбросок:</strong> @Check[fortitude|dc:20]</p>\n<hr />\n<p><strong>Стадия 1:</strong> Переносчик не имеет эффектов заболевания ([[/gmr 1d4 #часы]]{1d4 часа})</p>\n<p><strong>Стадия 2:</strong> @UUID[Compendium.pf2e.conditionitems.Item.fesd1n5eVhpCSS18]{Тошнота 1} (1 день)</p>\n<p><strong>Стадия 3:</strong> @UUID[Compendium.pf2e.conditionitems.Item.fesd1n5eVhpCSS18]{Тошнота 1} и @UUID[Compendium.pf2e.conditionitems.Item.xYTAsEpcJE1Ccni3]{Замедлен 1} пока остаётся тошнота (1 день)</p>\n<p><strong>Стадия 4:</strong> @UUID[Compendium.pf2e.conditionitems.Item.fBnFDH2MTzgFijKf]{Без сознания} (1 день)</p>\n<p><strong>Стадия 5:</strong> смерть</p>"
				}
			]
		},
		"Pharaoh's Ward": {
			"name": "Защита фараона",
			"descriptionHazard": "<p>На пороге входа наложено проклятие.</p>",
			"disable": "<p>@Check[thievery|dc:27|name:Удалить перемычку] (мастер) тщательно удалить перемычку (печать), не активируя магию, или @UUID[Compendium.pf2e.spells-srd.Item.9HpwDN4MYQJnW0LG] (4-й ранг; противодействие КС 25), чтобы противодействовать руне</p>",
			"reset": "<p>Ловушка сбрасывается, когда дверь закрывается.</p>",
			"stealth": "<p>(эксперт)</p>",
			"items": [
				{
					"id": "Cc30YjKZ7qSxVjSC",
					"name": "Проклясть самозванцев",
					"description": "<p><strong>Триггер:</strong> Печать гробницы разрушена снаружи.</p>\n<hr />\n<p><strong>Эффект:</strong> Каждое живое существо в пределах 60 футов должно успешно пройти спасбросок @Check[will|dc:23]{Воли}, иначе подвергнется проклятию фараона. Проклятое существо получает штраф состояния −2 на спасброски Стойкости, и любое получаемое им естественное или магическое исцеление снижается наполовину. Проклятие остаётся пока не будет снято при помощи @UUID[Compendium.pf2e.spells-srd.Item.SUKaxVZW2TlM8lu0] или подобной магии.</p>"
				}
			]
		},
		"Planar Rift": {
			"name": "Планарный разрыв",
			"descriptionHazard": "<p>Разлом пытается втянуть существ на другой план (Мастер выбирает конкретный план).</p>",
			"disable": "<p>@Check[thievery|dc:33|name:Собрать печать разлома|traits:action:disable-a-device] (мастер) собрать печать разлома используя основополагающие объекты вашего плана, или @UUID[Compendium.pf2e.spells-srd.Item.9HpwDN4MYQJnW0LG] (7-й ранг; противодействие КС 31), чтобы противодействовать разлому</p>",
			"stealth": "<p>(обучен)</p>",
			"items": [
				{
					"id": "K7Ya0U5jerfvH0vw",
					"name": "В Великое Запределье",
					"description": "<p><strong>Триггер:</strong> Существо проходит в пределах 10 футов от разлома.</p>\n<hr />\n<p><strong>Эффект:</strong> Спровоцировавшее существо и все существа в пределах 30 футов от разлома затягиваются на другой план. Каждое существо может сделать спасбросок @Check[reflex|dc:33]{Рефлекса}, чтобы избежать этой участи.</p>"
				}
			]
		},
		"Plummeting Doom": {
			"name": "Рок стремительного падения",
			"descriptionHazard": "<p>Четыре мстительных духа хватают незваных гостей и сбрасывают их с края близлежащего обрыва высотой 120 футов.</p>",
			"disable": "<p>@Check[athletics|dc:40|name:Насильно оттолкнуть духов] (обучен) так сильно оттолкнуться, что духи побоятся сами упасть с обрыва, или @Check[religion|dc:40|name:Запечатать духов] (эксперт) временно запечатать духов</p>",
			"reset": "<p>1 час</p>",
			"stealth": "<p>(мастер) услышать эха далеких объектов, разбивающихся об землю</p>",
			"items": [
				{
					"id": "i9qsvHuq9IdeRohO",
					"name": "Зов земли",
					"description": "<p><strong>Триггер:</strong> Существо приближается на 15 футов к краю обрыва.</p>\n<hr />\n<p><strong>Эффект:</strong> Каждый дух пытается сбросить с обрыва существо, в пределах 60 футов от края обрыва, совершая проверку с модификатором [[/r 1d20+26]]{+26} против КС Стойкости цели. В случае успеха, цель сброшена с края обрыва и падает 120 футов на землю.</p>\n<p>Пока призрак не побежден, каждое существо в пределах 60 футов от края обрыва должно совершать спасбросок @Check[will|dc:40]{Воли} каждый раз, когда тратит действие или реакцию на @UUID[Compendium.pf2e.actionspf2e.Item.qm7xptMSozAinnPS]{Остановить падение}, @UUID[Compendium.pf2e.actionspf2e.Item.cS9nfDRGD83bNU1p]{Лететь}, @UUID[Compendium.pf2e.actionspf2e.Item.3yoajuKjwHZ9ApUY]{Схватиться за уступ} или как-либо иначе избежать падения; при провале действие прервано. Призрак автоматически пытается противодействовать заклинаниям, замедляющим падение или смягчающим эффекты падения, как @UUID[Compendium.pf2e.spells-srd.Item.TTwOKGqmZeKSyNMH]{Плавное падение}, с модификатором противодействия [[/r 1d20+32]]{+32}.</p>"
				}
			]
		},
		"Poisoned Dart Gallery": {
			"name": "Галерея отравленных дротиков",
			"descriptionHazard": "<p>Бесчисленные отверстия для запуска ядовитых дротиков вдоль длинного коридора, со спрятанной панелью управления в дальнем конце.</p>",
			"disable": "<p>@Check[thievery|dc:21|name:Обезвредить ловушку (панель управления)|traits:action:disable-a-device] (эксперт) на панели управления, чтобы деактивировать ловушку</p>",
			"reset": "<p>Ловушка деактивируется и сбрасывается через 1 минуту.</p>",
			"routine": "<p>(1 действия): За 1 действие ловушка выпускает один дротик в каждое существо в галерее. Поскольку она постоянно выпускает дротики, ловушка еще может использовать свободное действие \"Постоянный обстрел\" (см. далее), чтобы выпускать дротики в каждое существо во время хода этого существа.</p>",
			"stealth": "<p>(эксперт) или @Check[perception|dc:31|traits:action:seek] (мастер) обнаружить панель управления</p>",
			"hp": "уничтожить панель управления и отключить ловушку",
			"items": [
				{
					"id": "KFCwJINs8Uu4riRs",
					"name": "Залп дротиков",
					"description": "<p><strong>Триггер:</strong> Существо попадает в коридор или заканчивает свой ход в коридоре</p>\n<hr />\n<p><strong>Эффект:</strong> Ловушка совершает @UUID[Compendium.pf2e.actionspf2e.Item.VjxZFuUXrCU94MWR]{Выстрел} отравленным дротиком по спровоцировавшему существу, а потом кидает инициативу.</p>"
				},
				{
					"id": "3oSIIlS5PZwciZ3k",
					"name": "Отравленный дротик"
				},
				{
					"id": "hkSWLZaKG41zef8w",
					"name": "Постоянный обстрел",
					"description": "<p><strong>Триггер:</strong> Существо заканчивает действие внутри активированной галереи</p>\n<hr />\n<p><strong>Эффект:</strong> Ловушка совершает @UUID[Compendium.pf2e.actionspf2e.Item.VjxZFuUXrCU94MWR]{Выстрел} отравленным дротиком по спровоцировавшему существу.</p>"
				},
				{
					"id": "eY731rvsYJZ2o5Sh",
					"name": "Флессетский яд",
					"description": "<p><strong>Спасбросок:</strong> @Check[fortitude|dc:22]</p>\n<p><strong>Макс.продолжительность:</strong> 6 раундов</p>\n<p><strong>Стадия 1:</strong> @Damage[1d6[poison]] и @UUID[Compendium.pf2e.conditionitems.Item.i3OJZU2nk64Df3xm]{Неуклюжесть 1} (1 раунд)</p>\n<p><strong>Стадия 2:</strong> @Damage[2d6[poison]] и @UUID[Compendium.pf2e.conditionitems.Item.i3OJZU2nk64Df3xm]{Неуклюжесть 2} (1 раунд)</p>\n<p><strong>Стадия 3:</strong> @Damage[3d6[poison]] и @UUID[Compendium.pf2e.conditionitems.Item.i3OJZU2nk64Df3xm]{Неуклюжесть 3} (1 раунд)</p>"
				},
				{
					"id": "6Tgjj5TppvVkF6QL",
					"name": "Нет ШМА",
					"description": "<p>\"Удары\" отравленным дротиком не добавляют ШМА.</p>"
				}
			]
		},
		"Poisoned Lock": {
			"name": "Отравленный замок",
			"descriptionHazard": "<p>Подпружиненный отравленный шип спрятан возле замочной скважины. Отключение или разламывание ловушки, не отключает или ломает замок (они независимы).</p>",
			"disable": "<p>@Check[thievery|dc:17|name:Обезвредить ловушку замка|traits:mechanical,trap] (обучен) на механизме пружины</p>",
			"stealth": "<p>(обучен)</p>",
			"items": [
				{
					"id": "1bvXbELRBoJTBqsR",
					"name": "Спружинить",
					"description": "<p><strong>Триггер:</strong> Существо пытается отпереть замок или @UUID[Compendium.pf2e.actionspf2e.Item.2EE4aF4SZpYf0R6H]{Вскрыть замок}.</p>\n<hr />\n<p><strong>Эффект:</strong> Шип выдвигается, чтобы \"Ударить\" спровоцировавшее существо.</p>"
				},
				{
					"id": "vFBoAHwlrVTu9wKm",
					"name": "Шип"
				},
				{
					"id": "HoWRGPkBlJjsL9zl",
					"name": "Яд кладис",
					"description": "<p><strong>Спасбросок:</strong> @Check[fortitude|dc:19]</p>\n<p><strong>Макс.продолжительность:</strong> 4 часа</p>\n<p><strong>Стадия 1:</strong> @Damage[1d6[poison]] и @UUID[Compendium.pf2e.conditionitems.Item.4D2KBtexWXa6oUMR]{Истощён 1} (1 час)</p>\n<p><strong>Стадия 2:</strong> @Damage[2d6[poison]] и @UUID[Compendium.pf2e.conditionitems.Item.4D2KBtexWXa6oUMR]{Истощён 2} (1 час)</p>\n<p><strong>Стадия 3:</strong> @Damage[3d6[poison]] и @UUID[Compendium.pf2e.conditionitems.Item.4D2KBtexWXa6oUMR]{Истощён 2} (1 час)</p>"
				}
			]
		},
		"Poisonous Mold": {
			"name": "Ядовитая плесень(*)",
			"descriptionHazard": "<p>Этот гротескный грибок выделяет ядовитые споры, когда существо приближается.</p>",
			"disable": "<p>@Check[survival|dc:18] (обучен) чтобы безопасно удалить плесень</p>",
			"reset": "<p>Если плесень не будет полностью уничтожена (обычно кислотой или огнем), она снова вырастет в течение 2 недель.</p>",
			"stealth": "<p>(обучен)</p>",
			"items": [
				{
					"id": "748inOlksdAeFB0A",
					"name": "Питание разложением",
					"description": "<p>Плесень расширяется при питании кровью или разложением. Если в какой-то момент существо получает урон кровотечением, находясь рядом с плесенью, а также если умирающее существо или мертвое тело находится рядом с плесенью, плесень увеличивается и расширяется на каждый квадрат, прилегающей к ее текущему пространству. Это может произойти только один раз в день.</p>"
				},
				{
					"id": "ZN34eJalpkCoNMeM",
					"name": "Взрыв спор",
					"description": "<p><strong>Частота:</strong> Раз в день</p>\n<p><strong>Триггер:</strong> Существо касается плесени, ударяет ее или повреждает ее</p>\n<hr />\n<p><strong>Эффект:</strong> Плесень взрывается вспышкой спор и скоплений плесени, нанося @Damage[(2d6+6)[poison]] существам в пределах 10 футов от нее с простым спасброском @Check[fortitude|dc:18|basic]{Стойкости}.</p>"
				},
				{
					"id": "h7tMZClq2efB1OYA",
					"name": "Парящие споры",
					"description": "<p>5 футов.</p><hr /><p>Существо, входящее в эту ауру или начинающее свой ход, получает @Damage[2d6[poison]].</p>"
				}
			]
		},
		"Polymorph Trap": {
			"name": "Полиморфная ловушка",
			"descriptionHazard": "<p>Друидический глиф пытается превратить нарушителя в животное.</p>",
			"disable": "<p>@Check[thievery|dc:32|name:Истощить силу глифа|traits:action:disable-a-device] (мастер) безвредно истощить силу глифа, или @UUID[Compendium.pf2e.spells-srd.Item.9HpwDN4MYQJnW0LG] (6-й ранг; противодействие КС 30), чтобы противодействовать глифу</p>",
			"stealth": "<p>(обучен)</p>",
			"items": [
				{
					"id": "TxhvkFafggYWv5D7",
					"name": "Проклятая метаморфоза(*)",
					"description": "<p><strong>Триггер:</strong> Существо проходит в пределах 30 футов от глифа не говоря пароль на друидском языке.</p>\n<hr />\n<p><strong>Эффект:</strong> Существо становится целью для @UUID[Compendium.pf2e.spells-srd.Item.dN8QBNuTiaBHCKUe]{Проклятой метаморфозы} (спасбросок @Check[will|dc:32]{Воли}).</p>"
				}
			]
		},
		"Quicksand": {
			"name": "Зыбучий песок",
			"descriptionHazard": "<p>Пятно из воды и песка шириной 15 футов пытается затянуть наступающих на него существ.</p>",
			"disable": "<p>@Check[survival|dc:18|name:Безопасно потревожить поверхность] (обучен) потревожить поверхность</p>",
			"reset": "<p>Опасность всё ещё затягивает любого, кто зайдет в нее, но поверхность не становится снова спрятанной пока не уляжется в течение 24 часов.</p>",
			"routine": "<p>(1 действие): Во время своей инициативы, зыбучий песок затягивает вниз каждое существо внутри себя. Существо, которое было погружено по пояс, погружается по шею, а существо, которое было погружено по шею, полностью затягивается в песок и должно задержать свое дыхание, чтобы не задыхаться (@UUID[Compendium.pf2e.journals.JournalEntry.S55aqwWIzpQRFhcq.JournalEntryPage.KdoLyU91c0oS2hTw#tonutь-i-zadyhatьsya]{Тонуть и задыхаться}).</p>\n<p>Существо в зыбучем песке может сделать проверку @Check[athletics|dc:20], чтобы @UUID[Compendium.pf2e.actionspf2e.Item.c8TGiZ48ygoSPofx]{Плыть} либо подняв себя на одну ступень, если погружено по шею или хуже, либо чтобы двигаться 5 футов, если погружено лишь по пояс. При крит.провале, существо погружается на 1 ступень. Существо, которое \"Выплывает\" из зыбучего песка, выбирается из опасности и лежит ничком в пространстве рядом с пятном зыбучего песка. Другие существа могут оказать этому существу @UUID[Compendium.pf2e.actionspf2e.Item.HCl3pzVefiv9ZKQW]{Помощь}, обычно используя веревку или совершая подобное содействие, или пытаясь вытянуть существо своими собственными проверками @Check[athletics|dc:20|name:Помочь другому существу в зыбучем песке], с теми же результатами, как если бы существо само делало эту проверку.</p>",
			"stealth": "<p>(обучен) (или −10 и без минимального мастерства если поверхность потревожена)</p>",
			"items": [
				{
					"id": "Ey8CknllSG5csxdG",
					"name": "Погружение",
					"description": "<p><strong>Триггер:</strong> Существо Огромного размера или менее заходит на зыбучий песок</p>\n<hr />\n<p><strong>Эффект:</strong> Спровоцировавшее существо тонет в зыбучем песке по пояс. Зыбучий песок кидает инициативу, если еще этого не сделал.</p>"
				}
			]
		},
		"Scythe Blades": {
			"name": "Косящие лезвия",
			"descriptionHazard": "<p>Два лезвия, каждое из которых спрятано в прорези потолка длиной 15 футов, соединены с растяжкой.</p>",
			"disable": "<p>@Check[thievery|dc:21|name:Отключить лезвие] (обучен) для отключения каждого лезвия</p>",
			"reset": "<p>Ловушка сбрасывается через 15 минут.</p>",
			"stealth": "<p>(обучен)</p>",
			"items": [
				{
					"id": "0fjRyLkdj1a2kfGM",
					"name": "Падающие лезвия",
					"description": "<p><strong>Триггер:</strong> Растяжка натянута или перерезана.</p>\n<hr />\n<p><strong>Эффект:</strong> Оба лезвия опускаются вниз, каждое @UUID[Compendium.pf2e.actionspf2e.Item.VjxZFuUXrCU94MWR]{Ударяет} всех существ под потолочными прорезями.</p>"
				},
				{
					"id": "oaNkRH35bkjdSm6P",
					"name": "Коса"
				},
				{
					"id": "eLyrxG4My2vDsmHg",
					"name": "Нет ШМА",
					"description": "<p>\"Удары\" косами не добавляют ШМА.</p>"
				}
			]
		},
		"Second Chance": {
			"name": "Второй шанс",
			"descriptionHazard": "<p>Мощная защитная магия, привязанная к объекту или месту, пытается повернуть вспять возраст существа и его союзников.</p>",
			"disable": "<p>@Check[thievery|dc:46|name:Разобрать заклинание|traits:action:disable-a-device] (легенда) с закрытыми глазами, разбирать заклинание по одному крошечному кусочку за раз, вспоминая все яркие жизненные воспоминания по порядку, начиная с самого раннего</p>",
			"stealth": "<p>(легенда)</p>",
			"items": [
				{
					"id": "ddB24NYRgK5YbbcR",
					"name": "В самом начале...",
					"description": "<p><strong>Триггер:</strong> Существо пытается украсть объект или вторгнуться в место. Если кто-то использует посредника или подставное лицо для кражи или вторжения, ловушка безошибочно нацелена на истинного преступника или преступников на любом расстоянии — даже через планы.</p>\n<hr />\n<p><strong>Эффект:</strong> Спровоцировавшее существо и вплоть до 5 соучастников мгновенно превращаются в маленьких детей, теряя все воспоминания, классовые возможности и другие навыки, приобретенные в течение их жизни (спасбросок @Check[fortitude|dc:44]{Стойкости} отменяет). Повернуть вспять этот эффект практически невозможно, для этого требуется мощная магия, такая как @UUID[Compendium.pf2e.spells-srd.Item.6dDtGIUerazSHIOu]{Желание}.</p>"
				}
			]
		},
		"Shrieker": {
			"name": "Визгун",
			"descriptionHazard": "<p>Этот фиолетовый гриб размером с человека издает пронзительный визг, если его потревожить.</p>",
			"disable": "<p>@Check[survival|dc:18|name:Обезвредить воздушный мешок|traits:environmental,fungus] осторожно приблизиться не провоцируя визгуна и срезать воздушный мешок</p>",
			"reset": "<p>1 минута</p>",
			"items": [
				{
					"id": "sBSa8YzXeDYM0ODl",
					"name": "Визг",
					"description": "<p><strong>Триггер:</strong> Существо или источник света приближается к визгуну на 10 футов, или визгун получает урон.</p>\n<hr />\n<p><strong>Эффект:</strong> Визгун издает оглушительный визжащий крик, который наносит @Damage[1d6[sonic]] существам в радиусе 30 футов (простой спасбросок @Check[fortitude|dc:16|basic|traits:auditory]{Стойкости}; существа, критически провалившие этот спасбросок, @UUID[Compendium.pf2e.conditionitems.Item.9PR9y0bi4JPKnHPR]{Глохнут} на 1 минуту).</p>"
				}
			]
		},
		"Slamming Door": {
			"name": "Хлопающая дверь(*)",
			"descriptionHazard": "<p>Чувствительные к давлению панели в полу соединены с каменной плитой, спрятанной в потолке коридора.</p>",
			"disable": "<p>@Check[thievery|dc:15|name:Отключить напольную панель] (обучен) на напольных панелях, до того как упадет плита</p>",
			"stealth": "<p>(обучен)</p>",
			"items": [
				{
					"id": "34y07VryqAVeJhfG",
					"name": "Захлопнуться",
					"description": "<p><strong>Триггер:</strong> На любую из напольных плиток оказывается давление.</p>\n<hr />\n<p><strong>Эффект:</strong> Плита падает, закрывая коридор. При падении каменная плита наносит @Damage[3d8[bludgeoning]] всем, кто находится под ней или рядом, и толкает их из своего пространства в случайном направлении. Существо, которое успешно проходит спасбросок @Check[reflex|dc:17|traits:damaging-effect]{Рефлекса} не получает урон, и откатывается в случайном направлении. При критическом успехе, они могут выбрать направление.</p>\n<p>Поднятие упавшей плиты требует успешной проверки @Check[athletics|dc:25|name:Поднять плиту|showDC:all]{Атлетики}.</p>\n<p>Попадание по напольной панели активирует ловушку. Потолочная плита использует такой же КБ и спасброски, что и ловушка, но обладает Твердостью 12, ОЗ 48 (ПП 24).</p>"
				}
			]
		},
		"Snowfall": {
			"name": "Снегопад",
			"descriptionHazard": "<p>Рыхлый снег и лед скопились на высокой поверхности, такой как, ветка дерева или крыша дома. Он слабо держится на поверхности и может упасть если поверхность сдвинется.</p>",
			"disable": "<p>@Check[survival|dc:19|name:Безопасно сбросить снег] (обучен) безопасно сбросить снег, или нанести любое количество урона огнем, чтобы уничтожить опасность без ее срабатывания</p>",
			"stealth": "<p>(обучен)</p>",
			"items": [
				{
					"id": "hoSnbd89PgLy85mP",
					"name": "Падение снега",
					"description": "<p><strong>Триггер:</strong> Существо перемещается под местом со снегопадом.</p>\n<hr />\n<p><strong>Эффект:</strong> На спровоцировавшее существо падает снег и лед, нанося @Damage[(2d6+3)[bludgeoning]] (@Check[reflex|dc:18|basic]) и его одежда промокает. Пока они не переоденутся или проведут хотя бы 1 час в области с нормальной или более высокой температурой, то считают холод окружающей среды на один шаг холоднее (например, умеренный холод становится сильным).</p>"
				}
			]
		},
		"Spear Launcher": {
			"name": "Копьемет",
			"descriptionHazard": "<p>Отверстие в стене, заряженное копьём, соединяется с одной напольной 5-футовой квадратной плитой.</p>",
			"disable": "<p>@Check[thievery|dc:18|name:Отключить] (обучен) на напольной плите или стенном отверстие</p>",
			"stealth": "<p>(обучен)</p>",
			"items": [
				{
					"id": "0KrOaCLFSEcIdcej",
					"name": "Копьё",
					"description": "<p><strong>Триггер:</strong> На напольную плиту оказывается давление.</p>\n<hr />\n<p><strong>Эффект:</strong> Ловушка выстреливает копьё, совершая @UUID[Compendium.pf2e.actionspf2e.Item.VjxZFuUXrCU94MWR]{Удар} по существу или объекту на этой напольной плите.</p>"
				},
				{
					"id": "B486xwl3ZYYCqNyw",
					"name": "Копьё"
				}
			]
		},
		"Spectral Reflection": {
			"name": "Призрачное отражение",
			"descriptionHazard": "<p>Отражение в зеркале неуловимо искривляется и искажается, его выражение приобретает нервирующую злобную усмешку.</p>",
			"disable": "<p>@Check[religion|dc:23|name:Изгнать духа] (обучен) изгнать духа, или @Check[thievery|dc:23|name:Накрыть зеркало|traits:action:disable-a-device] (обучен) быстро накрыть зеркало</p>",
			"reset": "<p>Через 1 минуту призрак образуется заново, появляясь в любом зеркале в пределах пронизанной области (см. <em>\"Особенность\"</em> ниже).</p>",
			"stealth": "<p>(эксперт)</p>",
			"items": [
				{
					"id": "hEtVGo9EpKcXlhPI",
					"name": "Призрачное прокалывание",
					"description": "<p><strong>Триггер:</strong> Живое существо приближается на 15 футов к зеркалу, и зеркало освещено тусклым или более ярким светом.</p>\n<hr />\n<p><strong>Эффект:</strong> Теневые шипы прокалывают тело отраженного существа, так как призрак наносит @UUID[Compendium.pf2e.actionspf2e.Item.VjxZFuUXrCU94MWR]{Удар} теневыми шипами.</p>"
				},
				{
					"id": "wdA0nAhiSTY7znrs",
					"name": "Теневые шипы"
				},
				{
					"id": "17gJOHIRtWXfYMKa",
					"name": "Вытягивание жизненной силы",
					"description": "<p>Существо, по которому попали теневые шипы отражения, должно совершить спасбросок @Check[fortitude|dc:22]{Стойкости}, так как призрак пытается затянуть в зеркало часть его жизненной эссенции. Цель @UUID[Compendium.pf2e.conditionitems.Item.4D2KBtexWXa6oUMR]{Истощена 1} при провале спасброска или @UUID[Compendium.pf2e.conditionitems.Item.4D2KBtexWXa6oUMR]{Истощена 2} при критическом провале.</p>"
				},
				{
					"id": "V7tWWuB9NSEsMEae",
					"name": "Особенность(*)",
					"description": "<p>Призрачные отражения часто пронизывают целые здания, проявляясь в любом достаточно большом зеркале. Приведенные в качестве примера Очки Здоровья и Твердость представляют типичное зеркало, усиленное призраком; по вашему усмотрению, призрак может появляться в отражающих поверхностях, которые труднее разрушить. Расправа с проявлением посредством нанесения урона уничтожает эту поверхность и не дает призраку использовать ее снова. Если призрак появляется в области с большим количеством зеркал, подумайте о том, чтобы дать игровым персонажам двойное или даже тройное количество Опыта простой опасности.</p>"
				}
			]
		},
		"Spinning Blade Pillar": {
			"name": "Столб с вращающимся лезвием",
			"descriptionHazard": "<p>В полу спрятан металлический столб с тремя острыми как бритва вращающимися лезвиями, соединен с пусковыми пластинами с вплоть до восемью плитами на полу, и скрытой панелью управления в пределах 30 футов.</p>",
			"disable": "<p>@Check[thievery|dc:21|name:Отключить столб|traits:action:disable-a-device] (обучен) дважды на столбе, или @Check[thievery|dc:19|name:Отключить ловушку (панель управления)|traits:action:disable-a-device] (эксперт) 1 раз на панели управления отключает всю ловушку. Сломанная панель управления не позволяет никому отключить ловушку, используя панель управления, и не дает ловушке отключить автоматически (см. \"Сброс\").</p>",
			"reset": "<p>Ловушка деактивируется и сбрасывается через 1 минуту.</p>",
			"routine": "<p>(3 действия): Ловушка использует свое 1-е действие, чтобы сделать @UUID[Compendium.pf2e.actionspf2e.Item.VjxZFuUXrCU94MWR]{Удар} вращающимся лезвием по всем существам рядом, 2-е действие, чтобы двигаться прямо в случайном направлении (киньте [[/gmr 1d4#Направление]]{1d4} для определения направления), и свое 3-е действие, чтобы сделать \"Удар\" вращающимся лезвием по всем существам рядом. Эта ловушка не получает штраф множественной атаки.</p>",
			"stealth": "<p>(обучен) или @Check[perception|dc:26|traits:action:seek] (эксперт) заметить панель управления</p>",
			"hp": "<strong>Твердость панели:</strong> 5, <strong>ОЗ панели:</strong> 20 (ПП 10)",
			"items": [
				{
					"id": "F0I1pLJQm1AQtXPH",
					"name": "Подъем столба",
					"description": "<p><strong>Триггер:</strong> Существо наступает на одну из плит пола связанных с ловушкой.</p>\n<hr />\n<p><strong>Эффект:</strong> Ловушка появляется на пересечении сетки и совершает @UUID[Compendium.pf2e.actionspf2e.Item.VjxZFuUXrCU94MWR]{Удар} вращающимся лезвием по 1 существу рядом (если есть), потом кидает инициативу.</p>"
				},
				{
					"id": "6wV9i41Jd4HThaAi",
					"name": "Скорость",
					"description": "<p>10 футов</p>"
				},
				{
					"id": "vS5xxWVCLY1BNE4O",
					"name": "Вращающееся лезвие"
				}
			]
		},
		"Sportlebore": {
			"name": "Спортлбор",
			"descriptionHazard": "<p>Спортлбор прячется среди провизии на тарелке с едой или в упаковке с рационом.</p>",
			"disable": "<p>Существо, заметившее спортлбор, может автоматически действием @UUID[Compendium.pf2e.actionspf2e.Item.pvQ5rY2zrtPI614F]{Взаимодействовать} убрать его из еды, в которой он прячется.</p>",
			"stealth": "<p>(эксперт)</p>",
			"items": [
				{
					"id": "WleycA2DC7Pz8RYR",
					"name": "Имитировать еду",
					"description": "<p><strong>Триггер:</strong> Существо съедает пищу, в которой прядется спортлбор</p>\n<hr />\n<p><strong>Эффект:</strong> Спортлбор быстро размножается в животе носителя, подвергая его заражению спортлборами.</p>"
				},
				{
					"id": "nCcx1LK7XrbDnVXI",
					"name": "Заражение спортблорами",
					"description": "<p><strong>Спасбросок:</strong> @Check[fortitude|dc:22|basic]</p>\n<p><strong>Стадия 1:</strong> Переносчик не имеет эффектов недуга (1 день)</p>\n<p><strong>Стадия 2:</strong> @UUID[Compendium.pf2e.conditionitems.Item.MIRkyAjyBeXivMa7]{Ослаблен 1} (1 час)</p>\n<p><strong>Стадия 3:</strong> @UUID[Compendium.pf2e.conditionitems.Item.MIRkyAjyBeXivMa7]{Ослаблен 2} (1 час)</p>\n<p><strong>Стадия 4:</strong> @Damage[4d6[bludgeoning]]{4d6 дробящего урона} (простой спасбросок @Check[fortitude|dc:25|basic]{Стойкости}) носитель болезненно отрыгивает Рой спортлбор и возвращается на стадию 1.</p>"
				}
			]
		},
		"Steam Vents": {
			"name": "Паровые клапаны(*)",
			"descriptionHazard": "<p>Большие трубы под давлением, соединенные с растяжкой, срабатывают для выпуска струй пара на нарушителей.</p>",
			"disable": "<p>@Check[thievery|dc:22|name:Отключить растяжку|traits:mechanical,trap,hazard] (обучен) отключить растяжку или @Check[crafting|dc:24|name:Снизить давление|traits:mechanical,trap,hazard] (эксперт), аккуратно снизить давление и предотвратить взрыв пара.</p>",
			"stealth": "<p>(обучен)</p>",
			"items": [
				{
					"id": "SvqJNCRH2eI1jZk1",
					"name": "Взрыв пара",
					"description": "<p><strong>Триггер:</strong> Растяжка потянута или оборвана, как правило, потому что существо прошло через квадрат с растяжкой</p>\n<hr />\n<p><strong>Эффект:</strong> Из труб вырывается пар, нанося всем существам в пределах 15 футов @Damage[3d6[bludgeoning],3d6[fire]] (простой спасбросок @Check[reflex|dc:24|basic|name:Избежать порыв пара|traits:mechanical,trap,hazard,damaging-effect]{Рефлекса}). Существа, критически провалившие свой спасбросок также сбиты @UUID[Compendium.pf2e.conditionitems.Item.j91X7x0XSomq8d60]{Ничком}.</p>"
				}
			]
		},
		"Summoning Rune": {
			"name": "Руна призыва",
			"descriptionHazard": "<p>Облако невидимых магических сенсоров 10-футовым радиусом окружает невидимую руну на стене или полу, размером с существо, которое нужно призвать.</p>",
			"disable": "<p>@Check[acrobatics|dc:15|name:Приблизиться к руне] приблизиться, не провоцируя ловушку, потом @Check[thievery|dc:17|name:Стереть руну|traits:action:disable-a-device] (обучен) стереть руну, или @UUID[Compendium.pf2e.spells-srd.Item.9HpwDN4MYQJnW0LG] (1-й ранг; противодействие КС 15), чтобы противодействовать руне</p>",
			"reset": "<p>Ловушка сбрасывается каждый день на рассвете</p>",
			"stealth": "<p>(обучен)</p>",
			"items": [
				{
					"id": "1M9OasbKWAPME9IC",
					"name": "Призыв монстра",
					"description": "<p><strong>Триггер:</strong> Существо попадает в облако магических сенсоров</p>\n<hr />\n<p><strong>Эффект:</strong> Эта ловушка призывает конкретное существо 1-го уровня, определенное при создании ловушки. Существо кидает инициативу и остаётся на [[/gmr 2d6 #раунды]]{2d6 раундов}, после которых заклинание заканчивается и существо исчезает. Еще существо исчезает если кто-то отключает ловушку до завершения заклинания. В отличие от большинства призванных существ, оно каждый раунд может использовать 3 действия и реакции.</p>"
				}
			]
		},
		"Telekinetic Swarm Trap": {
			"name": "Телекинетический рой",
			"descriptionHazard": "<p>Три безобидных декорации, наполненные телекинетической магией, тянут объекты и части самой комнаты в крутящиеся облака предметов, которые атакуют всех существ в комнате.</p>",
			"disable": "<p>@Check[thievery|dc:27|name:Разобрать облако|traits:action:disable-a-device] (эксперт) разобрать телекинетическое облако, @Check[thievery|dc:32|name:Отключить телекинетическую декорацию|traits:action:disable-a-device] (мастер) отключить каждую телекинетическую декорацию, или @UUID[Compendium.pf2e.spells-srd.Item.9HpwDN4MYQJnW0LG] (6-й ранг; противодействие КС 30) противодействовать каждой телекинетической декорации</p>",
			"reset": "<p>Ловушка деактивируется и сбрасывается через 10 минут после того, как у нее нет существ, в которых целиться (потому что либо существа отошли слишком далеко, либо умерли).</p>",
			"routine": "<p>(9 действий): Каждая декорация использует каждый ход 3 действия ловушки, и за каждую отключенную декорацию, ловушка теряет 3 действия каждый ход. Декорация использует свое 1-е действие, чтобы переместить ее облако объектов на расстояние вплоть до 200 футов, свое 2-е действие, чтобы сделать @UUID[Compendium.pf2e.actionspf2e.Item.VjxZFuUXrCU94MWR]{Удар} объектами, а свое 3-е действие, чтобы добавить в облако больше объектов, увеличивая его урон на 1d12 (до максимальных 4d12+10). Если облако декорации уже обладает максимальным уроном, то оно не делает ничего своим 3-м действием.</p>\n<p>Если облако декорации было уничтожено, то вместо этого она тратит свое 1-е действие на создание нового облака объектов в комнате (используя начальное значение урона) и потом 2-е и 3-е действия на перемещение облака и \"Удар\".</p>",
			"stealth": "<p>(эксперт)</p>",
			"hp": "у каждого телекинетического облака",
			"items": [
				{
					"id": "SvVSBExFgbjDrBvW",
					"name": "Взбудоражить",
					"description": "<p><strong>Триггер:</strong> Существо остаётся в комнате хотя бы на 6 секунд.</p>\n<hr />\n<p><strong>Эффект:</strong> Каждая телекинетическая декорация собирает в комнате облако объектов (всего 3 облака) и ловушка кидает инициативу. Когда ловушка спровоцирована, существа в комнате становятся ее целями, независимо от того, покидают ли они комнату или в нее позднее входят другие существа. Все декорации целятся в разных существ, если это возможно. Существо-цель, которое уходит хотя бы на 1 милю от ловушки, перестаёт быть целью, после чего ловушка обозначает новую цель.</p>"
				},
				{
					"id": "aJouqXgwCGFTWYHD",
					"name": "Объекты"
				}
			]
		},
		"Titanic Flytrap": {
			"name": "Титаническая мухоловка",
			"descriptionHazard": "<p>На первый взгляд, титаническая мухоловка это обычная мухоловка, но под мутной водой она скрывает гораздо более мощные челюсти, достигающие 10 футов в поперечнике, укрепленные древесными ветвями и покрытые паралитическими волосками.</p>",
			"disable": "<p>@Check[survival|dc:22|name:Обмануть чувства мухоловки] (обучен) ввести в заблуждение ощущение веса и давления мухоловки</p>",
			"reset": "<p>1 час (или дольше, после поедания обильной пищи)</p>",
			"stealth": "<p>(обучен)</p>",
			"items": [
				{
					"id": "f9aVsy30iGDJTtb4",
					"name": "Захлопнуться",
					"description": "<p><strong>Триггер:</strong> Маленькое или Среднее существо попадает в квадрат в досягаемости спрятанных челюстей мухоловки</p>\n<hr />\n<p><strong>Эффект:</strong> Челюсти мухоловки смыкаются, нанося по спровоцировавшему существу @UUID[Compendium.pf2e.actionspf2e.Item.VjxZFuUXrCU94MWR]{Удар} челюстями.</p>"
				},
				{
					"id": "Yw05wWhZB9fLdatc",
					"name": "Челюсти"
				},
				{
					"id": "eauYGISAGprcOwH4",
					"name": "Сожрать",
					"description": "<p>Цель поймана челюстями мухоловки, получая состояние @UUID[Compendium.pf2e.conditionitems.Item.kWc1fhmv9LBiTuei]{Схвачен} пока не @UUID[Compendium.pf2e.actionspf2e.Item.SkZAQRkLLkmBQNB9]{Вырвется} (КС 21). Дополнительно, она подвергается токсину титанической мухоловки из сотен крошечных волосков, которыми усеяны внутренности листьев. Если @UUID[Compendium.pf2e.actionspf2e.Item.VjxZFuUXrCU94MWR]{Удар} челюстей мухоловки был критически успешен, то цель получает штраф обстоятельства −2 к своему спасброску от этого яда. Пока цель остаётся @Condition[Grabbed]{схвачена} на момент окончания своего хода, она получает @Damage[3d6[acid]].</p>"
				},
				{
					"id": "qBQpsAk64L9c0sJ2",
					"name": "Токсин титанической мухоловки",
					"description": "<p><strong>Спасбросок:</strong> @Check[fortitude|dc:21]</p>\n<p><strong>Макс.продолжительность:</strong> 4 раунда</p>\n<p><strong>Стадия 1:</strong> @Damage[2d6[poison]] и @UUID[Compendium.pf2e.conditionitems.Item.dfCMdR4wnpbYNTix]{Ошеломлен 1} (1 раунд)</p>\n<p><strong>Стадия 2:</strong> @Damage[3d6[poison]] и @UUID[Compendium.pf2e.conditionitems.Item.dfCMdR4wnpbYNTix]{Ошеломлен 2} (1 раунд)</p>\n<p><strong>Стадия 3:</strong> @Damage[4d6[poison]] и @UUID[Compendium.pf2e.conditionitems.Item.6uEgoh53GbXuHpTF]{Парализован} (1 раунд)</p>"
				}
			]
		},
		"Treacherous Scree": {
			"name": "Коварная осыпь",
			"descriptionHazard": "<p>На первый взгляд, основание этой наклонной земли кажется устойчивым, но покрывающие ее мелкие камни, имеют неплотную структуру и могут начать скатываться.</p>",
			"disable": "<p>@Check[survival|dc:20|name:Проложить безопасный путь] (обучен) проложить безопасный путь</p>",
			"stealth": "<p>(обучен)</p>",
			"items": [
				{
					"id": "DE7tTstJaGz9oAi4",
					"name": "Обвал",
					"description": "<p><strong>Триггер:</strong> Существо ступает на неустойчивую землю.</p>\n<hr />\n<p><strong>Эффект:</strong> Камни катятся и скользят под его ногами. Существо запинается о камни, что наносит @Damage[(2d10+13)[bludgeoning]], и должно совершить спасбросок @Check[reflex|dc:21|traits:damaging-effect]{Рефлекса}.</p>\n<hr />\n<p><strong>Критический успех:</strong> Существо не получает урона.</p>\n<p><strong>Успех:</strong> Существо получает половину урона и падает @UUID[Compendium.pf2e.conditionitems.Item.j91X7x0XSomq8d60]{Ничком} в своем пространстве.</p>\n<p><strong>Провал:</strong> Существо получает полный урон, падает @UUID[Compendium.pf2e.conditionitems.Item.j91X7x0XSomq8d60]{Ничком} в своем пространстве и скатывается вниз до конца склона.</p>\n<p><strong>Критический провал:</strong> Как провал, но с двойным уроном.</p>"
				}
			]
		},
		"Vorpal Executioner": {
			"name": "Стрижающий палач",
			"descriptionHazard": "<p>Ужасно острое лезвие пилы спускается и перемещается по желобам в сложной траектории по всей комнате, пытаясь обезглавить всех, кто находится внутри.</p>",
			"disable": "<p>@Check[thievery|dc:41|name:Заклинить лезвия|traits:action:disable-a-device] (эксперт) на четырех разных соединениях, чтобы заклинить все возможные пути лезвия, не позволяя ему перемещаться по комнате</p>",
			"reset": "<p>Ловушка сбрасывается в течение 1 раунда и может быть снова активирована через 1 раунд.</p>",
			"stealth": "<p>(эксперт)</p>",
			"hp": "для каждого соединения",
			"items": [
				{
					"id": "4QF1yNgj2FX7rO4C",
					"name": "Полное обезглавливание",
					"description": "<p><strong>Триггер:</strong> Существо пытается выйти из комнаты.</p>\n<hr />\n<p><strong>Эффект:</strong> Лезвие пилы движется по своему пути, нанося один @UUID[Compendium.pf2e.actionspf2e.Item.VjxZFuUXrCU94MWR]{Удар} каждому существу в комнате, поворачиваясь и меняя свою высоту, чтобы с максимальной вероятностью обезглавить цель.</p>"
				},
				{
					"id": "T0k2Rnyz49qG1Gkv",
					"name": "Лезвие пилы"
				},
				{
					"id": "mPVesRXUMN4Ws9IR",
					"name": "Обезглавливание",
					"description": "<p>При критическом попадании, цель должна успешно пройти спасбросок @Check[fortitude|dc:39|traits:damaging-effect]{Стойкости}, иначе будет обезглавлена, мгновенно умирая, если только не может выжить без головы.</p>"
				},
				{
					"id": "1HPSHShNAV8hxPe3",
					"name": "Нет ШМА",
					"description": "<p>\"Удары\" лезвием пилы не добавляют ШМА.</p>"
				}
			]
		},
		"Web Lurker Deadfall": {
			"name": "Западня паутинщика",
			"descriptionHazard": "<p>Паутинная растяжка отпускает связку валунов, которые падают на все цели в 10-футовом квадрате.</p>",
			"disable": "<p>@Check[survival|dc:20|name:Пререставить паутину|traits:mechanical,trap] (обучен) или @Check[thievery|dc:20|name:Пререставить паутину|traits:mechanical,trap] (эксперт) переставить паутину.</p>",
			"stealth": "<p>@Check[stealth|dc:23]</p>",
			"items": [
				{
					"id": "j3QvHDCU1gvOInG4",
					"name": "Обвал",
					"description": "<p><strong>Триггер:</strong> Существо наступает в квадрат с паутинной растяжкой</p>\n<hr />\n<p><strong>Эффект:</strong> Все существа в 10-футовом квадрате ловушки получают @Damage[2d6[bludgeoning]] (@Check[reflex|dc:20|basic]).</p>"
				}
			]
		},
		"Web Lurker Noose": {
			"name": "Петля паутинщика",
			"descriptionHazard": "<p>Незаметная паутина на уровне горла цепляется за существо, которое в нее попадет.</p>",
			"disable": "<p>@Check[survival|dc:18|name:Переставить паутин|traits:mechanical,trap] (обучен) или @Check[thievery|dc:18|name:Переставить паутину|traits:mechanical,trap] (эксперт) переставить паутину.</p>",
			"items": [
				{
					"id": "LZTjCUaLv54zwB8W",
					"name": "Петля из паутины",
					"description": "<p><strong>Триггер:</strong> Существо наступает в квадрат с паутинной растяжкой</p>\n<hr />\n<p><strong>Эффект:</strong> Петля паутинщика наносит \"Удар\" петлёй по спровоцировавшему существу.</p>"
				},
				{
					"id": "VNaaW87S24zzxXZh",
					"name": "Петля",
					"description": "<p>При успешном \"Ударе\", цель @UUID[Compendium.pf2e.conditionitems.Item.kWc1fhmv9LBiTuei]{Схвачена} и поднята от земли ([[/act escape dc=22]]).</p>\n<p>Цель получает @Damage[1d6[bludgeoning]] в конце каждого своего хода, пока поймана петлей.</p>"
				}
			]
		},
		"Wheel Of Misery": {
			"name": "Колесо страдания",
			"descriptionHazard": "<p>В стене установлен украшенный круг, разделенный на 6 секторов, с цветными рунами на каждом, управляемый магическим сенсором, который обнаруживает любое существо в пределах 100 футов перед ним.</p>",
			"disable": "<p>@Check[thievery|dc:26|name:Остановить колесо|traits:action:disable-a-device] (эксперт) остановить колесо, чтобы оно не вращалось, @Check[thievery|dc:22|name:Стереть руну|traits:action:disable-a-device] (мастер) стереть каждую руну, или @UUID[Compendium.pf2e.spells-srd.Item.9HpwDN4MYQJnW0LG] (4-й ранг; противодействие КС 22), чтобы противодействовать каждой руне</p>",
			"reset": "<p>Ловушка деактивируется и сбрасывается, если в течение 1 минуты в пределах ее сенсора не проходит существ.</p>",
			"routine": "<p>(2 действия): Во время своей инициативы, ловушка использует свое 1-е действие для вращения, а потом останавливается. Киньте [[/r 1d6]]{1d6}, чтобы определить, какой сектор находится вверху в момент остановки круга. Круг использует свое 2-е действие, чтобы сотворить заклинание указанное в этом секторе (3-й ранг, КС 24, атака заклинанием +14). Цель этого заклинания является центром, или иным образом включает ближайшее существо в области. При необходимости, это увеличивает дистанцию заклинания до 100 футов. Любое заклинание, сотворенное этой ловушкой, является арканным.</p>\n<p><strong>1:</strong> @UUID[Compendium.pf2e.spells-srd.Item.o4lRVTwSxnOOn5vl]</p>\n<p><strong>2:</strong> @UUID[Compendium.pf2e.spells-srd.Item.DCQHaLrYXMI37dvW]</p>\n<p><strong>3:</strong> @UUID[Compendium.pf2e.spells-srd.Item.9AAkVUCwF6WVNNY2] (@Template[line|distance:100])</p>\n<p><strong>4:</strong> @UUID[Compendium.pf2e.spells-srd.Item.VosLNn2M8S7JH67D]</p>\n<p><strong>5:</strong> @UUID[Compendium.pf2e.spells-srd.Item.thAHF1zxNplLCJPO]</p>\n<p><strong>6:</strong> @UUID[Compendium.pf2e.spells-srd.Item.J7Y7tl0bbdz7TcCc]</p>",
			"stealth": "<p>(эксперт) обнаружить магический сенсор; заметить колесо — КС 0</p>",
			"items": [
				{
					"id": "ZS4b3rYv9jOgbMzm",
					"name": "Вращение колеса",
					"description": "<p><strong>Триггер:</strong> Существо попадает в зону обнаружения сенсора.</p>\n<hr />\n<p><strong>Эффект:</strong> Колесо начинает вращаться и кидает инициативу.</p>"
				}
			]
		},
		"Yellow Mold": {
			"name": "Желтая плесень",
			"descriptionHazard": "<p>Споры ядовитой плесени нападают на ближайших существ.</p>",
			"disable": "<p>@Check[survival|dc:26|name:Убрать плесень] (эксперт) убрать плесень не провоцируя споры</p>",
			"stealth": "<p>(обучен)</p>",
			"items": [
				{
					"id": "eTpo3PPNbe4sFYhD",
					"name": "Взрыв спор",
					"description": "<p><strong>Триггер:</strong> Существо попадает в пространство плесени или наносит ей урон. Плесень не может использовать эту реакцию, если находится на прямом солнечном свете или если урон был огненный.</p>\n<hr />\n<p><strong>Эффект:</strong> Спровоцировавшее существо и все существа в пределах @Template[emanation|distance:10]{10 футов} подвергаются спорам желтой плесени.</p>"
				},
				{
					"id": "tyAeSBnHmP9Nuh2k",
					"name": "Споры желтой плесени",
					"description": "<p>Любое полученное от спор состояние @UUID[Compendium.pf2e.conditionitems.Item.4D2KBtexWXa6oUMR]{Истощен}, остаётся после завершения продолжительности яда.</p>\n<p><strong>Спасбросок:</strong> @Check[fortitude|dc:26]</p>\n<hr />\n<p><strong>Макс.продолжительность:</strong> 6 раундов</p>\n<p><strong>Стадия 1:</strong> @Damage[1d8[poison]] и @UUID[Compendium.pf2e.conditionitems.Item.4D2KBtexWXa6oUMR]{Истощён 1} (1 раунд)</p>\n<p><strong>Стадия 2:</strong> @Damage[2d8[poison]] и @UUID[Compendium.pf2e.conditionitems.Item.4D2KBtexWXa6oUMR]{Истощён 2} (1 раунд)</p>\n<p><strong>Стадия 3:</strong> @Damage[3d8[poison]] и @UUID[Compendium.pf2e.conditionitems.Item.4D2KBtexWXa6oUMR]{Истощён 3} (1 раунд)</p>"
				}
			]
		}
	}
}