{
	"label": "Злоба(*)",
	"mapping": {
        "name": {
            "path": "name",
            "converter": "actorNameConverter"
        },
        "items": {
            "path": "items",
            "converter": "actorItemCollectionConverter"
        },
		"Cdescription": "system.details.publicNotes",
		"CdescriptionGM": "system.details.privateNotes",
		"language": "system.traits.languages.custom",
		"senses": "system.perception.details",
		"allSaves": "system.attributes.allSaves.value",
		"Hdescription": "system.details.description",
		"disable": "system.details.disable",
		"reset": "system.details.reset",
		"routine": "system.details.routine",
		"hp": "system.attributes.hp.details",
		"di": "system.traits.di.custom",
		"stealth": "system.attributes.stealth.details"
	},
	"entries": {
		"Algea": {
			"name": "Алгея",
			"Cdescription": "<p>Алгеи защищают (а иногда и возвращают) души, рискующими быть востребованными другими сущностями, особенно заклинателями, которые занимались потусторонними силами, но никогда официально не отдавали свои души.</p>",
			"senses": "видение магии",
			"allSaves": "+1 состояния ко всем спасброскам от магии",
			"items": [{
				"id": "XEk3qVgQOYlGTNiG",
				"name": "Врожденные сакральные заклинания"
			},{
				"id": "yLje6zDOxXB8lojm",
				"name": "Ритуалы"
			},{
				"id": "MMUnQ4sqzntfVl13",
				"name": "Планарный переход (Только на себя и существ в клетке душ, только в Могильник)",
				"description": "<p>Вы и ваши союзники пересекаете барьеры между планами бытия. Цели перемещаются на другой план, такой как Огненный план, Теневой план или Бездна. Вы должны обладать определенными знаниями о плане назначения и использовать магический камертон, созданный из материала с этого плана, в качестве фокуса для заклинания. В то время как камертоны для большинства известных планов являются необычными, так же как и это заклинание планарного перехода, более смутные планы и демипланы часто имеют камертоны редкого качества.</p>\n<p>Заклинание очень неточное, и вы появляетесь в 1d20×25 милях от последнего места, где одна из целей (по вашему выбору) была расположена в последний раз, когда она путешествовала на этот план. Если это первое путешествие на конкретный план для всех целей, вы появляетесь в случайном месте плана. <em>Планарный переход</em> не обеспечивает способов обратного путешествия, однако сотворение заклинания снова позволяет вам вернуться на ваш предыдущий план, если только нет каких-либо смягчающих обстоятельств.</p>",
				"range": "касание",
				"target": "Только на себя и существ в клетке душ",
				"time": "10 минут"
			},{
				"id": "WCb4RZFtgoB0Va63",
				"name": "Ночное зрение",
				"description": "<p>@Localize[PF2E.NPC.Abilities.Glossary.Darkvision]</p>"
			},{
				"id": "iAp1BgBeTFhgvNEP",
				"name": "Аура скорби",
				"description": "<p>@Template[emanation|distance:30] @UUID[Compendium.pf2e.bestiary-ability-glossary-srd.v61oEQaDdcRpaZ9X]</p>\n<hr />\n<p>Существо, которое начинает свой ход в ауре, должно совершить спасбросок @Check[will|dc:27]. Нежить получает штраф обстоятельства -2 к этому спасброску. Затем существо временно иммунно к <em>\"Ауре скорби\"</em> в течение 1 часа.</p>\n<p><strong>Успех:</strong> Существо не затронуто.</p>\n<p><strong>Провал:</strong> В течение 1 раунда, существо не может использовать реакции и @UUID[Compendium.pf2e.conditionitems.xYTAsEpcJE1Ccni3]{Замедлено 1} на этот ход, так как оно неконтролируемо рыдает.</p>\n<p><strong>Критический провал:</strong> Как провал, но эффект длится, пока существо остается в ауре + 1 минута.</p>"
			},{
				"id": "Bu3EUUlbn17nZdKq",
				"name": "Жизнечувствительность 60 футов",
				"description": "<p>@Localize[PF2E.NPC.Abilities.Glossary.Lifesense]</p>"
			},{
				"id": "zaePCGVy6RdZ31CZ",
				"name": "Видение магии",
				"description": "<p>Алгея могут видеть магические ауры существ или объектов видимых ими; они не могут видеть магические ауры на существах или объектах, которые скрыты от ее взгляда. Они распознают школы магии для всех заклинаний, воздействующих на существ.</p>"
			},{
				"id": "dONJ8beLYLyXfH4t",
				"name": "+1 состояния ко всем спасброскам от магии"
			},{
				"id": "idd2T28Lmct79QDu",
				"name": "Истощить магию",
				"description": "<p>Всякий раз, когда существо терпит провал в спасброске против <em>\"Бешеных клювов\"</em>, алгея пытается <a href=https://clck.ru/airKG>противодействовать</a> эффекту заклинания, активному на этом существе (6-й уровень, проверка противодействия [[/r 1d20+22 #counteract]]{+22}). Алгея может выбирать какому эффекту пытаться противодействовать для каждого существа.</p>"
			},{
				"id": "fmcgopzl3nvrBJkz",
				"name": "Бешеные клювы",
				"description": "<p>Каждый враг в пространстве роя получает @Damage[5d6[piercing]] (@Check[reflex|dc:30|basic] и подвергается <em>\"Истощению магии\"</em>. Этот урон влияет на бестелесных существ, как если имел руну @UUID[Compendium.pf2e.equipment-srd.JQdwHECogcTzdd8R]{Призрачного касания}.</p>"
			},{
				"id": "dCra4dM2DaOP8GAK",
				"name": "Клетка души",
				"description": "<p>Бестелесная нежить поврежденная <em>\"Бешеными клювами\"</em> должна совершить спасбросок @Check[will|dc:30].</p>\n<hr />\n<p><strong>Критический успех:</strong> Нежить не затронута и временно иммунна в течение 24 часов.</p>\n<p><strong>Успех:</strong> Нежить получает штраф состояния -10 футов к Скорости в течение 1 раунда.</p>\n<p><strong>Провал:</strong> Как успех, но нежить также @UUID[Compendium.pf2e.conditionitems.eIcWbB5o3pP6OIMe]{Обездвижена} на 1 раунд, хотя она может попытаться @UUID[Compendium.pf2e.actionspf2e.SkZAQRkLLkmBQNB9]{Вырваться} (КС 30).</p>\n<p><strong>Критический провал:</strong> Нежить @UUID[Compendium.pf2e.conditionitems.VcDeM8A5oI6VqhbM]{Сдерживаема} в течение 1 раунда. Алгея могут совершить @UUID[Compendium.pf2e.spells-srd.5bTt2CvYHPvaR7QQ] со <em>`сдерживаемым`</em> существом, даже если существо против, но нежелающее существо может совершить спасбросок @Check[will|dc:30], чтобы противостоять <em>планарному переходу</em>. Если существо преуспеет, алгея перемещаются и оставляют бестелесное существо позади, которое больше не <em>`сдерживается`</em>.</p>"
			},{
				"id": "moosBrxtijnM7YuU",
				"name": "Знание Могильника"
			}]
		},
		"Anitoli Nostraema": {
			"name": "Анитоли Нострамэ",
			"items": [{
				"id": "mgipsToIbvBrXPfV",
				"name": "Челюсти"
			},{
				"id": "cpGnoTqfKreSjXiE",
				"name": "Костлявая рука"
			},{
				"id": "DFBIAtBP98tsdq4P",
				"name": "Ночное зрение",
				"description": "<p>@Localize[PF2E.NPC.Abilities.Glossary.Darkvision]</p>"
			},{
				"id": "1ubiMFx1X0bEvumW",
				"name": "Негативное исцеление",
				"description": "<p>@Localize[PF2E.NPC.Abilities.Glossary.NegativeHealing]</p>"
			},{
				"id": "C6cMjmVitcFqX2HU",
				"name": "Шепчущее отчаяние",
				"description": "<p><strong>Trigger</strong> Существо с активным эффектом <a href=https://clck.ru/k2N2K><em>`эмоций`</em></a> попадает под эффект Ауры рыданий</p>\n<hr />\n<p><strong>Эффект:</strong> Чердачный шептун совершает проверку <a href=https://clck.ru/TsPmN>противодействия</a> против эффекта <a href=https://clck.ru/k2N2K><em>`эмоций`</em></a>, с модификатором противодействия [[/r 1d20+13]]{+13}.</p>"
			},{
				"id": "NorEqWsgAqUEHrv0",
				"name": "Аура рыданий",
				"description": "<p>@Template[emanation|distance:10] @UUID[Compendium.pf2e.bestiary-ability-glossary-srd.v61oEQaDdcRpaZ9X].</p>\n<p>Чердачный шептун окутывает себя гобеленом украденных голосов. Каждое живое существо которое входит или начинает свой ход в ауре, должно преуспеть в спасброске @Check[will|dc:21], иначе нервирующие, горькие рыдания приведут их в смятения, и они станут @UUID[Compendium.pf2e.conditionitems.e1XGnhKNSQIm5IXg]{Одурманены 1} до тех пор, пока остаются в пределах ауры. Существо преуспеевшее в спасброске, временно иммунна на 1 час.</p>\n<p>Чердачный шептун может активировать или деактивировать ауру одним свободным действием, которое имеет признак @Trait[Concentrate]{концентрация}.</p>"
			},{
				"id": "F58s1zGhxWZhyyU7",
				"name": "Украсть дыхание",
				"description": "<p>Чердачный шептун высасывает дыхание из живых существ, истощая его силу. Живое существо, пораженное \"Ударом\" челюстей, должно совершить спасбросок @Check[fortitude|dc:24].</p>\n<hr />\n<p><strong>Критический успех:</strong> Цель не затронута.</p>\n<p><strong>Успех:</strong> Цель @UUID[Compendium.pf2e.conditionitems.MIRkyAjyBeXivMa7]{Ослаблена 1} на 1 раунд.</p>\n<p><strong>Провал:</strong> Цель @UUID[Compendium.pf2e.conditionitems.MIRkyAjyBeXivMa7]{Ослаблена 1} на 24 часа и @UUID[Compendium.pf2e.conditionitems.HL2l2VRSaQHu9lUw]{Утомлена}.</p>\n<p><strong>Критический провал:</strong> Цель @UUID[Compendium.pf2e.conditionitems.MIRkyAjyBeXivMa7]{Ослаблена 1} на 24 часа, @UUID[Compendium.pf2e.conditionitems.HL2l2VRSaQHu9lUw]{Утомлена} и падает @UUID[Compendium.pf2e.conditionitems.fBnFDH2MTzgFijKf]{Без сознания}.</p>"
			},{
				"id": "FbJ6MpdH1KNP6DEP",
				"name": "Украсть голос",
				"description": "<p>Чердачный шептун поражает живое существо \"Ударом\" костлявой руки, он пытается втянуть голос жертвы в свою ауру. Жертва должна совершить спасбросок @Check[will|dc:24].</p>\n<hr />\n<p><strong>Критический успех:</strong> Цель не затронута.</p>\n<p><strong>Успех:</strong> Голос цели слаб в течение 1 минуты. Каждый раз, когда она пытается совершить действие с признаком <a href=https://clck.ru/jrPCE><em>`слуховой`</em></a>, она должна преуспеть в @Check[flat|dc:5], иначе действие будет потеряно.</p>\n<p><strong>Провал:</strong> Цель теряет способность говорить в течение 1 часа, пока не будет снято проклятие или пока чердачный шептун не будет уничтожен, в зависимости от того, что наступит раньше. В течение этого времени чердачный шептун может идеально имитировать голос цели, и цель получает штраф обстоятельства -2 к спасброскам против Ауры рыданий этого чердачного шептуна.</p>\n<p><strong>Критический провал:</strong> Как провал, но эффект длится до тех пор, пока чердачный шептун не будет уничтожен или проклятие не будет снято.</p>"
			}]
		},
		"Architect and Hunter": {
			"name": "Архитектор и Охотник",
			"Hdescription": "<p>Призрачная пара подростков - близнецы Ксарвин - кричат от боли, когда их мозги удаляются из их голов. Неожиданно травма проходит, первоначальная боль отступает, и они выражают желание играть.</p>",
			"disable": "<p>@Check[performance|dc:21] (обучен), чтобы отвлечь призрака и развлекать его, пока он не успокоится, или @Check[religion|dc:25] (обучен), чтобы изгнать призрака</p>",
			"reset": "<p>Призрак перезаряжается автоматически спустя 1 час после своего поражения или после того, как в этой области не останется живых существ, с которыми можно поиграть. Удаление мозгов Марни и Миры из статуи коллекционера мозгов в зоне Е9 уничтожает призрак.</p>",
			"routine": "<p>(2 действия) Архитектор (Мира Ксарвин) использует Скованные воспоминания, чтобы заставить странную, похожую на дом клетку из твердой эктоплазмы возникнуть вокруг случайно определенной цели. Этот дом имеет поразительное сходство с домом, в котором выросла цель. Затем Охотник (Марни Ксарвин) совершает \"Удар\" охотничьим выстрелом по этой цели.</p>",
			"stealth": "<p>(эксперт)</p>",
			"items": [{
				"id": "oK4LvqyDL68kzmhe",
				"name": "Мозговая боль",
				"description": "<p><strong>Триггер:</strong> Один раунд проходит после того, как живое существо открывает дверь в любую из детских комнат</p>\n<hr />\n<p><strong>Эффект:</strong> Обе двери в комнаты резко открываются, когда ИП испытывают видения близнецов, которым отрубают макушки невидимыми лезвиями, а затем ужасное зрелище мозгов, помещаемых в пустые черепа внутри. Все существа в зонах С14а, С14б или коридоре за пределами комнат, должны совершить спасбросок @Check[will|dc:24]. Затем призрак бросает инициативу.</p>\n<hr />\n<p><strong>Критический успех:</strong> Существо не затронуто.</p>\n<p><strong>Успех:</strong> Существо испытывает @UUID[Compendium.pf2e.conditionitems.fesd1n5eVhpCSS18]{Тошноту 1} из-за боли.</p>\n<p><strong>Провал:</strong> Существо получает @Damage[(2d8+9)[mental]] и увеличивает значение состояния злобы на 1.</p>\n<p><strong>Критический провал:</strong> Существо получает @Damage[(4d8+9)[mental]], @UUID[Compendium.pf2e.conditionitems.dfCMdR4wnpbYNTix]{Ошеломлено 1} из-за боли и увеличивает состояние злобы на 2.</p>"
			},{
				"id": "32fQ0dIndWnIstKW",
				"name": "Скованные воспоминания",
				"description": "<p>Цель считает, что вокруг него возникла миниатюрная версия дома его детства, которая удерживает его на месте. Цель должна совершить спасбросок @Check[will|dc:24].</p>\n<hr />\n<p><strong>Критический успех:</strong> Цель не затронута и временно иммунна к \"Скованным воспоминаниям\" в течение 24 часов.</p>\n<p><strong>Успех:</strong> Цель @UUID[Compendium.pf2e.conditionitems.AJh5ex99aV6VTggg]{Застигнута врасплох} до конца своего следующего хода.</p>\n<p><strong>Провал:</strong> Цель @UUID[Compendium.pf2e.conditionitems.AJh5ex99aV6VTggg]{Застигнута врасплох} и @UUID[Compendium.pf2e.conditionitems.eIcWbB5o3pP6OIMe]{Обездвижена} до конца своего следующего хода.</p>\n<p><strong>Критический провал:</strong> Цель @UUID[Compendium.pf2e.conditionitems.VcDeM8A5oI6VqhbM]{Сдерживаема} в течение 1 минуты или до тех пор, пока не @UUID[Compendium.pf2e.actionspf2e.SkZAQRkLLkmBQNB9]{Вырвется}.</p>"
			},{
				"id": "oxpej8ulU4Gn399c",
				"name": "Охотничий выстрел",
				"description": "<p>@Damage[1d8[persistent,mental]], в то время как цель воображает, что истекает кровью до смерти.</p>"
			},{
				"id": "LPPvSs0hxEr1SjNX",
				"name": "1d8 Продолжительного ментального урона"
			}]
		},
		"Carrion Vortex": {
			"name": "Воронка падали",
			"Hdescription": "<p>Бесчисленные кости и перья на полу взмывают в воздух в грохочущем рое частично восстановленных скелетов птич, чья скорбная песня наполняет пространство так же уверенно, как их режущие клювы и когти.</p>",
			"disable": "<p>@Check[nature|dc:23], чтобы убедить Воронку падали, что ИП не имеют злого умысла, или @Check[religion|dc:20], чтобы изгнать призрака</p>",
			"reset": "<p>24 часа; победа над извращенными психопомпами в зонад Д5 и Е4 навсегда уничтожает призрака.</p>",
			"routine": "<p>(1 действие; эвокация, оккультный) Вращающийся вихрь клювов и костей царапает и клюет любое существо в зоне Д2. Все существа в этой области получают @Damage[(2d8+9)[slashing]] (@Check[reflex|dc:24|basic|traits:evocation,occult]).</p>",
			"stealth": "<p>(эксперт)</p>",
			"items": [{
				"id": "4adbMachVzb84sGG",
				"name": "Панихида психопомпов",
				"description": "<p><strong>Триггер:</strong> Три или более существ вошли в зону Д2, или кто-либо попытается собрать или уничтожить останки птиц;</p>\n<hr />\n<p><strong>Эффект:</strong> Воронка падали заполняет зону Д2 ошеломляющими криками, которые звучат как тысячи воплей козодоев, но эту какофонию нельзя услышать за пределами этой комнаты. Существа в зоне Д2 должны совершить спасбросок @Check[will|dc:21] (последователи Фаразмы или те, кто связан с психопомпами, получают бонус обстоятельства +4 к этому спасброску). Затем призрак бросает инициативу.</p>\n<hr />\n<p><strong>Критический успех:</strong> Существо понимает, что панихида также предназначена как предупреждение и отчаянная просьба об отпущении грехов. Существо может ощущать присутствие извращенных психопомпов в зонах Д5 и Е4, с эффектом заклинания @UUID[Compendium.pf2e.spells-srd.LQzlKbYjZSMFQawP], в течение 24 часов. Пока этот эффект сохраняется, персонаж получает бонус состояния +1 к броскам атак, спасброскам и проверкам навыков, выполненных против извращенных психопомпов в этих зонах.</p>\n<p><strong>Успех:</strong> Как критический успех, но эффект @UUID[Compendium.pf2e.spells-srd.LQzlKbYjZSMFQawP] длится всего 10 минут. Существо получает @Damage[2d8[mental]] от подавляющего чувства печали и отчаяния.</p>\n<p><strong>Провал:</strong> Существо получает @Damage[4d8[mental]] от подавляющего чувства печали и отчаяния.</p>\n<p><strong>Критический провал:</strong> Существо получает @Damage[6d8[mental]] от подавляющего чувства печали и отчаяния, и до тех пор, пока призрак остается активным и они остаются в зоне Д2, персонаж @UUID[Compendium.pf2e.conditionitems.xYTAsEpcJE1Ccni3]{Замедлен 1}, так как он вынужден ничего не делать, кроме как рыдать, тратя на это одно действие каждый раунд.</p>"
			}]
		},
		"Corrupted Nosoi": {
			"name": "Извращенный нозои",
			"hp": "негативное исцеление",
			"items": [{
				"id": "62EEApSPWilOAJGE",
				"name": "Клюв"
			},{
				"id": "w9dbnWlDHHH9m9cM",
				"name": "Ночное зрение",
				"description": "<p>@Localize[PF2E.NPC.Abilities.Glossary.Darkvision]</p>"
			},{
				"id": "mj6SWij6O5cLmBul",
				"name": "Жизнечувствительность 60 футов",
				"description": "<p>@Localize[PF2E.NPC.Abilities.Glossary.Lifesense]</p>"
			},{
				"id": "RZfMWcVtBQVi2pCA",
				"name": "Негативное исцеление",
				"description": "<p>@Localize[PF2E.NPC.Abilities.Glossary.NegativeHealing]</p>"
			},{
				"id": "qarlOKy2gtbDmhfN",
				"name": "Портящее касание",
				"description": "<p>\"Удары\" извращенного нозоя наносят @Damage[1d6[void]] живым существам. Существо критически пораженное \"Ударом\" извращенного нозоя, должно совершить спасбросок @Check[fortitude|dc:18] или станет @UUID[Compendium.pf2e.conditionitems.4D2KBtexWXa6oUMR]{Истощено 1} (@UUID[Compendium.pf2e.conditionitems.4D2KBtexWXa6oUMR]{Истощено 2} при критическом провале), в то время как гниль распространяется по их плоти.</p>"
			},{
				"id": "THAwoUoO7vQWUsob",
				"name": "Навязчивая мелодия",
				"description": "<p>Нозои поют \"<em>Владыка спит внизу, вы не что иное, как его сны, и когда Владыка проснется, вы узнаете конец сущего!</em>\". Каждое живое существо в @Template[emanation|distance:60] должно совершить спасбросок @Check[will|dc:18]. Эффект действует 1 раунд, но нозои может использовать эту способность снова в последующих раундах, чтобы продлить действие эффекта на 1 раунд для всех затронутых эффектом существ. Существо преуспевшее в спасброске временно иммунно в течение 24 часов. Несмотря на то, что это <a href=https://clck.ru/jtTne><em>`ментальный`</em></a> эффект, он воздействует на <a href=https://clck.ru/jr5Zq><em>`неразумную`</em></a> <a href=https://clck.ru/jzAjA><em>`нежить`</em></a>. Психопомпы невосприимчивы к этой способности.</p>\n<hr />\n<p><strong>Провал:</strong> Существо @UUID[Compendium.pf2e.conditionitems.AdPVz7rbaVSRxHFg].</p>\n<p><strong>Критический провал:</strong> Как провал, но существо должно использовать каждое из своих действий, чтобы максимально приблизиться к нозои, избегая очевидных опасностей. Если @UUID[Compendium.pf2e.conditionitems.AdPVz7rbaVSRxHFg]{Завороженное} существо находится рядом с нозои, оно остается неподвижным и не действует. Если существо атаковано, состояние <em>`завороженность`</em> завершается.</p>"
			}]
		},
		"Esobok Ghoul": {
			"name": "Эсобок гуль",
			"items": [{
				"id": "gNWihCAV5FquZrvT",
				"name": "Врожденные сакральные заклинания"
			},{
				"id": "PVvyMGCape7oiInX",
				"name": "Невидимость (Только на себя)",
				"description": "<p>Покрытая иллюзиями, цель становится @UUID[Compendium.pf2e.conditionitems.zJxUflt9np0q4yML]{Невидимой}. Это делает ее @UUID[Compendium.pf2e.conditionitems.VRSef5y1LmL2Hkjf]{Необнаруженной} для всех существ, однако существа могут попытаться найти цель, сделав ее для себя @UUID[Compendium.pf2e.conditionitems.iU0fEDdBp3rXpTMC]{Спрятанной} (см. <a href=https://clck.ru/TsbcT>Обнаружение существ</a>). Если цель использует враждебное действие, заклинание заканчивается после завершения этого враждебного действия.</p><hr /><p><strong>Усиление (4-й):</strong> Заклинание длится 1 минуту, но не заканчивается если цель использует враждебное действие.</p>"
			},{
				"id": "FdSJMVwpVdTAipaD",
				"name": "Челюсти"
			},{
				"id": "h2Pe9lhvR2cmDEIG",
				"name": "Коготь"
			},{
				"id": "uEGXUxgI4HzdFHvE",
				"name": "Ночное зрение",
				"description": "<p>@Localize[PF2E.NPC.Abilities.Glossary.Darkvision]</p>"
			},{
				"id": "p0YI4JxsoitKsRx5",
				"name": "Нюх (неточное) 60 футов",
				"description": "<p>@Localize[PF2E.NPC.Abilities.Glossary.Scent]</p>"
			},{
				"id": "GqSUGGDq0PMDoaK4",
				"name": "Жизнечувствительность 60 футов",
				"description": "<p>@Localize[PF2E.NPC.Abilities.Glossary.Lifesense]</p>"
			},{
				"id": "JLT0Zn4WkF51Fz5B",
				"name": "Негативное исцеление",
				"description": "<p>@Localize[PF2E.NPC.Abilities.Glossary.NegativeHealing]</p>"
			},{
				"id": "IS7sAzIDvMgfptk8",
				"name": "Поглощение плоти",
				"description": "<p><strong>Требования:</strong> Эсобок гуль рядом с трупом существа, которое умерло за прошедший час;</p>\n<hr />\n<p><strong>Эффект:</strong> Гуль пожирает кусок трупа и восстанавливает [[/r 3d6[healing]]] ОЗ.</p>\n<p>Он может восстановить ОЗ с каждого конкретного трупа только 1 раз.</p>"
			},{
				"id": "iFqu2IfRpOfYJiI2",
				"name": "Портящее касание",
				"description": "<p>\"Удары\" эсобока гуля наносят @Damage[1d6[void]] по живым существам. Существо, критически пораженное \"Ударом\" эсобока гуля должно преуспеть в спасброске @Check[fortitude|dc:18|traits:void], иначе станет @UUID[Compendium.pf2e.conditionitems.4D2KBtexWXa6oUMR]{Истощено 1} (@UUID[Compendium.pf2e.conditionitems.4D2KBtexWXa6oUMR]{Истощено 2} при критическом провале), в то время как следы гнили расходятся на его плоти.</p>"
			},{
				"id": "ewbuoRukTnN5HwAa",
				"name": "Лихорадка гуля",
				"description": "<p><strong>Спасбросок:</strong> @Check[fortitude|dc:22]</p>\n<p><strong>Стадия 1:</strong> Переносчик не имеет эффектов болезни (1 день)</p>\n<p><strong>Стадия 2:</strong> @Damage[2d6[void]] и существо восстанавливает половину ОЗ от всего исцеления (1 день)</p>\n<p><strong>Стадия 3:</strong> Как стадия 2 (1 день)</p>\n<p><strong>Стадия 4:</strong> @Damage[2d6[void]] и существо не восстанавливает ОЗ от исцеления (1 день)</p>\n<p><strong>Стадия 5:</strong> Как стадия 4 (1 день)</p>\n<p><strong>Стадия 6:</strong> Смерть и в следующую полночь существо восстает как гуль.</p>"
			},{
				"id": "i02LjkO2d05n1YxC",
				"name": "Паралич",
				"description": "<p>Любое живое существо, не являющееся эльфом, по которому попала атака гуля, должно преуспеть в спасброске @Check[fortitude|dc:22]{Стойкости} или будет @UUID[Compendium.pf2e.conditionitems.6uEgoh53GbXuHpTF]{Парализовано}.</p>\n<p>Оно может совершать новый спасбросок в конце каждого своего хода и при каждом таком спасброске, КС совокупно снижается на 1.</p>"
			},{
				"id": "iT8h3OAVXFRozXkw",
				"name": "Наскок",
				"description": "<p>Эсобок гуль <em>\"Перемещается\"</em> и в конце этого движения наносит \"Удар\" когтями. Если он начал это действие @UUID[Compendium.pf2e.conditionitems.iU0fEDdBp3rXpTMC], то остается <em>`спрятанным`</em> до окончания \"Удара\" этого умения.</p>"
			}]
		},
		"Haunted Nosoi": {
			"name": "Призрачный нозои",
			"language": "Истинная речь",
			"items": [{
				"id": "62EEApSPWilOAJGE",
				"name": "Клюв"
			},{
				"id": "w9dbnWlDHHH9m9cM",
				"name": "Ночное зрение",
				"description": "<p>@Localize[PF2E.NPC.Abilities.Glossary.Darkvision]</p>"
			},{
				"id": "mj6SWij6O5cLmBul",
				"name": "Жизнечувствительность 60 футов",
				"description": "<p>@Localize[PF2E.NPC.Abilities.Glossary.Lifesense]</p>"
			},{
				"id": "WN5HCThXS1ilMtKI",
				"name": "Истинная речь",
				"description": "<p>Призрачный нозои говорит на Реквианском, языке психопомпов, но все существа слышат его слова на своих родных языках.</p>"
			},{
				"id": "IbqmLczDaT9GKEuW",
				"name": "Мстительный взрыв",
				"description": "<p><strong>Триггер:</strong> Призрачный нозои уничтожен или он попадает в квадрат, прилегающий к извращенному психопомпу в зоне Д5;</p>\n<hr />\n<p><strong>Эффект:</strong> Призрачный нозои умирает, взрываясь позитивной энергией. Это исцеляет всех живых существ в радиусе 10 футов на @Damage[3d6[vitality]], и если срабатывает в зоне Д5, Мстительный взрыв наносит @Damage[2d12[vitality]] любым извращенным психопомпам в этой области (@Check[will|dc:18|basic])</p>"
			}]
		},
		"Ioseff Xarwin": {
			"name": "Йозеф Ксарвин",
			"hp": "негативное исцеление, восстановление",
			"items": [{
				"id": "gBE8Z8acvqFsiw0Z",
				"name": "Врожденные оккультные заклинания"
			},{
				"id": "4c1SW13kz2TIfIC7",
				"name": "Ритуалы"
			},{
				"id": "AwvX8r0Dpmhamr4F",
				"name": "Кровавая эктоплазматическая плеть"
			},{
				"id": "KzrDRqinQpMCCxOA",
				"name": "Ночное зрение",
				"description": "<p>@Localize[PF2E.NPC.Abilities.Glossary.Darkvision]</p>"
			},{
				"id": "OPfyi9ivt0InaEXb",
				"name": "Связь с местом",
				"description": "<p>Йозеф Ксарвин привязан к своей лаборатории.</p>"
			},{
				"id": "W6oYW5b8Ylon2YvG",
				"name": "Негативное исцеление",
				"description": "<p>@Localize[PF2E.NPC.Abilities.Glossary.NegativeHealing]</p>"
			},{
				"id": "66dtKIUqfelqC7kk",
				"name": "Отдача",
				"description": "<p>Если персонаж насильно показывает кольцо Фульвии Йозефу в качестве действия с признаком <a href=https://clck.ru/jjLHP><em>`воздействие`</em></a>, тот должен совершить спасбросок @Check[will|dc:26]; после этого он невосприимчив к <em>\"Отдаче\"</em> в течение 24 часов.</p>\n<hr />\n<p><strong>Критический успех:</strong> Йозеф незатронут.</p>\n<p><strong>Успех:</strong> Йозеф получает @Damage[4d6[mental]] и @UUID[Compendium.pf2e.conditionitems.TBSHQspnbcqxsmjL]{Напугано 1}.</p>\n<p><strong>Провал:</strong> Йозеф получает @Damage[8d6[mental]] и @UUID[Compendium.pf2e.conditionitems.TBSHQspnbcqxsmjL]{Напугано 2}.</p>\n<p><strong>Критический провал:</strong> Йозеф получает @Damage[8d6[mental]], @UUID[Compendium.pf2e.conditionitems.TBSHQspnbcqxsmjL]{Напугано 2} и @UUID[Compendium.pf2e.conditionitems.dfCMdR4wnpbYNTix]{Ошеломлен 3}.</p>"
			},{
				"id": "AlPbxguovoxPTMet",
				"name": "Восстановление",
				"description": "<p>Когда привидение уничтожено, оно формируется заново через [[/r 2d4 #days]]{2d4 дней} полностью исцеленным в том месте, к которому оно привязано. Привидение может быть окончательно уничтожено только в том случае, если кто-то определит причину его существования и исправит все, что мешает духу упокоиться.</p>\n<hr />\n<p>Чтобы упокоить Йозефа, необходимо выполнить следующие три условия, после победы над Йозефов, но до того, как он восстановится:</p>\n<ul>\n<li>Коллекционер мозгов нежить в зоне Д6 должен быть уничтожен.</li>\n<li>Мозги его жены и детей были освобождены из статуи коллекционера мозгов, что позволит их душам уйти в Могильник.</li>\n<li>Зеркало Пустоты было заменено в своей раме в Космическом Склепе.</li>\n</ul>"
			},{
				"id": "M7sVspfHZSCGkPB3",
				"name": "Позор",
				"description": "<p>Йозеф получает штраф предмета -1 к броскам атак и спасброскам против персонажа, носящего при себе кольцо Фульвии (зона С13). Этот штраф удваивается до -2 против персонажа, носящего на пальце кольцо Фульвии. В начале своего хода персонаж, у которого есть кольцо Фульвии, может совершить <a href=https://clck.ru/32mKgN><em>`тайную`</em></a> проверку @Check[perception|dc:20|traits:secret]; в случае успеха он чувствует слабое побуждение показать кольцо привидению.</p>"
			},{
				"id": "oaQPnXy17nhfdQcU",
				"name": "Спровоцировать восстание",
				"description": "<p><strong>Триггер:</strong> Существо в пределах 30 футов от Йозефа не преуспело в спасброске против одного из его заклинаний;</p>\n<hr />\n<p><strong>Эффект:</strong> Йозеф наполняет магию своего заклинания агонией собственной смерти. В дополнение к любым эффектам, вызванным спровоцировавшим заклинанием, цель также должна совершить спасбросок @Check[fortitude|dc:28|traits:disease] или заболеть внутренним восстанием на стадии 1 (стадии 2 при критическом провале)</p>\n<p><span style=\"text-decoration: underline;\">Внутреннее восстание (<a href=https://clck.ru/35GSZa><em>`болезнь`</em></a>)</span>; Уровень 7.</p>\n<p>Цель не может оправиться от состояния <em>`неуклюжести`</em> от внутреннего восстания, пока болезнь не будет излечена</p>\n<p><strong>Стадия 1:</strong> @UUID[Compendium.pf2e.conditionitems.i3OJZU2nk64Df3xm]{Неуклюжесть 1} (1 день)</p>\n<p><strong>Стадия 2:</strong> @UUID[Compendium.pf2e.conditionitems.i3OJZU2nk64Df3xm]{Неуклюжесть 2} (1 день)</p>\n<p><strong>Стадия 3:</strong> @UUID[Compendium.pf2e.conditionitems.i3OJZU2nk64Df3xm]{Неуклюжесть 2} и @UUID[Compendium.pf2e.conditionitems.AJh5ex99aV6VTggg]{Застигнут врасплох} (1 день)</p>\n<p><strong>Стадия 4:</strong> @UUID[Compendium.pf2e.conditionitems.i3OJZU2nk64Df3xm]{Неуклюжесть 3} и @UUID[Compendium.pf2e.conditionitems.AJh5ex99aV6VTggg]{Застигнут врасплох} (1 день)</p>\n<p><strong>Стадия 5:</strong> Смерть, и тело распадается на массу фрагментов, которые расползаются в разные стороны в @Template[emanation|distance:10], прежде чем погибнуть, оставляя голый скелет, покрытый сукровицей.</p>"
			},{
				"id": "tq4v9Tm2A5wAIhYF",
				"name": "Злонамеренная одержимость",
				"description": "<p>Йозеф Ксарвин пытается овладеть находящимся рядом материальным существом. Это имеет тот же эффект, что и заклинание @UUID[Compendium.pf2e.spells-srd.wU6hNzK8Yfqdmc8m], но поскольку у Йозефа Ксарвина нет физического тела, на него не действуют соответствующие ограничения заклинания.</p>\n<p>Цель должна совершить спасбросок @Check[will|dc:28|traits:controlling].</p>\n<hr />\n<p><strong>Критический успех:</strong> Цель невредима.</p>\n<p><strong>Успех:</strong> Йозеф овладевает целью, но не может контролировать ее. Он едет в теле, пока длится заклинание.</p>\n<p><strong>Провал:</strong> Йозеф овладевает целью и получает над ней частичный контроль. Он больше не имеет своего отдельного хода, вместо этого он может контролировать цель. В начале каждого хода цели, она совершает другой спасбросок Воли. Если она проваливает его, она @UUID[Compendium.pf2e.conditionitems.9qGBRpbX9NEwtAAr]{Под контролем} в этот ход; если спасбросок был успешным, она выбирает свои действия; а при крит.успехе она изгоняет Йозефа и заклинание заканчивается.</p>\n<p><strong>Критический провал:</strong> Вы полностью овладеваете целью, и она может разве что смотреть как вы управляете ей как марионеткой. Цель @UUID[Compendium.pf2e.conditionitems.9qGBRpbX9NEwtAAr]{Под вашим контролем}.</p>\n<p data-visibility=\"gm\">Персонаж, который носит кольцо Фульвии при себе, получает бонус предмета +4 к этому спасброску и рассматривает результат выброшенного на одну ступень успеха лучше, чем фактический результат броска. Если Йозеф пытается использовать эту способность на персонаже, который носит кольцо Фульвии на пальце, он может совершить проверку @Check[perception|defense:stealth] против КС Скрытности носителя кольца, чтобы вовремя заметить кольцо и избежать попытки; в случае успеха он теряет 2 действия, которые он предпринял, чтобы вовремя заметить кольцо, но избегает дальнейших эффектов. Если он не заметит кольцо и попытается овладеть тем, кто носит кольцо, персонаж автоматически добьется критического успеха в спасброске Воли, Йозеф будет @UUID[Compendium.pf2e.conditionitems.dfCMdR4wnpbYNTix]{Ошеломлен 3}, и он не сможет снова использовать <em>\"Злонамеренную Одержимость\"</em> в течение 24 часов.</p>"
			},{
				"id": "6mMJCH3VP87wzthp",
				"name": "Призрачная ампутация",
				"description": "<p><strong>Частота:</strong> Раз в день</p>\n<hr />\n<p><strong>Эффект:</strong> Йозеф поднимает культю левой руки, и струящаяся кровь начинает формировать призрачную руку, которую он затем использует, чтобы указать на гуманоидное существо в пределах 30 футов. Это существо должно совершить спасбросок @Check[fortitude|dc:28|traits:necromancy,occult].</p>\n<hr />\n<p><strong>Критический успех:</strong> Существо испытывает @UUID[Compendium.pf2e.conditionitems.fesd1n5eVhpCSS18]{Тошноту 1} от внезапной, мучительной боли в левой руке.</p>\n<p><strong>Успех:</strong> Как критический успех, но существо также получает @Damage[2d6[slashing]] и @UUID[Compendium.pf2e.conditionitems.i3OJZU2nk64Df3xm]{Неуклюжесть 1} в течение 1 раунда, так как он чувствует себя так, как будто левую кисть только что отрубили топором.</p>\n<p><strong>Провал:</strong> Существо испытывает @UUID[Compendium.pf2e.conditionitems.fesd1n5eVhpCSS18]{Тошноту 2}, получает @Damage[5d6[slashing]] и @UUID[Compendium.pf2e.conditionitems.i3OJZU2nk64Df3xm]{Неуклюжесть 2} в течение 1 минуты, так как он чувствует себя так, как будто левую кисть только что отрубили топором.</p>\n<p><strong>Критический провал:</strong> Существо испытывает @UUID[Compendium.pf2e.conditionitems.fesd1n5eVhpCSS18]{Тошноту 3}, получает @Damage[8d6[slashing], 2d6[bleed]], в то время как левая кисть отрывается и падает на пол, прежде чем мгновенно распасться до костей. ИП становится @UUID[Compendium.pf2e.conditionitems.i3OJZU2nk64Df3xm]{Неуклюж 2} и @UUID[Compendium.pf2e.conditionitems.Yl48xTdMh3aeQYL2]{Ранен 1}. Как только состояние <em>`ранен`</em> устраняется, рука ИП чудесным образом возвращается и состояние <em>`неуклюжесть`</em> заканчивается.</p>"
			},{
				"id": "GCPgpwElCHLQVIOo",
				"name": "Знание астрономии"
			},{
				"id": "PNqYkMjgT8qLINIr",
				"name": "Знание Челии"
			}]
		},
		"Ixirizmid": {
			"name": "Иксиризмид",
			"items": [{
				"id": "tX4G0u85eBFjCsx7",
				"name": "Ритуалы"
			},{
				"id": "G0gVWOYLReMpFQrP",
				"name": "Коготь"
			},{
				"id": "kdkQkuAE694sbEoo",
				"name": "Сумеречное зрение",
				"description": "<p>@Localize[PF2E.NPC.Abilities.Glossary.LowLightVision]</p>"
			},{
				"id": "4a4AwC6MVxafM5dq",
				"name": "Виброчувствительность (точное) 30 футов",
				"description": "<p>@Localize[PF2E.NPC.Abilities.Glossary.Tremorsense]</p>"
			},{
				"id": "OpIusm2cr2cYc7x5",
				"name": "Хитроумная маскировка",
				"description": "<p>Иксиризмид может использовать Обман, чтобы выдать себя за любое Среднее гуманоидное существо, хотя создание такой маскировки занимает 1 час. Оно не может выдавать себя за конкретную личность этой способностью.</p>"
			},{
				"id": "m3a767DfQxokefnk",
				"name": "Не дышит",
				"description": "<p>Иксиризмид не дышит и невосприимчив к эффектам, требующим дыхания (таким как вдыхаемый яд или удушение дымом).</p>"
			},{
				"id": "FeDt6jCafBdwS5tk",
				"name": "Потрошение",
				"description": "<p>Иксиризмид выполняет быструю и болезненную операцию на существе, которое он `схватил` или `сдерживает`, или которое иным образом `обездвижено`. Оно совершает проверку @Check[medicine|defense:fortitude] против КС Стойкости цели. Независимо от результата, цель затем становится невосприимчивой к <em>\"Потрошению\"</em> в течение 24 часов.</p>\n<hr />\n<p><strong>Критический успех:</strong> Цель получает @Damage[8d6[slashing]], @UUID[Compendium.pf2e.conditionitems.xYTAsEpcJE1Ccni3]{Замедлено 1} на 1 раунд, и получает одно состояние по выбору ми-го, из следующих; @UUID[Compendium.pf2e.conditionitems.i3OJZU2nk64Df3xm]{Неуклюжесть 1}, @UUID[Compendium.pf2e.conditionitems.MIRkyAjyBeXivMa7]{Ослаблен 1} или @UUID[Compendium.pf2e.conditionitems.e1XGnhKNSQIm5IXg]{Одурманен 1}, в течение 24 часов.</p>\n<p><strong>Успех:</strong> Цель получает @Damage[5d6[slashing]] и @UUID[Compendium.pf2e.conditionitems.xYTAsEpcJE1Ccni3]{Замедлено 1} на 1 раунд из-за боли.</p>\n<p><strong>Провал:</strong> Цель получает @Damage[3d6[slashing]].</p>\n<p><strong>Критический провал:</strong> Цель не затронута.</p>"
			},{
				"id": "uffOMQdKncfhcXF7",
				"name": "Внезапная атака",
				"description": "<p>Иксиризмид наносит дополнительные 1d6 точного урона по застигнутым врасплох существам.</p>\n<hr />\n<p>@Localize[PF2E.NPC.Abilities.Glossary.SneakAttack]</p>"
			},{
				"id": "pEzlMP5bZb18T57c",
				"name": "Захват",
				"description": "<p>@Localize[PF2E.NPC.Abilities.Glossary.Grab]</p>"
			}]
		},
		"Lured to Ashes": {
			"name": "Обращенное в пепел",
			"Hdescription": "<p>Иллюзорная сцена меблированного кабинета охватывает реальный внешний вид комнаты. Она мерцает и гаснет, открывая опаленную и сожженную комнату. Мгновение спустя крики горящих жертв наполняют комнату и пылающие руки тянутся из пепла и обугленных стен, чтобы рвать и терзать.</p>",
			"disable": "<p>@Check[intimidation|dc:26], чтобы приказать духам обитающим в этой комнате замолчать, или @Check[religion|dc:23], чтобы изгнать призрака</p>",
			"reset": "<p>8 часов; уничтожение @UUID[Compendium.pf2e.malevolence-bestiary.1XrwqxEW8rUr8238]{Клубка костей} в зоне Е3 изгоняет этого призрака навсегда.</p>",
			"routine": "<p>1 Действие: Если в зоне В18 нет целей, когда призрак предпринимает свои действия, он может использовать свою реакцию приманки, чтобы попытаться вернуть близлежащих жертв внутрь. Призрак проявляет несколько скелетообразных пепельных рук, которые поднимаются с разрушенного пола или из обгоревших стен, чтобы вцепиться в каждое существо в зоне В18. Эти существа должны совершить спасбросок @Check[reflex|dc:22|name:Lured to Ashes Fire|traits:damaging-effect,fire,necromancy,occult] (существа сидящие на диване, получают штраф обстоятельства -2 к этому спасброску).</p>\n<hr />\n<p><strong>Критический успех:</strong> Существо не затронуто.</p>\n<p><strong>Успех:</strong> Существо получает @Damage[1d8[fire]].</p>\n<p><strong>Провал:</strong> Существо получает @Damage[2d8[fire]] и слабость к огню 5. Эта слабость сохраняется до тех пор, пока существо не будет исцелено до максимума ОЗ.</p>\n<p><strong>Критический провал:</strong> Как провал, но @Damage[4d8[fire]] и слабость к огню 10.</p>",
			"stealth": "<p>(эксперт)</p>",
			"items": [{
				"id": "tcBafn7uVyBovL1F",
				"name": "Приманка",
				"description": "<p><strong>Триггер:</strong> Существо входит внутрь комнаты более чем на 5 футов</p>\n<hr />\n<p><strong>Эффект:</strong> Все существа в зоне В18 и все существа в пределах 10 футов от открытой двери или окна, прилегающего к зоне В18, услышат убедительный голос, приглашающий их в комнату, чтобы обсудить будущее возвращение в центральную Челию.</p>\n<p>Каждое существо должно совершить спасбросок @Check[will|dc:22|name:Lure to Ashes] (существа за пределами зоны В18, получают бонус обстоятельства +2 к этому спасброску). При провале, существо вынуждено переместиться в зону В18 и сесть на один из диванов.</p>\n<p>Существа, которые преуспевают в спасброске, не принуждены и видят комнату как сгоревшие руины, которыми она является. Затем призрак бросает инициативу.</p>"
			}]
		},
		"Mouth of Tchekuth": {
			"name": "Уста Чекута",
			"Hdescription": "<p>Пропасть внизу колеблется и колышется, превращаясь в огромную зияющую пасть, наполненную бесчисленными острыми клыками. Сморщенный, шершавый язык вырывается из ядовитой глотки внизу, чтобы хлестнуть и попробовать на вкус. Два слова вырываются из огромной глотки внизу: \"Йа Чекут!\"</p>",
			"disable": "<p>@Check[occultism|dc:28] или @Check[religion|dc:28] (чтобы изгнать поразительного фантазма)</p>",
			"reset": "<p>Призрак перезаряжается через 24 часа и уничтожается навсегда, если привидение Ксарвина было упокоено.</p>",
			"items": [{
				"id": "fQ7ZhBvjw23IrtUN",
				"name": "Голодный язык",
				"description": "<p><strong>Триггер:</strong> существо пересекает пропасть;</p>\n<hr />\n<p><strong>Эффект:</strong> Внизу открывается огромная клыкастая пасть, и длинный, скрежещущий язык поднимается, чтобы атаковать спровоцировавшее существо, которое должно совершить спасбросок @Check[will|dc:24].</p>\n<hr />\n<p><strong>Критический успех:</strong> Существо понимает, что призрак - пугающий фантазм, который на самом деле не может причинить ему вреда, и потому не затронуто.</p>\n<p><strong>Успех:</strong> Существо уклоняется от скрежещущего языка, но в результате падает с моста, получая 10 урона от падения (существо может @UUID[Compendium.pf2e.actionspf2e.3yoajuKjwHZ9ApUY]{Схватиться за уступ} при успешном спасброске @Check[reflex|dc:24|name:Grab an Edge|traits:damaging-effect]).</p>\n<p><strong>Провал:</strong> На короткое мгновение существо чувствует ужасное прикосновение шершавого языка. Когда язык касается существа, он слизывает воспоминания заставляя существо получить состояние @UUID[Compendium.pf2e.conditionitems.e1XGnhKNSQIm5IXg]{Одурманен 1} на 24 часа. Затем существо падает (как описано в успехе).</p>\n<p><strong>Критический провал:</strong> Существо чувствует, как язык обвивается вокруг него, а затем испытывает ужас от того, что его тянут вниз, по ощущениям, несколько суток, но на самом деле проходит всего мгновение. Сушество получает состояние @UUID[Compendium.pf2e.conditionitems.e1XGnhKNSQIm5IXg]{Одурманен 2} на 24 часа, в течение которых существо не может вспомнить свое имя. Существо также увеличивает значение состояния <em>`злоба`</em> на 1, а затем падает (как описано в успехе).</p>"
			}]
		},
		"Nils Kelveken": {
			"name": "Нильс Кельвекен",
			"hp": "негативное исцеление",
			"items": [{
				"id": "uvkdzaUjo0rU2j1H",
				"name": "Кожаный фартук плотника",
				"description": "<p>(Функционирует как кожаный доспех)</p>\n<p>Этот комплект доспеха сочетает гибкую и формованную вареную кожу, обеспечивая некоторую защиту и максимальной гибкость.</p>"
			},{
				"id": "8OlcuXSogVDa374Y",
				"name": "Ручная дрель"
			},{
				"id": "DTY8lCkw0ALXQYai",
				"name": "Брелок для ключей с ключами",
				"description": "<p data-visibility=\"gm\">На брелке ключи от всех несекретных дверей на 1-м этаже.</p>"
			},{
				"id": "JBPlK9wlt3BY2QhE",
				"name": "Ручная дрель"
			},{
				"id": "3ZQhZkotGdT9Bz6I",
				"name": "Ночное зрение",
				"description": "<p>@Localize[PF2E.NPC.Abilities.Glossary.Darkvision]</p>"
			},{
				"id": "MmC60npHVmzvUVuO",
				"name": "Негативное исцеление",
				"description": "<p>@Localize[PF2E.NPC.Abilities.Glossary.NegativeHealing]</p>"
			},{
				"id": "5RVQgrRnkm4C0Y2q",
				"name": "Сверлить глубже",
				"description": "<p><strong>Требования:</strong> Нильс Кельвекен нанес \"Удар\" ручной дрелью своим предыдущим действием.</p>\n<hr />\n<p><strong>Эффект:</strong> Нильс хватает дрель и поворачивает ручку, сверля глубже в жертву. Он автоматически наносит @Damage[1d8[piercing]], и пробуриваемое существо должно преуспеть в спасброске @Check[fortitude|dc:22], чтобы избежать дополнительных @Damage[1d6[bleed]] (@Damage[2d6[bleed]] при критическом провале).</p>"
			},{
				"id": "k5hfsPhHrFe43moo",
				"name": "Я Видел Что Ты Сделал!",
				"description": "<p>Нильс <em>\"Перемещается\"</em> к цели в пределах 30 футов, крича \"Я видел, что ты сделал!\" Когда он приближается, цель должна совершить спасбросок @Check[will|dc:22|name:I Seen What Ye Did!].</p>\n<hr />\n<p><strong>Критический успех:</strong> Цель невредима.</p>\n<p><strong>Успех:</strong> Цель встревожена тем, что мог увидеть Нильс и @UUID[Compendium.pf2e.conditionitems.TBSHQspnbcqxsmjL]{Напугана 1}.</p>\n<p><strong>Провал:</strong> Как успех, но цель @UUID[Compendium.pf2e.conditionitems.TBSHQspnbcqxsmjL]{Напугана 2}.</p>\n<p><strong>Критический провал:</strong> Цель впадает в фантасмогорический кошмар, время будто замедляется, но несмотря на то, что все мысли цели о бегстве, как бы быстро она не бежала, Нильс может легко догнать ее. Цель @UUID[Compendium.pf2e.conditionitems.xYTAsEpcJE1Ccni3]{Замедлена 2} в начале своего следующего хода и @UUID[Compendium.pf2e.conditionitems.sDPxOjQ9kx2RZE8D]{Бежит} до конца своего следующего хода.</p>"
			}]
		},
		"Tanglebones": {
			"name": "Клубок костей",
			"Cdescription": "<p>Иногда, когда убийца хоронит большое количество жертв в братской могиле, мстительные души убитых могут так же запутаться вместе. Когда эти духи не могут распутаться, они вместо этого возвращаются к своим физическим останкам, сливаясь в одну ужасающую массу костей и черного, похожего на смолу, осадка - клубок костей</p>\n<p>В одной ужасной истории рассказывается об ожесточенной старой вдове, которая узнала, что благодаря юридической лазейке право собственности на ее имущество перейдет к ее отужденной дочери. Она убила 13 своих слуг, похоронила их тела в подвале дома, а затем сыграла роль милостивой матери, передав ключи от поместья в назначенное время. Однажды ночью клубок костей, возникший в результате злодеяний вдовы, убил дочь и ее семью. К тому времени, когда власти узнали о случившемся, вдова уже сбежала из страны, изменила свою личность и (как гласит история) не теряя времени, восстановила свое состояние - на этот раз став королевой.</p>",
			"hp": "негативное исцеление",
			"items": [{
				"id": "iB4FIdMc9Bnj1cOR",
				"name": "Коготь"
			},{
				"id": "WwHuWnYG7Z1eRfCv",
				"name": "Брошенная кость"
			},{
				"id": "DDjzBBdsdTMNCX0U",
				"name": "Ночное зрение",
				"description": "<p>@Localize[PF2E.NPC.Abilities.Glossary.Darkvision]</p>"
			},{
				"id": "qBfZKEJPVngf5Zs4",
				"name": "Эктоплазматическая нить",
				"description": "<p><strong>Триггер:</strong> Существо, находящееся в пределах досягаемости клубка костей, использует действие с признаком <a href=https://clck.ru/jjLHP><em>`воздействие`</em></a> или @Trait[Move]{движение} или покидает квадрат во время используемого действия с признаком @Trait[Move]{движение};</p>\n<hr />\n<p><strong>Эффект:</strong> Нить черной маслянистой эктоплазмы набрасывается на спровоцировавшее существо, нанося @Damage[(2d8+8)[slashing]] (@Check[reflex|dc:25|basic]). Если нить наносит урон, клубок костей получает [[/r 2d8 #Temporary Hit Points]]{2d8 ВОЗ}.</p>"
			},{
				"id": "WarDVWwMegYTdbUM",
				"name": "Жуткая гибкость",
				"description": "<p>Клубок костей может перемещаться и регулировать свою массу, чтобы поместиться на небольших областях, позволяя ему проходить через узкие пространства, как если бы это было существо Среднего размера. @UUID[Compendium.pf2e.actionspf2e.kMcV8e5EZUxa6evt]{Протискиваясь}, он может двигаться на свою полную Скорость.</p>"
			},{
				"id": "iHIW94X3Fnp31s1a",
				"name": "Негативное исцеление",
				"description": "<p>@Localize[PF2E.NPC.Abilities.Glossary.NegativeHealing]</p>"
			},{
				"id": "7GZSmH33lacIjGRG",
				"name": "Грызть",
				"description": "<p><strong>Требования:</strong> Клубок костей @UUID[Compendium.pf2e.conditionitems.kWc1fhmv9LBiTuei]{Схватил} врага</p>\n<hr />\n<p><strong>Эффект:</strong> Клубок костей грызет и рвет <em>`схваченную`</em> цель множеством черепов, нанося @Damage[(2d6+8)[piercing]] (@Check[fortitude|dc:23|basic]). При критическом провале существо также испытывает @UUID[Compendium.pf2e.conditionitems.fesd1n5eVhpCSS18]{Тошноту 1} от боли.</p>"
			},{
				"id": "uWMjBNMf2i8vkJza",
				"name": "Скелетный шторм",
				"description": "<p>Клубок костей делает один \"Удар\" когтями по каждому существу в досягаемости. Эти атаки засчитываются в штраф множественных атак клубка костей, но штраф не увеличивается до тех пор, пока клубок костей не совершит все свои атаки.</p>"
			},{
				"id": "dvswlRsKg8EGBzsU",
				"name": "Растянутые кости",
				"description": "<p>До момента когда клубок костей начнет действовать, он будет выглядеть как растянутая масса костей. Он получает автоматический результат 35 в КС и проверках Обмана, чтобы выглядеть как ужасная, но безобидная куча костей.</p>"
			},{
				"id": "J7SGCpmm8PUjDGsg",
				"name": "Захват",
				"description": "<p>@Localize[PF2E.NPC.Abilities.Glossary.Grab]</p>"
			}]
		},
		"Undead Brain Collector": {
			"name": "Коллекционер мозгов нежить",
			"language": "Телепатия 100 футов",
			"hp": "негативное исцеление",
			"allSaves": "+1 состояния ко всем спасброскам от магии",
			"items": [{
				"id": "2hOUtgCM9lj7z4TB",
				"name": "Челюсти"
			},{
				"id": "wIfegH9lKXPcfiA2",
				"name": "Коготь"
			},{
				"id": "Xk8o7gTKk7DJgdIs",
				"name": "Ночное зрение",
				"description": "<p>@Localize[PF2E.NPC.Abilities.Glossary.Darkvision]</p>"
			},{
				"id": "SqGN2C6WwW664mJx",
				"name": "Поглощение фантомного мозга",
				"description": "<p><strong>Триггер:</strong> Коллекционер мозгов нежить обладает по крайней мере 1 фантомным мозгом, после использования Мозговой плети</p>\n<hr />\n<p><strong>Эффект:</strong> Коллекционер мозгов нежить поглощает [[/r 1d4 #Phantom Brains]]{1d4} своих фантомных мозгов, получая [[/r 1d8 #Temporary Hit Points]]{1d8 ВОЗ} за каждый поглощенный мозг.</p>"
			},{
				"id": "2ehHjufAVPMIZ8U2",
				"name": "+1 состояния ко всем спасброскам от магии"
			},{
				"id": "zDmN2GNIClzY8q9J",
				"name": "Негативное исцеление",
				"description": "<p>@Localize[PF2E.NPC.Abilities.Glossary.NegativeHealing]</p>"
			},{
				"id": "CDTtHeFOvz7H1Jqo",
				"name": "Мозговая плеть",
				"description": "<p>Коллекционер мозгов нежить извлекает извивающийся клубок эктоплазмы из своих лопнувших мозговых пузырей. Эти эктоплазматические нити набрасываются на все живые цели в радиусе @Template[emanation|distance:30]. Цели в этой области должны совершить спасбросок @Check[will|dc:25].</p>\n<p>После того, как коллекционер мозгов нежить использует эту способность, семь фантомных мозгов светятся и мерцают там, где когда-то были мозговые пузыри. Он не сможет снова использовать <em>\"Мозговую плеть\"</em>, пока все семь фантомных мозгов не будут <em>\"Поглощены\"</em></p>\n<hr />\n<p><strong>Критический успех:</strong> Существо не затронуто.</p>\n<p><strong>Успех:</strong> Существо получает @Damage[4d6[mental]].</p>\n<p><strong>Провал:</strong> Существо получает @Damage[8d6[mental]].</p>\n<p><strong>Критический провал:</strong> Существо получает @Damage[8d6[mental]] и находится в @UUID[Compendium.pf2e.conditionitems.yblD8fOR1J8rDwEQ]{Замешательстве}.</p>"
			},{
				"id": "MMSZxMrXIdeCFlFq",
				"name": "Разлагающий разум токсин",
				"description": "<p><strong>Спасбросок:</strong> @Check[fortitude|dc:25]</p>\n<p><strong>Макс.продолжительность:</strong> 6 раундов</p>\n<hr />\n<p><strong>Стадия 1:</strong> @Damage[1d6[void]] и @UUID[Compendium.pf2e.conditionitems.e1XGnhKNSQIm5IXg]{Одурманен 1} (1 раунд)</p>\n<p><strong>Стадия 2:</strong> @Damage[1d6[void]], @UUID[Compendium.pf2e.conditionitems.e1XGnhKNSQIm5IXg]{Одурманен 1} и @UUID[Compendium.pf2e.conditionitems.xYTAsEpcJE1Ccni3]{Замедлен 1} (1 раунд)</p>\n<p><strong>Стадия 3:</strong> @Damage[2d6[void]], @UUID[Compendium.pf2e.conditionitems.e1XGnhKNSQIm5IXg]{Одурманен 2} и @UUID[Compendium.pf2e.conditionitems.xYTAsEpcJE1Ccni3]{Замедлен 1} (1 раунд)</p>"
			}]
		},
		"Wrathful Hatchet": {
			"name": "Гневный топорик",
			"Hdescription": "<p>Топорик, вделанный в столешницу, покачивается, вибрирует, а затем влетает в воздух, сопровождаемый яростным криком женщины.</p>",
			"disable": "<p>@Check[diplomacy|dc:27], чтобы успокоить гнев призрака, или @Check[religion|dc:25], чтобы изгнать призрака</p>",
			"reset": "<p>24 часа; Упокоение привидения Ксарвина навсегда уничтожит этот призрак.</p>",
			"routine": "<p>(3 действия; эвокация, оккультный) Топорик призрак использует действия чтобы переместиться на 25 футов и оказаться в квадрате поблизости существа, совершить \"Удар\" гневным топориком или попытаться @UUID[Compendium.pf2e.actionspf2e.SkZAQRkLLkmBQNB9]{Вырваться} из состояний @UUID[Compendium.pf2e.conditionitems.eIcWbB5o3pP6OIMe]{Обездвиживания} или @UUID[Compendium.pf2e.conditionitems.VcDeM8A5oI6VqhbM]{Сдерживаемого}. Если в радиусе 25 футов нет никаких существ, топорик движется в случайном направлении.</p>\n<p>Если он заканчивает свой ход и в радиусе 25 футов нет никаких существ, топорик падает на землю и призрак заканчивается.</p>",
			"stealth": "<p>(эксперт) ночное зрение</p>",
			"items": [{
				"id": "1dy3ttqcMMPzUzOo",
				"name": "Яростный крик",
				"description": "<p><strong>Триггер:</strong> Существо приближается в пределы 5 футов от топорика или более 3 существ входит в зону С10.</p>\n<hr />\n<p><strong>Эффект:</strong> Яростный крик Асетаны резонирует по всей комнате, и все существа в пределах 25 футов от топорика должны совершить спасбросок @Check[will|dc:25]. Затем призрак бросает инициативу.</p>\n<hr />\n<p><strong>Критический успех:</strong> Существо не затронуто.</p>\n<p><strong>Успех:</strong> Существо становится @UUID[Compendium.pf2e.conditionitems.TBSHQspnbcqxsmjL]{Напугано 1}.</p>\n<p><strong>Провал:</strong> Существо становится @UUID[Compendium.pf2e.conditionitems.TBSHQspnbcqxsmjL]{Напугано 2}.</p>\n<p><strong>Критический провал:</strong> Существо чувствует, что гневный призрак особенно разгневан на него. Существо становится @UUID[Compendium.pf2e.conditionitems.TBSHQspnbcqxsmjL]{Напугано 2}; его состояние не снижается автоматически, пока призрак остается активным, и топорик получает бонус обстоятельства +2 ко всем \"Ударам\" гневным топориком, которые он совершает против этого существа.</p>"
			},{
				"id": "J88670eDfpomkkvm",
				"name": "Гневный топорик",
				"description": "<p>@Localize[PF2E.PersistentDamage.Bleed1d6.success]</p>"
			}]
		},
		"Xarwin Caul": {
			"name": "Оболочка Ксарвин",
			"Hdescription": "<p>Оболочка представляет собой тонкий слой прозрачной влажной подобной ткани материи, прилипающей к внешним поверхностям поместья. Материал кажется скользким и неестественно холодным на ощупь и он цепляется и растягивается, когда палец или другой предмет, используемый для прикосновения к Оболочке, отводится от нее.</p>",
			"disable": "<p>@Check[occultism|dc:32] (мастер) или @Check[religion|dc:34] (эксперт) чтобы изгнать Оболочку</p>",
			"reset": "<p>1 неделя; упокоение привидения Ксарвина навсегда уничтожает этот призрак.</p>",
			"stealth": "<p>(мастер)</p>"
		},
		"Xarwin Manor Phantasm": {
			"name": "Фантазм поместья Ксарвин",
			"Hdescription": "<p>Злоба проявляет тревожную иллюзию, предназначенную для того, чтобы разобщить и ослабить сопротивление вторженцев опасностям поместья. Бросьте [[/r 1d12]] по таблице фантазмов поместья Ксарвин, чтобы определить, какого рода иллюзия возникает; в качестве альтернативы выберите подходящую из таблицы или создайте свою собственную, используя, перечисленные результаты, в качестве примеров или вдохновения.</p>\n<h3><strong>Фантазмы поместья Ксарвин</strong></h3>\n<table class=\"pf2-table\">\n<thead>\n<tr>\n<th>[[/r 1d12]]</th>\n<th>Фантазм</th>\n</tr>\n</thead>\n<tbody>\n<tr>\n<td>1</td>\n<td>Влажный, эктоплазменный отпечаток руки проявляется на окне или стене только для того, чтобы ненадолго высунуться с поверхности и попытаться задушить персонажа. Через мгновение рука исчезает, но левая рука ИП кажется странно влажной, пока ее не вытереть.</td>\n</tr>\n<tr>\n<td>2</td>\n<td>Безболезненный, бескровный разрез проявляется на лбу ИП, полностью охватывая его череп в течение нескольких секунд, когда разрез завершает свой круг; ИП испытывает мгновенную мучительную головную боль, прежде чем разрез исчезнет.</td>\n</tr>\n<tr>\n<td>3</td>\n<td>ИП замечает темную фигуру на отражающей повехности; фигура поднимает руку, как бы указывая на них, но у руки нет кисти. Когда ИП поворачивается лицом к изображению или мигает, фигура исчезает.</td>\n</tr>\n<tr>\n<td>4</td>\n<td>ИП спотыкается, заетм замечает, что незакрепленные предметы в комнате дрожат, шторы качаются, а половицы двигаются. Если видно окно, деревья снаружи раскачиваются, даже несмотря на безветренный день. По мере того, как все замирает, у ИП возникает ощущение, что что-то огромное, немного сдвинулось где-то внизу. Ни один другой ИП не испытывает такого ощущения.</td>\n</tr>\n<tr>\n<td>5</td>\n<td>ИП чувствует внезапную боль в левом запястье и убежден, что ему отрубили кисть. При вгляде на предполагаемую рану боль исчезает, и рука выглядит нормально.</td>\n</tr>\n<tr>\n<td>6</td>\n<td>Небо через окно кажется полностью ночным в течение дня, или потолок над ним внезапно исчезает, открывая ночное небо. ИП чувствует, как что-то сомтрит на них откуда-то со звезд, но как только он моргает, отводит взгляд или обращает внимание на ночное небо, изображение возвращается в нормальное состояние.</td>\n</tr>\n<tr>\n<td>7</td>\n<td>ИП внезапно охватывает убежденность в том, что он жил в этом поместье десятилетиями, и что другие ИП являются вторженцами, только для того, чтобы это чувство исчезло мгновениями позже.</td>\n</tr>\n<tr>\n<td>8</td>\n<td>ИП внезапно испытывает непреодолимое чувство предательства со стороны одного из других ИП - предпочтительно того, с которым у него самые тесные эмоциональные связи. Через мгновение это чувство исчезает.</td>\n</tr>\n<tr>\n<td>9</td>\n<td>ИП может слышать звуки, похожие на то, будто маленькая птичка застрявшая в стене, борется за спасение, ни один другой ИП не может этого услышать. Несколько мгновений спустя ИП чувствует, что это он та пойманная птица, а затем фантазм исчезает.</td>\n</tr>\n<tr>\n<td>10</td>\n<td>ИП внезапно теряет все чувства восприятия и на долю секунды чувствует себя невесомым. В полной темноте у него возникает ползучая мысль, что нечто вот-вот подарит ему дар зрения, но он знает, что увиденное будет ужасно. Затем все возвращается в нормальное русло.</td>\n</tr>\n<tr>\n<td>11</td>\n<td>ИП на несколько мгновений внезапно убеждается, что кто-то другой думает за него и что его обманули, заставив думать, что он находится в своем собственном теле, когда это не так.</td>\n</tr>\n<tr>\n<td>12</td>\n<td>ИП внезапно вспоминает нечто ужасное из своего прошлого или дества, а затем испытывает чувство облегчения, когда это воспоминание вытягивается из его сознания. Он может помнить, что случилось что-то плохое, но не сможет вспомнить, что это было.</td>\n</tr>\n</tbody>\n</table>",
			"disable": "<p>@Check[occultism|dc:15] или @Check[religion|dc:15] (чтобы изгнать тревожный фантазм)</p>"
		},
		"Xarwin Portraits": {
			"name": "Портреты Ксарвин",
			"Hdescription": "<p>Картины внезапно начинают кровоточить - Йозеф Ксарвин с левого запястья и три других Ксарвина в линии, пересекающей их брови - когда зрители получают представление о травмах, которые пережила семья.</p>",
			"disable": "<p>@Check[religion|dc:25], чтобы изгнать одну из картин (критический успех изгоняет все картины сразу) или @Check[thievery|dc:21], чтобы быстро накрыть картину плащом или снять ее и повернуть лицом к стене</p>",
			"reset": "<p>1 час; упокоение привидения Ксарвина навсегда уничтожает этого призрака.</p>",
			"routine": "<p>(4 действия) Призрак использует до 4 действий, чтобы нанести кровоточащие раны различным существам в зоне В22. Эти кровавые раны проявляются там, где цель почувствовала бы боль от Причинения агонии, независимо от того, удалось ли цели противостоять тому эффекту или нет. Эта рутина не может быть нацелена на существо более одного раза. Каждое затронутое существо должно совершить спасбросок @Check[fortitude|dc:24|traits:emotion,fear,mental,necromancy,occult].</p>\n<p>Призрак теряет 1 действие за каждую картину, которая отключена или уничтожена.</p>\n<hr />\n<p><strong>Критический успех:</strong> Существо не затронуто.</p>\n<p><strong>Успех:</strong> Существо получает @Damage[(1d8+3)[slashing]] и @UUID[Compendium.pf2e.conditionitems.TBSHQspnbcqxsmjL]{Напугано 1} убеждением, что эти раны были нанесены неким близким смертным.</p>\n<p><strong>Провал:</strong> Как успех, но @Damage[(2d8+6)[slashing], 1d6[bleed]] и @UUID[Compendium.pf2e.conditionitems.TBSHQspnbcqxsmjL]{Напугано 2}.</p>\n<p><strong>Критический провал:</strong> Как провал, но @Damage[(4d8+12)[slashing], 2d6[bleed]] и @UUID[Compendium.pf2e.conditionitems.TBSHQspnbcqxsmjL]{Напугано 3}. Увеличьте значение состояния злобы на 1.</p>",
			"stealth": "<p>(эксперт)</p>",
			"items": [{
				"id": "b68UvpyZkS1b4VZG",
				"name": "Причинение агонии",
				"description": "<p><strong>Триггер:</strong> По крайней мере четыре персонажа находятся в зоне В22, или кто-то прикасается или пытается навредить картине</p>\n<hr />\n<p><strong>Эффект:</strong> Все персонажи в зоне В22 должны совершить спасбросок @Check[will|dc:27], чтобы противостоять мучительной боли (ИП с самым высоким значением Интеллекта чувствует эту боль в левом запястье, в то время как другие чувствуют ее в голове). При провале ИП получает состояние @UUID[Compendium.pf2e.conditionitems.fesd1n5eVhpCSS18]{Тошнота 1} из-за агонии (@UUID[Compendium.pf2e.conditionitems.fesd1n5eVhpCSS18]{Тошнота 2} при критическом провале). Затем призрак бросает инициативу.</p>"
			}]
		},
		"Xarwin's Manifestation": {
			"name": "Проявление Ксарвина",
			"allSaves": "+1 состояния ко всем спасброскам от магии",
			"items": [{
				"id": "CAI4Mth4W18hZyag",
				"name": "Спектральная рука"
			},{
				"id": "1NEYm5Xcmcypev16",
				"name": "Ночное зрение",
				"description": "<p>@Localize[PF2E.NPC.Abilities.Glossary.Darkvision]</p>"
			},{
				"id": "cWM3q0yWZ3nV2UKw",
				"name": "Истощение памяти",
				"description": "<p>Когда проявление наносит урон живому существу \"Ударом\" спектральной руки, проявление получает 5 ВОЗ, и цель должна преуспеть в спасброске @Check[fortitude|dc:23] или станет @UUID[Compendium.pf2e.conditionitems.e1XGnhKNSQIm5IXg]{Одурманена 1}. Каждый раз, когда оно наносит урон существу, состояние <em>`одурманен`</em> этого существа увеличивается на 1 при проваленном спасброске, максимум до <em>`одурманен 4`</em>.</p>"
			},{
				"id": "erB7z23ENjwroBai",
				"name": "Жизнечувствительность 60 футов",
				"description": "<p>@Localize[PF2E.NPC.Abilities.Glossary.Lifesense]</p>"
			},{
				"id": "0AEJAJ3AgrV5j4kM",
				"name": "Связь с поместьем",
				"description": "<p>Проявление не может покинуть Поместье Ксарвин или подземелья под ним.</p>"
			},{
				"id": "AOPfqLyhf0Xvpueq",
				"name": "+1 состояния ко всем спасброскам против позитивного"
			},{
				"id": "zjasConlgzOqCTnt",
				"name": "Негативное исцеление",
				"description": "<p>@Localize[PF2E.NPC.Abilities.Glossary.NegativeHealing]</p>"
			},{
				"id": "3f4ySQfrmtsGbvjo",
				"name": "Отдача",
				"description": "<p>Если персонаж насильно показывает кольцо Фульвии проявлению Ксарвина в качестве действия с признаком <a href=https://clck.ru/jjLHP><em>`воздействие`</em></a>, тот должен совершить спасбросок @Check[will|dc:26].</p>\n<hr />\n<p><strong>Критический успех:</strong> Проявление Ксарвина не затронуто.</p>\n<p><strong>Успех:</strong> Проявление Ксарвина получает @Damage[4d6[mental]] и @UUID[Compendium.pf2e.conditionitems.TBSHQspnbcqxsmjL]{Напугано 1}.</p>\n<p><strong>Провал:</strong> Проявление Ксарвина получает @Damage[8d6[mental]], @UUID[Compendium.pf2e.conditionitems.TBSHQspnbcqxsmjL]{Напугано 2} и @UUID[Compendium.pf2e.conditionitems.sDPxOjQ9kx2RZE8D]{Бежит} пока остается <em>`напуганным`</em>.</p>\n<p><strong>Критический провал:</strong> Проявление Ксарвина уничтожено.</p>"
			},{
				"id": "yB0f6FaPo2u5bqwy",
				"name": "Навязчивое прикосновение",
				"description": "<p>Когда проявление критически попадает \"Ударом\" спектральной руки, значение состояние <em>`злобы`</em> существа увеличивается на 1.</p>"
			}]
		},
		"Yianyin": {
			"name": "Яньинь",
			"language": "телепатия 120 футов, языки",
			"allSaves": "+1 состояния ко всем спасброскам от магии",
			"items": [{
				"id": "tIxMu5g2VHNjODFz",
				"name": "Врожденные оккультные заклинания"
			},{
				"id": "BpKimI1gpvWTX7eW",
				"name": "Языки (постоянное)",
				"description": "<p>Цель может понимать все слова, независимо от языка, а также говорить на языках других существ. В смешанной группе существ, каждый раз, когда цель говорит, она может выбрать существо и говорить на языке, который это существо понимает, даже если цель не знает, что это за язык.</p><hr /><p><strong>Усиление (7-й):</strong> Продолжительность становится 8 часов.</p>"
			},{
				"id": "Ya6FYtH9NcX7nL1K",
				"name": "Невидимость (по желанию) (только на себя)",
				"description": "<p>Покрытая иллюзиями, цель становится @UUID[Compendium.pf2e.conditionitems.zJxUflt9np0q4yML]{Невидимой}. Это делает ее @UUID[Compendium.pf2e.conditionitems.VRSef5y1LmL2Hkjf]{Необнаруженной} для всех существ, однако существа могут попытаться найти цель, сделав ее для себя @UUID[Compendium.pf2e.conditionitems.iU0fEDdBp3rXpTMC]{Спрятанной} (см. <a href=https://clck.ru/TsbcT>Обнаружение существ</a>). Если цель использует враждебное действие, заклинание заканчивается после завершения этого враждебного действия.</p><hr /><p><strong>Усиление (4-й):</strong> Заклинание длится 1 минуту, но не заканчивается если цель использует враждебное действие.</p>"
			},{
				"id": "ir9prG2ljao7pdxi",
				"name": "Кулак"
			},{
				"id": "09TNtg4ODRPndxNb",
				"name": "Ночное зрение",
				"description": "<p>@Localize[PF2E.NPC.Abilities.Glossary.Darkvision]</p>"
			},{
				"id": "CZrdGP9D1n0eOI8A",
				"name": "Телепатия 120 футов",
				"description": "<p>@Localize[PF2E.NPC.Abilities.Glossary.Telepathy]</p>"
			},{
				"id": "Z1kI1lIR3yl4kS3A",
				"name": "Жизнечувствительность 60 футов",
				"description": "<p>@Localize[PF2E.NPC.Abilities.Glossary.Lifesense]</p>"
			},{
				"id": "Ls9yE1H6FkT1OJYn",
				"name": "Нервирующее присутствие",
				"description": "<p>@Template[emanation|distance:30] @UUID[Compendium.pf2e.bestiary-ability-glossary-srd.v61oEQaDdcRpaZ9X]</p>\n<hr />\n<p>Существо, начинающее свой ход в ауре, должно совершить спасбросок @Check[will|dc:22].</p>\n<hr />\n<p><strong>Критический успех:</strong> Существо не затронуто и становится временно иммунным к <em>\"Нервирующему присутствию\"</em> на 24 часа.</p>\n<p><strong>Успех:</strong> Броски атак существа получают штраф состояния -1 на 1 раунд.</p>\n<p><strong>Провал:</strong> Существо чувствует на себе безглазый взгляд Яньинь, но осознает, что нечто гораздо более опасное и чудовищное наблюдает за ними через эти пустые глазницы. Подавляющее присутствие этого чуждого разума заставляет существо стать @UUID[Compendium.pf2e.conditionitems.xYTAsEpcJE1Ccni3]{Замедленным 1} на 1 раунд, в то время как оно дрожит и трясется от страха.</p>\n<p><strong>Критический провал:</strong> Как провал, но вместо <em>`замедления`</em> существо @UUID[Compendium.pf2e.conditionitems.dfCMdR4wnpbYNTix]{Ошеломлено 1} и осознает имя того, что смотрит из этих пустых глазниц: Чекут.</p>"
			},{
				"id": "nT581p1wTDqsWA0W",
				"name": "+1 состояния ко всем спасброскам от магии"
			},{
				"id": "45tIfcu3EgUSitRf",
				"name": "Принуждение осужденного",
				"description": "<p>Катрина телепатически принуждает существо в радиусе 30 футов приблизиться к ней и позволить катрине совершить <em>\"Поцелуй смерти\"</em>. Цель должна совершить спасбросок @Check[will|dc:25].</p>\n<p><strong>Успех:</strong> Существо не затронуто и временно иммунно к <em>\"Принуждению осужденных\"</em> в течение 24 часов.</p>\n<p><strong>Провал:</strong> Существо должно использовать каждое из своих действий, чтобы как можно быстрее приблизиться к катрине, избегая очевидных опасностей. Если принужденное существо поблизости катрины, оно стоит неподвижно и ничего не делает. Если существо получает какой-либо урон, эффект заканчивается, и существо временно иммунно к <em>\"Принуждению осужденного\"</em> на 24 часа. Этот эффект длится 1 раунд, но если катрина снова использует эту способность в последующих раундах, это увеличивает продолжительность на 1 раунд для всех затронутых существ.</p>\n<p><strong>Критический провал:</strong> Как провал, но урон не прекращает эффект.</p>"
			},{
				"id": "NampMSngFfuFfsYt",
				"name": "Портящее касание",
				"description": "<p>\"Удары\" Яньинь наносят @Damage[2d6[void]] живым существам. Существо критически пораженное \"Ударом\" Яньинь, должно преуспеть в спасброске @Check[fortitude|dc:18|traits:void], иначе станет @UUID[Compendium.pf2e.conditionitems.4D2KBtexWXa6oUMR]{Истощено 1} (@UUID[Compendium.pf2e.conditionitems.4D2KBtexWXa6oUMR]{Истощено 2} при критическом провале), в то время как следы гнили расходятся на его плоти.</p>"
			},{
				"id": "kATbmBX9Ub3C8BqX",
				"name": "Поцелуй смерти",
				"description": "<p>Катрина дарит долгий, страстный поцелуй @UUID[Compendium.pf2e.conditionitems.fBnFDH2MTzgFijKf]{Бессознательному} или готовому существу, нанося @Damage[4d6[void]].</p>\n<p>Любое существо, получающее урон от <em>\"Поцелуя смерти\"</em> в течение 3 последовательных раундов, падает <em>`без сознания`</em> и становится @UUID[Compendium.pf2e.conditionitems.yZRUzMqrMmfLu0V1]{При смерти 1}.</p>"
			},{
				"id": "CaUXX1KAzOzLwfmw",
				"name": "Знание Могильника"
			}]
		}
	}
}