{
	"label": "Эффекты",
	"mapping": {
		"name": {
			"path": "name",
			"converter": "itemNameConverter"
		},
		"description": "system.description.value"
	},
	"entries": {
		"Effect: Aid (Critical Failure)": {
			"name": "Эффект: Помощь (Критический провал)",
			"description": "<p>Вы получаете бонус обстоятельства к проверке, основанный на результате проверки \"Помощи\" вашего союзника.</p>"
		},
		"Effect: Aid (Critical Success Legendary)": {
			"name": "Эффект: Помощь (Критический успех, легенда)",
			"description": "<p>Вы получаете бонус обстоятельства к проверке, основанный на результате проверки \"Помощи\" вашего союзника.</p>"
		},
		"Effect: Aid (Critical Success Master)": {
			"name": "Эффект: Помощь (Критический успех, мастер)",
			"description": "<p>Вы получаете бонус обстоятельства к проверке, основанный на результате проверки \"Помощи\" вашего союзника.</p>"
		},
		"Effect: Aid (Critical Success)": {
			"name": "Эффект: Помощь (Критический успех)",
			"description": "<p>Вы получаете бонус обстоятельства к проверке, основанный на результате проверки \"Помощи\" вашего союзника.</p>"
		},
		"Effect: Aid (Success)": {
			"name": "Эффект: Помощь (Успех)",
			"description": "<p>Вы получаете бонус обстоятельства к проверке, основанный на результате проверки \"Помощи\" вашего союзника.</p>"
		},
		"Effect: Off-Guard 1 round (start)": {
			"name": "Эффект: Застигнут врасплох на 1 раунд (начало)",
			"description": "<p>Вы @UUID[Compendium.pf2e.conditionitems.Item.AJh5ex99aV6VTggg]{Застигнуты врасплох} на 1 раунд.</p>"
		},
		"Effect: Root to Life": {
			"name": "Эффект: Корень к жизни"
		},
		"Effect: Twin Feint": {
			"name": "Эффект: Двойной финт"
		},
		"Inspire Aura": {
			"name": "Аура вдохновения"
		},
		"Spell Effect: Song of Strength (+2)": {
			"name": "Эффект заклинания: Песня силы (+2)",
			"description": "<p>Вы получаете бонус состояния +2 к проверкам Атлетики и КС против действий навыка Атлетики, таких как @UUID[Compendium.pf2e.actionspf2e.Item.ge56Lu1xXVFYUnLP]{Опрокинуть}, @UUID[Compendium.pf2e.actionspf2e.Item.lOE4yjUnETTdaf2T]{Перестановка}, @UUID[Compendium.pf2e.actionspf2e.Item.Dt6B1slsBy8ipJu9]{Разоружить} и @UUID[Compendium.pf2e.actionspf2e.Item.7blmbDrQFNfdT731]{Толкнуть}.</p>"
		},
		"Spell Effect: Song of Strength (+3)": {
			"name": "Эффект заклинания: Песня силы (+3)",
			"description": "<p>Вы получаете бонус состояния +3 к проверкам Атлетики и КС против действий навыка Атлетики, таких как @UUID[Compendium.pf2e.actionspf2e.Item.ge56Lu1xXVFYUnLP]{Опрокинуть}, @UUID[Compendium.pf2e.actionspf2e.Item.lOE4yjUnETTdaf2T]{Перестановка}, @UUID[Compendium.pf2e.actionspf2e.Item.Dt6B1slsBy8ipJu9]{Разоружить} и @UUID[Compendium.pf2e.actionspf2e.Item.7blmbDrQFNfdT731]{Толкнуть}.</p>"
		}
	}
}