{
	"kasper": {
		"title": "👻 КАСПЕР",
		"subtitle": "Karma Assessment and Player Evaluation Resource",
		"settings": {
			"canPlayersView": {
				"name": "Могут ли игроки просматривать?",
				"hint": "Когда параметр включен, фракции по умолчанию будут видны игрокам. Если включено, все фракции по умолчанию показаны. Если выключено, то все фракции по умолчанию скрыты."
			},
			"minify.name": "Использовать минимизированный вид?",
			"minify.hint": "Это сделает пользовательский интерфейс, меньше и компактнее. Следует иметь в виду, что при этом метка репутации накладываются на цветную полосу и может быть трудно читаемой на некоторых цветах.",
			"trigger": {
				"name": "Метод активации?",
				"hint": "Как вы хотите активировать пользовательский интерфейс КАСПЕР? Диалог - добавит кнопку в заголовок боковй панели Журнала. Закрепленный - прикрепить окно над заметками на вкладке Журнала.",
				"choices": {
					"dialog": "Диалог",
					"pinned": "Закрепленный"
				}
			},
			"disableWheel": {
				"name": "Отключить колесико мышки?",
				"hint": "Если включено, колесико мыши не сможет регулировать значение репутации, если пользователь не удерживает клавишу CTRL.",
				"hintDisabled": "ОТКЛЮЧЕНО: Эта настройка отключена, если включен '{moduleTitle}'. Пожалуйста, используйте этот модуль для настройки того, как вы хотите, чтобы функционировали входы диапазона этого модуля."
			},
			"config": {
				"name": "Глобальные настройки по умолчанию",
				"hint": "Это значения по умолчанию, используемые для всех трекеров репутации. Вы можете щелкнуть правой кнопкой мышки и настроить значения отдельных трекеров в окне Управления.",
				"label": "Глобальные настройки по умолчанию"
			}
		},
		"manager": {
			"title": "Управление",
			"sortable": "Перетащить для сортировки",
			"addFaction": "Добавить фракцию",
			"decreaseReputation": "Уменьшить репутацию",
			"increaseReputation": "Повысить репутацию",
			"dragDrop": {
				"addReputation": "Добавить репутацию",
				"dropHere": "Перетащите сюда"
			},
			"contextMenu": {
				"altTitle": "Установить альтернативный заголовок для игроков",
				"togglePlayerView": {
					"show": "Показывать игрокам",
					"showAll": "Показывать игрокам все фракции",
					"hide": "Скрыть от игроков",
					"hideAll": "Скрыть от игроков все фракции"
				}
			},
			"dialog": {
				"setAltTitle": {
					"label": "Альтернативное название",
					"hint": "Если значение не пустое, оно будет показываться игрокам вместо названия по умолчанию. Это полезно при скрытии названия фракции от игроков."
				}
			}
		},
		"configure": {
			"title": "Настройка",
			"titles": {
				"global": "Настроить глобальные параметры",
				"reputation": "Настроить настройки репутации {title}",
				"faction": "Настроить настройки фракции {title}"
			},
			"settings": {
				"title": "Определить диапазоны",
				"override": {
					"name": "Определить уникальные параметры",
					"hint": "Это переопределит родительские настройки для данного элемента и его дочерних элементов."
				},
				"presets": {
					"name": "Загрузить предустановку",
					"hint": "Загружается предустановка значений для использования с выбранным трекером репутации.",
					"custom.name": "Пользовательская",
					"inherit.name": "Наследовать"
				},
				"minimum": {
					"name": "Наименьшее значение репутации",
					"hint": "Это самое низкое значение репутации, которое может быть. Обычно это самое отрицательное значение."
				},
				"maximum": {
					"name": "Наибольшее значение репутации",
					"hint": "Это самое высокое значение репутации, которое может быть. Обычно это самое высокое значение."
				},
				"default": {
					"name": "Значение репутации по умолчанию",
					"hint": "Это значение репутации по умолчанию, которое будет установлено при добавлении новой фракции."
				},
				"colorize": {
					"name": "Раскрасить панель репутации?",
					"hint": "Панель репутации будет окрашиваться в зависимости от значения репутации."
				}
			},
			"tiers": {
				"title": "Определить этапы",
				"headingLabel": "Название этапа",
				"addTierLabel": "Установить название этапа"
			},
			"dialog": {
				"overwriteGlobalDefaults": {
					"title": "Перезаписать глобальные настройки",
					"content": "Внимание! Этими настройками будут отменены глобальные настройки по умолчанию. Вы уверены, что хотите продолжить?"
				},
				"updatePreset": {
					"title": "Обновить предустановку {title}",
					"content": "Внимание! В результате будет перезаписана предустановка {title}, то есть все трекеры, использующие эту предустановку, будут обновлены. Вы уверены, что хотите продолжить?"
				},
				"custom": {
					"title": "Создать новую пользовательскую предустановку",
					"label": "Название предустановки",
					"hint": "Пожалуйста введите название предустановки. Это название будет использоваться для создания удобного селектора при использовании КАСПЕР."
				}
			},
			"tooltips": {
				"overrideGlobalDefaults": "Удерживайте SHIFT чтобы отменить Глобальные настройки по умолчанию"
			},
			"notifications.error": {
				"overwriteGlobalDefaultsRejected": "<strong>{title}</strong>: Пользователь решил не перезаписывать глобальные значения по умолчанию. Предустановка не была обновлена!",
				"noPresetTitle": "<strong>{title}</strong>: Заголовок предустановки требуется при создании новой пользовательской предустановки. Предустановка не создана!",
				"presetTitleExists": "<strong>{title}</strong>: <em>{preset}</em> уже существует в качестве предустановки. Предустановка не была создана!",
				"presetTitleProtected": "<strong>{title}</strong>: <em>{preset}</em> является зазищенным ключевым словом и не может использоваться. Предустановка не была обновлена!"
			},
			"notifications.warn.overwriteRejected": "<strong>{title}</strong>: <em>{preset}</em> Предустановка не обновлена!"
		},
		"reputation": {
			"title": "Название репутации",
			"faction": {
				"title": "Название фракции"
			}
		},

		"TIERS": {
			"globalDefaults": {
				"title": "Глобальные значения по умолчанию"
			},
			"house-divided": {
				"title": "A House Divided",
				"labels": {
					"Despised": "Despised",
  					"Scorned": "Scorned",
					"Unfriendly": "Unfriendly",
					"Neutral": "Neutral",
					"Friendly": "Friendly",
					"Loyal": "Loyal",
					"Devoted": "Devoted"
				}
			}, 
			"fallout": {
				"title": "Fallout",
				"labels": {
					"VeryGood": "Very Good",
					"Good": "Good",
					"Neutral": "Neutral",
					"Bad": "Bad",
					"VeryBad": "Very Bad"
				}
			},
			"solider-ranks": {
				"title": "Solider Ranks",
				"labels": {
					"Unlisted": "Unlisted",
					"Private": "Private",
					"Corporal": "Corporal",
					"Sergeant": "Sergeant",
					"MasterSergeant": "Master Sergeant",
					"SecondLieutenant": "Second Lieutenant",
					"FirstLieutenant": "First Lieutenant",
					"Captain": "Captain",
					"Major": "Major",
					"Colonel": "Colonel",
					"BrigadierGeneral": "Brigadier General",
					"MajorGeneral": "Major General",
					"LieutenantGeneral": "Lieutenant General",
					"General": "General",
					"Commander": "Commander"
				}
			},
			"generic": {
				"title": "Универсальное",
				"labels": {
					"Infamous": "Бесславный",
					"Exalted": "Возвышенный",
					"Feared": "Наводящий страх",
					"Loathed": "Враждебный",
					"Despised": "Презренный",
					"Hated": "Ненавистный",
					"Scorned": "Презираемый",
					"Neutral": "Нейтральный",
					"Friendly": "Дружественный",
					"Allied": "Союзный",
					"Respcted": "Уважаемый",
					"Revered": "Почтенный"
				}
			},
			"simple": {
				"title": "Простое",
				"labels": {
					"Enemy": "Враг",
					"Neutral": "Нейтральный",
					"Friendly": "Друг"
				}
			},
			"pf2e-reputations": {
				"title": "Репутация 2e",
				"labels": {
					"Hunted": "Преследование",
					"Hated": "Ненависть",
					"Disliked": "Не нравятся",
					"Ignored": "Игнорирование",
					"Liked": "Нравятся",
					"Admired": "Восхищение",
					"Revered": "Почитание"
				}
			},
			"pf2e-attitudes": {
				"title": "Отношения Pathfinder 2e",
				"labels": {
					"Hostile": "Враждебное",
					"Unfriendly": "Недружественное",
					"Indifferent": "Безразличное",
					"Friendly": "Дружественное",
					"Helpful": "Любезное"
				}
			}
		}
	}
}