{
    "pf2e-toolbelt": {
        "SHARED": {
            "migration": {
                "warning": {
                    "title": "Миграция модуля",
                    "start": "Начало миграции",
                    "cancel": "Отменить",
                    "content": {
                        "modules": "Следующим модулям может потребоваться миграция данных:",
                        "wait": "Если система осуществляет миграцию своих данных, пожалуйста, подождите прежде чем начать"
                    }
                },
                "summary": {
                    "title": "Сводка миграции",
                    "content": "Была произведена миграция следующих документов.",
                    "nothing": "Миграция документов не потребовалась."
                },
                "error": {
                    "actors": "Во время миграции данных мировых актёров произошла ошибка.",
                    "token": "Во время миграции данных актёра токена {uuid} произошла ошибка.",
                    "users": "Во время миграции данных пользователей произошла ошибка."
                }
            },
            "spellcasting": {
                "staff": "Посох",
                "charges": "Заряды"
            },
            "sending": "Послание"
        },
        "settings": {
            "requiresReload": "(Требуется перезагрузка)",
            "global": {
                "title": "Глобальные",
                "withContent": {
                    "name": "С содержимым контейнера",
                    "hint": "Когда контейнер перемещается с одного актёра к другому, перемещать ли его содержимое."
                }
            },
            "actionable": {
                "title": "Осуществление действия",
                "enabled": {
                    "name": "Включено",
                    "hint": "Позволяет привязать макрос к действиям и заклинаниям. Перетащите макрос на закладку Подробности листа действия/заклинания."
                }
            },
            "arp": {
                "title": "Автоматическая прогрессия рун",
                "enabled": {
                    "name": "Включено",
                    "hint": "Будет ли мир использовать вариант автоматической прогрессии рун? Это несовместимо с обычными правилами АПБ и отключит системный вариант правил."
                },
                "force": {
                    "name": "Принудительное обновление",
                    "hint": "Когда включено, руны всегда будут обновляться, основываясь на уровне актёра. Когда отключено, будут обновляться только руны с меньшей категорией чем должны быть."
                }
            },
            "effectsPanel": {
                "title": "Панель эффектов",
                "remove": {
                    "name": "Быстрая комбинация снятия эффекта",
                    "hint": "Использование [Shift + ПКМ] на иконках эффекта мгновенно снимет все заряды/значение/счётчик."
                }
            },
            "giveth": {
                "title": "Передача предметов",
                "enabled": {
                    "name": "Включено",
                    "hint": "Позволяет игрокам передавать предметы другим актёрам игроков."
                },
                "message": {
                    "name": "Отправить сообщение в чат",
                    "hint": "При передаче предмета другому актёру будет создаваться сообщение в чате."
                },
                "effect": {
                    "name": "Разрешать перенос эффектов/состояний",
                    "hint": "Разрешать игрокам переносить эффекты и состояния на актёров, которые им не принадлежат.",
                    "choices": {
                        "disabled": "Отключено",
                        "ally": "Только на союзников",
                        "all": "На всех актёров"
                    }
                }
            },
            "droppeth": {
                "title": "Droppeth",
                "enabled": {
                    "name": "Включено",
                    "hint": "Позволять игрокам бросать предметы на сцену, зажимая [Ctrl]."
                },
                "removeOnEmpty": {
                    "name": "Удалять, когда пустой",
                    "hint": "Удалять ли токен и актёра, когда у него больше нет предметов?"
                },
                "light": {
                    "name": "Источник света",
                    "hint": "Должны ли брошенные предметы излучать свет? Это будет происходить только есть в актёре добычи только один предмет."
                },
                "message": {
                    "name": "Отправить сообщение в чат",
                    "hint": "При выбрасывании предмета на сцену будет создаваться сообщение в чате."
                }
            },
            "heroActions": {
                "title": "Действия Геройства",
                "enabled": {
                    "name": "Включено",
                    "hint": "Использовать ли действия Колоды Очков Геройства."
                },
                "table": {
                    "name": "UUID таблицы",
                    "hint": "Уникальный идентификатор таблицы, которую вы хотите использовать в своём мире. Чтобы получить UUID таблицы (в сборнике или разделе Случайных таблиц), просто откройте таблицу и щелкните левой кнопкой мыши на 📔 рядом с ее названием."
                },
                "trade": {
                    "name": "Разрешить обмен",
                    "hint": "Когда включено, персонажи могут обмениваться действиями друг с другом."
                },
                "private": {
                    "name": "Приватный розыгрыш карты",
                    "hint": "Если эта опция включена, то сообщение, выдаваемое при розыгрыше действий героизма, будет приватным от других игроков."
                },
                "count": {
                    "name": "Вариация набора геройства",
                    "hint": "Если 0, у персонажей есть только одно Действие Геройства за Очко Геройства. Иначе, количество действий Геройства будет отвязано от количества доступных Очков Геройства, и персонажи снова вытащат набор Действий Геройства."
                }
            },
            "noBulk": {
                "title": "Без Массы",
                "dropped": {
                    "name": "Не учитывать Массу брошенных предметов",
                    "hint": "Брошенное снаряжение в инвентаре персонажа не будет учитываться при расчете Массы."
                },
                "coins": {
                    "name": "Невесомые монеты",
                    "hint": "Монеты в инвентаре невесомы."
                }
            },
            "unided": {
                "title": "Задание неопознанного изображения",
                "create": {
                    "name": "При создании предмета",
                    "hint": "Автоматически задаёт изображение неопознанного предмета таким же как обычное, когда предмет создан/импортирован."
                },
                "update": {
                    "name": "При обновлении предмета",
                    "hint": "Автоматически обновлять изображение неопознанного предмета, когда обновлено обычное изображение."
                }
            },
            "untarget": {
                "title": "Снятие целей",
                "force": {
                    "name": "Принудительное снятие целей",
                    "hint": "Принудительно удаляет цели всех пользователей при смене хода/раунда."
                },
                "enabled": {
                    "name": "Включено",
                    "hint": "Убирает все цели при смене хода/раунда. Это может быть отменено настройкой мира 'Принудительное снятие целей'."
                }
            },
            "templateHelper": {
                "title": "Помощник с шаблонами",
                "enabled": {
                    "name": "Включено",
                    "hint": "При наложении шаблона на сцену, появится новый диалог с возможностью выбора целями всех токенов внутри шаблона."
                },
                "dismiss": {
                    "name": "Авто-удаление",
                    "hint": "Убирает шаблон со сцены после задания всех целей (или если отменён). Под 'сиротами' подразумеваются шаблоны, произошедшие не от сообщения заклинания в чате.",
                    "choices": {
                        "disabled": "Отключено",
                        "orphan": "Только сироты",
                        "all": "Все шаблоны"
                    }
                }
            },
            "spellsSummary": {
                "title": "Сводка заклинаний",
                "enabled": {
                    "name": "Включено",
                    "hint": "Предоставляет возможность в любой момент переключиться между обычной и альтернативной версиями вкладки `Колдовство` листа персонажа, щелкнув еще раз на пиктограмме вкладки."
                },
                "sort": {
                    "name": "Сортировать по категориям",
                    "hint": "При включении, заклинания одного ранга будут отсортированы в таблице сначала по категории, а затем по алфавиту."
                }
            },
            "stances": {
                "title": "Стойки",
                "enabled": {
                    "name": "Включено",
                    "hint": "Добавляет кнопки стоек в лист персонажа для более удобного их переключения. Также, удаляет стойки в конце столкновения."
                }
            },
            "share": {
                "title": "Объединение данных",
                "enabled": {
                    "name": "Включено",
                    "hint": "Актёры смогут связывать/объединять свои данные с другим актёром."
                }
            },
            "targetHelper": {
                "title": "Помощник прицеливания",
                "enabled": {
                    "name": "Включено",
                    "hint": "Включает в мире функционал 'Помощника прицеливания'."
                },
                "addTargets": {
                    "name": "Добавляет цели к сообщениям",
                    "hint": "Добавляет дополнительные цели к сообщениям чата, которые могут нанести урон, и где может быть брошен спасбросок."
                },
                "smallButtons": {
                    "name": "Маленькие кнопки",
                    "hint": "Уменьшает размер кнопок урона для дополнительных целей."
                }
            },
            "mergeDamage": {
                "title": "Объединение урона",
                "enabled": {
                    "name": "Включено",
                    "hint": "К сообщениям об уроне будет добавлена новая иконка, позволяющая объединять их с другими сообщениями об уроне."
                }
            },
            "hideDamage": {
                "title": "Прятать урон",
                "enabled": {
                    "name": "Включено",
                    "hint": "Скроет сообщения чата об уроне для существ, не принадлежащих игрокам, от игроков."
                }
            },
            "useButton": {
                "title": "Кнопка 'Использовать'",
                "consumables": {
                    "name": "Добавить к расходникам",
                    "hint": "Добавит дополнительную кнопку 'Использовать' для расходников."
                },
                "selfApplied": {
                    "name": "Автоматически накладывать на себя",
                    "hint": "Автоматически накладывать эффект для действий с эффектом на себя."
                }
            },
            "betterMerchant": {
                "title": "Улучшенный торговец",
                "enabled": {
                    "name": "Включено",
                    "hint": "Добавить дополнительный функционал с стандартному системному торговцу."
                },
                "servicesTop": {
                    "name": "Услуги над предметами",
                    "hint": "Должны ли услуги отображаться над списком предметов в листе."
                },
                "buyMax": {
                    "name": "Максимальное соотношение для покупки",
                    "hint": "Максимальное соотношение ценности для фильтров покупки."
                },
                "sellMax": {
                    "name": "Максимальное соотношение для продажи",
                    "hint": "Максимальное соотношение ценности для фильтров продажи."
                },
                "servicesMax": {
                    "name": "Максимальное соотношение для услуг",
                    "hint": "Максимальное соотношение ценности для услуг."
                }
            },
            "underground": {
                "title": "Подземелье",
                "enabled": {
                    "name": "Включено",
                    "hint": "Токены с отрицательной высотой остаются видимыми на сцене."
                },
                "mode": {
                    "name": "Применяемый фильтр",
                    "hint": "Какой тип фильтра применять для токенов с высотой меньше 0.",
                    "choices": {
                        "normal": "Без фильтра",
                        "greyscale": "Черно-белый",
                        "sepia": "Сепия"
                    }
                },
                "contrast": {
                    "name": "Контраст",
                    "hint": "Значение контраста, когда у токена отрицательная высота."
                },
                "alpha": {
                    "name": "Непрозрачность",
                    "hint": "Значение непрозрачности, когда у токена отрицательная высота."
                }
            },
            "identify": {
                "title": "Идентификация",
                "enabled": {
                    "name": "Включить",
                    "hint": "Поможет вам управлять неидентифицированными предметами в вашем мире и следить за тем, какие предметы опознаны."
                },
                "stash": {
                    "name": "Добавить тайник партии",
                    "hint": "Следует ли добавить предметы из тайника партии в список для идентификации."
                },
                "delay": {
                    "name": "Задержка на 24 часа",
                    "hint": "Если включено, персонаж должен подождать 24 часа после неудачной попытки идентифицировать предмет, прежде чем смогут предпринять новую попытку. В противном случае оно будет сброшено на следующий день."
                },
                "playerRequest": {
                    "name": "Разрешить запросы от игроков",
                    "hint": "Могут ли игроки запрашивать идентификацию предметов."
                },
                "identifyPartials": {
                    "name": "Автоматически идентифицировать похожие предметы",
                    "hint": "Должны ли \"похожие\" предметы также идентифицироваться, когда используется опция \"Автоматически идентифицировать похожие предметы\""
                }
            }
        },
        "tool": {
            "noGM": "К вашему миру не подключен Мастер, поэтому данная операция не может быть обработана."
        },
        "global": {
            "withContent": {
                "error": {
                    "unknown": "При попытке перенести контейнер возникла ошибка."
                }
            }
        },
        "arp": {
            "forceVariant": "Модуль <strong>PF2e Toolbelt</strong> отключил системный вариант правил АПБ для правильной работы. Рекомендуется перезагрузить мир."
        },
        "giveth": {
            "error": {
                "zero": "Вы не можете отдать элемент, которого у вас нет.",
                "withQty": "Отдает {qty} {item} <strong>{target}</strong>.",
                "withoutQty": "Отдает {item} <strong>{target}</strong>.",
                "unknown": "При попытке передать выбранные предметы, что-то пошло не так."
            },
            "dialog": {
                "title": "Передать предмет",
                "prompt": "Сколько предметов вы хотите передать?"
            },
            "message": {
                "subtitle": "Передать предмет",
                "content": {
                    "item": "{source} даёт {target} {quantity} × {item}.",
                    "container": "{source} даёт {target} {item} и всё его содержимое."
                }
            }
        },
        "droppeth": {
            "dialog": {
                "title": "Бросить предмет",
                "prompt": "Сколько предметов вы хотите бросить?"
            },
            "error": {
                "out-of-bounds": "Не получилось создать токен в этом месте.",
                "unknown": "При попытке бросить выбранные предметы, что-то пошло не так.",
                "no-scene": "Нет доступных сцен."
            },
            "message": {
                "subtitle": "Бросить предмет",
                "content": {
                    "item": "{source} бросает {quantity} × {item} на землю.",
                    "container": "{source} бросает {item} и всё его содержимое."
                }
            }
        },
        "heroActions": {
            "sheet": {
                "action": {
                    "use": "Использовать",
                    "discard": "Сбросить"
                },
                "label": "Действия Геройства",
                "draw": "Вытащить {nb}",
                "redraw": "Вытащить снова",
                "trade": "Обменять",
                "give": "Дать"
            },
            "trade": {
                "title": "Обмен Действиями Геройства",
                "select": "Выберите персонажа для обмена",
                "yes": "Отправить",
                "no": "Отменить",
                "request": {
                    "title": "Действие Геройства — Запрос обмена",
                    "flavor": "Персонаж <strong>{sender}</strong> хочет обменяться с <strong>{receiver}</strong>",
                    "give": "Предлагает: {give}",
                    "want": "Хочет: {want}",
                    "yes": "Принять",
                    "no": "Отказать"
                },
                "rejected": "<strong>{sender}</strong> и <strong>{receiver}</strong> отказались от обмена."
            },
            "giveActions": {
                "title": "Дать Действия Геройства",
                "yes": "Дать действия",
                "no": "Отменить",
                "drawn": "Уже вытащено",
                "asDrawn": "Установить как вытащенное при взятии",
                "withMessage": "Создать сообщение в чате"
            },
            "removeActions": {
                "title": "Удалить Действия Геройства",
                "all": "Все персонажи",
                "yes": "Удалить",
                "no": "Отменить",
                "removed": "Действия Геройства были удалены у выбранного персонажа(ей)."
            },
            "error": {
                "onlyCharacter": "Действия Геройства совместимы только с участниками игроков",
                "notEnoughPoint": "У этого персонажа недостаточно Очков Геройства",
                "noDetails": "Не удалось найти детали для этого Действия Геройства.",
                "noAction": "У этого персонажа нет Действий Геройства.",
                "mustDiscard": "Персонаж должен сбросить {nb} Действий Геройства, прежде может приступить к обмену.",
                "noOther": "Нет других персонажей с Действиями Геройства для обмена.",
                "notGM": "Необходимо присутствие Мастера для выдачи Действий Геройства.",
                "tradeError": "При обработке обмена между <strong>{sender}</strong> и <strong>{receiver}</strong> произошла ошибка."
            },
            "message": {
                "drawn": "Достает ({nb}) Действий Геройства",
                "given": "Получил ({nb}) Действий Геройства",
                "discarded": "Сбрасывает ({nb}) Действий Геройства",
                "used": {
                    "heroPoints": "Очко Геройства",
                    "mythicPoints": "Очко Мифа",
                    "message": "Тратит {type}, чтобы использовать"
                },
                "exchanged": "Обменял Действие Геройства с {name}",
                "offer": "Предложено: {offer}",
                "receive": "Получено: {receive}"
            },
            "table": {
                "noDraw": "Не получилось вытащить действие из таблицы.",
                "notFound": "В мире не найдена Колода Действий Геройства.",
                "noFormula": "В Таблице Действий Геройства нет формулы, скажите вашему Мастеру, что он что-то напутал.",
                "noFormulaCompendium": "Таблица Действий Геройства не имеет формулы и является таблицей сборника.",
                "drawError": "Во время розыгрыша произошла ошибка, скорее всего таблица содержит несуществующие результаты."
            }
        },
        "templateHelper": {
            "menu": {
                "title": "Помощник с шаблонами",
                "self": "Включить себя",
                "neutral": "Включить нейтральных",
                "enemies": "Враги",
                "allies": "Союзники",
                "all": "Оба",
                "yes": "Цель",
                "no": "Отменить"
            }
        },
        "spellsSummary": {
            "label": "Сводка заклинаний"
        },
        "stances": {
            "sheet": {
                "noCombat": "Вы можете войти в стойку только в столкновении"
            },
            "error": {
                "noCombat": "Этот персонаж не участвует в столкновении."
            },
            "opening": {
                "title": "Открывающая стойка(*)",
                "select": "Выберите стойку для {name}",
                "yes": "Войти в стойку!",
                "no": "Отменить"
            }
        },
        "share": {
            "config": {
                "header": "Объединение данных",
                "master": {
                    "label": "Мастер",
                    "hint": "Выберите мастера, к которым этот актёр объединит свои данные.",
                    "disabled": "У этого актёра не может быть мастера"
                },
                "health": {
                    "label": "Здоровье",
                    "hint": "Объединить очки здоровья и выносливости с мастером."
                },
                "turn": {
                    "label": "События по времени",
                    "hint": "Когда начинается ход мастера, изменяется инициатива, или происходит отдых на ночь, для этого актёра также будут срабатывать события."
                },
                "skills": {
                    "label": "Мастерство навыков",
                    "hint": "Использует мастерство навыков мастера."
                },
                "hero": {
                    "label": "Очки Геройства",
                    "hint": "Использует Очки Геройства мастера."
                },
                "weapon": {
                    "label": "Руны оружия",
                    "hint": "Использует инвестированные мастером в оружии/повязках фундаментальные руны и руны свойств."
                },
                "armor": {
                    "label": "Руны доспеха",
                    "hint": "Использует инвестированные мастером в доспехе/наручах руны мощи и стойкости."
                }
            },
            "skills": {
                "modifier": "Мастерство мастера"
            }
        },
        "targetHelper": {
            "unnamed": "Неизвестный",
            "tooltip": {
                "adjustment": "Корректировка: {value}",
                "dcWithValue": "КС {dc}",
                "reroll": "Можно перебросить спасбросок",
                "result": {
                    "format": "Результат: {result}",
                    "withOffset": "{success} на {offset}",
                    "withoutOffset": "{success}"
                }
            },
            "header": {
                "select": "Выберите цель<br>[Двойной ЛКМ] Открыть лист",
                "hidden": "Скрыт от игроков",
                "noSave": "Этот актёр не может бросать спасброски {save}"
            },
            "rollSaves": "Бросить спасброски NPC",
            "setTargets": "Задать цели",
            "setSplashTargets": "Задать цели брызг",
            "toggleDamageRows": "Переключить стандартные кнопки урона",
            "reroll": {
                "title": "Перебросить спасбросок",
                "noPoints": "Для переброса вам нужно как минимум 1 очко героизма.",
                "yes": "Перебросить",
                "no": "Отменить",
                "keeley": "Низкий переброс"
            },
            "drop": {
                "unauth": "Вы можете делать это только с принадлежащими вам сообщениями.",
                "already": "Это сообщение уже содержит привязанный спасбросок.",
                "added": "Вы успешно добавили спасбросок к сообщению."
            },
            "check-card": {
                "check": "Проверка {type}",
                "basicCheck": "простая проверка {type}"
            }
        },
        "mergeDamage": {
            "buttons": {
                "split": "Разделить обратно на исходные сообщения",
                "merge": "Объединить с предыдущим сообщением урона",
                "inject": "Добавить урон к предыдущему сообщению"
            },
            "injected": "К этому сообщению был добавлен урон",
            "noMatch": "Не удалось найти другое подходящее сообщение об уроне."
        },
        "betterMerchant": {
            "sheet": {
                "browser": "Из навигатора",
                "filters": "Фильтры предметов",
                "infiniteAll": {
                    "label": "Бесконечные запасы",
                    "tooltip": "У торговца никогда не кончатся предметы для продажи (ничего не делает с сокровищами)"
                },
                "servicesRatio": {
                    "label": "Соотношение услуг",
                    "tooltip": "Соотношение цен на все услуги этого продавца"
                }
            },
            "browserPull": {
                "title": "Добавить предметы — {name}",
                "selected": "Выбрано",
                "add": "Добавить торговцу",
                "all": "Переключить все",
                "limit": "Вы достигли предела!",
                "wait": "Подождите пока закончится обработка предметов.",
                "finished": "Закончилось добавление торговцу предметов.",
                "owned": "Предмет уже в инвентаре торговца",
                "confirm": "<p>Вы уверены, что хотите добавить торговцу предмет(ы) (выбрано: <strong>{nb}</strong>)?</p><p>Этот процесс может занять несколько секунд в зависимости от количества предметов.</p>"
            },
            "browserFilter": {
                "create": "Создать {type} фильтр",
                "edit": "Редактировать {type} фильтр",
                "empty": "Нет смысла создавать фильтра, ничего не фильтрующий."
            },
            "filter": {
                "buy": "Купить",
                "sell": "Продать"
            },
            "filters": {
                "title": "Фильтры предметов — {name}",
                "default": {
                    "buy": "Покупка по-умолчанию",
                    "sell": "Продажа по-умолчанию"
                },
                "name": "Имя",
                "type": "Тип",
                "buy": "Фильтры покупки",
                "sell": "Фильтры продажи",
                "enabled": {
                    "label": "Включено",
                    "tooltip": "Включить фильтр для этого торговца"
                },
                "useDefault": {
                    "label": "Использовать кошель по-умолчанию",
                    "tooltip": "Использует ли этот фильтр также кошель по-умолчанию. Если нет, будет использоваться только кошель, связанный с этим фильтром"
                },
                "ratio": {
                    "label": "Коэффициент цены",
                    "tooltip": "Ценовой коэффициент для этого фильтра",
                    "treasure": "Сокровища, подходящие под этот фильтр всегда будут покупаться за 100% своей стоимости"
                },
                "purse": {
                    "label": "Кошель",
                    "tooltip": {
                        "buy": "Количество зм, которое может быть выделено этим фильтром (0 = нет денег, пусто = бесконечно).<br><em>Заметка: Не покажет сумму меньше 1 зм, но все равно отслеживает ее</em>",
                        "sell": "Количество золота, которое получил этот кошель от продажи предметов"
                    }
                },
                "delete": {
                    "title": "Удалить фильтр",
                    "content": "Вы точно хотите удалить фильтр <strong>{name}</strong>?"
                }
            },
            "service": {
                "title": "Услуга — {name}",
                "quantity": "Отрицательное число для бесконечного запаса",
                "name": "Название",
                "enabled": "Включено",
                "macro": {
                    "label": "Макрос, выполняемый Услугой",
                    "drop": "Поместите макрос"
                },
                "none": "Не удалось найти Услугу",
                "delete": {
                    "title": "Удалить Услугу",
                    "msg": "Вы уверены, что хотите удалить эту Услугу?"
                },
                "give": "<strong>{seller}</strong> предлагает свои услуги <strong>{buyer}</strong> бесплатно.",
                "buy": "<strong>{buyer}</strong> приобрел услугу у <strong>{seller}</strong>.",
                "noBuyer": "Вы должны выбрать одного Персонажа/НИП/Партию, которым вы владеете, в качестве цели услуги.",
                "noFunds": "<strong>{buyer}</strong> не имеет средств, чтобы приобрести услугу у <strong>{seller}</strong>.",
                "noStock": "<strong>{seller}</strong> больше не предлагает эту услугу.",
                "error": "При попытке обработать запрос услуги, возникла ошибка",
                "export": "Экспорт Услуги"
            },
            "service-export": {
                "title": "Экспорт Услуги — {name}",
                "copied": "Услуга <strong>{name}</strong> была скопирована в буфер обмена.",
                "copiedAll": "<strong>{name}</strong> услуги были скопированы в буфер обмена.",
                "all": "Скопировать все услуги",
                "close": "Закрыть"
            },
            "service-import": {
                "title": "Импорт Услуг — {name}",
                "yes": "Импортировать",
                "no": "Отменить",
                "error": "При попытке импортировать услугу, возникла ошибка."
            },
            "sheet-services": {
                "label": "Услуги",
                "add": "Добавить услугу",
                "edit": "Редактировать услугу",
                "delete": "Удалить Услугу",
                "enabled": "Переключить услуги",
                "give": "Бесплатная услуга",
                "buy": "Запросить услугу",
                "export": "Экспортировать услуги",
                "import": "Импортировать услуги"
            },
            "sell": {
                "refuse": "<strong>{actor}</strong> не готов расстаться с <strong>{item}</strong>."
            },
            "buy": {
                "refuse": "<strong>{actor}</strong> не хочет покупать {quantity} <strong>{item}</strong>.",
                "error": "При обработке запроса торговли от <strong>{user}</strong> произошла ошибка.",
                "question": "Сколько предметов вы хотите продать?"
            }
        },
        "actionable": {
            "itemSheet": {
                "label": "Макрос",
                "hint": " или макрос, который вы хотите чтобы был выполнен при использовании этого действия"
            },
            "macro-zone": {
                "label": "Макрос",
                "drop": "Поместите макрос",
                "hint": "Макрос, который будет выполняться при использовании данного {type}"
            },
            "cancelSpell": "<strong>{name}</strong> сотворение было отменено его макросом."
        },
        "identify": {
            "tracker": {
                "title": "Трекер идентификации предметов",
                "identified": "Уже идентифицирован",
                "send-to-chat": "Отправить в чат",
                "request-checks": "Запросить проверки",
                "misidentify": "Переключить мисинформацию",
                "failed": {
                    "daily": "Не смог идентифицировать этот предмет сегодня",
                    "delay": "Не смог идентифицировать этот:<br>Осталось {hours} часов"
                },
                "known": {
                    "full": "Уже идентифицировал предмет",
                    "partial": "Идентифицировал похожий предмет:<br>{item}",
                    "recall": "Может использовать оно действие \"Вспомнить информацию\"<br>и автоматически получить успех"
                },
                "auto": {
                    "label": "Авто",
                    "tooltip": "Автоматически идентифицировать известные предметы",
                    "title": "Автоматическая идентификация",
                    "content": "Идентифицировать предметы, уже известные членам партии:<br><ul>{items}</ul>",
                    "none": "Нет предметов, которые можно автоматически идентифицировать"
                },
                "save": {
                    "label": "Обновить",
                    "tooltip": "Обновить текущие изменения и идентифицировать предметы",
                    "title": "Обновить изменения",
                    "content": "Сохранить текущие изменения и автоматически идентифицировать следующие предметы:<br><ul>{items}</ul>"
                },
                "reset": {
                    "label": "Сбросить",
                    "tooltip": "Сбросить текущие изменения"
                },
                "clock": {
                    "forward": "Продвинуть время вперёд на 10 минут",
                    "backward": "Откатить время назад на 10 минут",
                    "open": "Открыть меню мировых часов"
                }
            },
            "request": {
                "sent": "Запрос на идентификацию предмета был отправлен Мастеру.",
                "request": "Запросил идентификацию предмета для",
                "proceed": "Хотите продолжить?"
            }
        },
        "hideDamage": {
            "reveal": "Показать урон игрокам"
        }
    }
}