{
    "pf2e-avoid-notice": {
        "standardCover": "Стандартное укрытие",
        "greaterCover": "Большое укрытие",
        "logLevel": {
            "name": "Уровень ведения журнала отчёта",
            "none": "Без отчётов",
            "debug": "Уровень отладки",
            "log": "Уровень журнала"
        },
        "useUnnoticed": {
            "name": "Незамечен",
            "hint": "Использовать 'Незамечен' вместо 'Необнаружен' когда бросок Скрытности для инициативы превосходит КС Восприятия и инициативу цели"
        },
        "removeGmHidden": {
            "name": "Показывать токены бойцов в начале боя",
            "hint": "Токены бойцов с отключенной видимостью будут проявлены в начале боя, что позволит использовать результаты проверок Восприятия/Скрытности"
        },
        "raiseShields": {
            "name": "Поднимать щиты персонажей игроков при использовании Защищаться",
            "hint": "Требует, чтобы персонажи держали щиты и использовали активность исследования Защищаться.",
            "heldShield": "У {actor} должен быть удерживаемый щит для {activity}."
        },
        "autorollSpellDamage": {
            "name": "Автоматически бросать урон заклинания",
            "hint": "Только для заклинаний, не являющихся атаками, у которых есть кнопка \"Бросить урон\" при создании карточки."
        },
        "rage": {
            "name": "Привести варваров в ярость в начале битвы",
            "hint": "Требует способность \"Вспыльчивый\" и действие \"Ярость\". Действие \"Ярость\" также должно содержать самоприменяемый эффект"
        },
        "requireActivity": {
            "name": "Требует активность исследования \"Избегать обнаружения\"",
            "hint": "Требует чтобы у персонажей игроков была установлена активность исследования \"Избегать обнаружения\", чтобы спрятаться в начале боя. Если отключено, вместо этого они должны кидать скрытность для инициативы.",
            "error": "Нужно, чтобы {actor} использовал {action}, если хочет спрятаться в начале боя."
        },
        "conditionHandler": {
            "name": "Менеджер состояний",
            "hint": "Худший КС зрительно идёт на пользу крадущимся, в то время как лучший КС зрительно лучше для ищущих.",
            "ignore": "Не задавать состояния",
            "best": "Использовать худшую степень успеха для определения состояния",
            "worst": "Использовать лучшую степень успеха для определения состояния",
            "perception": "Позволить это делать модулю pf2e-perception",
            "perceptive": "Позволить это делать модулю Perceptive"
        },
        "computeCover": {
            "name": "Просчитывать укрытие в начале боя",
            "hint": "Использовать модуль PF2e Perception, чтобы автоматически просчитывать укрытие между токенами, использующим скрытность для инициативы и не-союзными токенами. Оно будет использовано только для этой проверки, и большое укрытие использовано не будет"
        },
        "observable": {
            "name": "Сделать выбранные токены наблюдаемыми",
            "hint": "Снять состояния скрыт, необнаружен и незамечен с выбранных токенов."
        },
        "schema": {
            "name": "Версия схемы",
            "hint": "Установите это значение на более раннюю версию, чтобы вынудить миграцию данных с указанной версии до текущей"
        },
        "config": {
            "general": "Общие настройки",
            "misfits": "Дополнительные настройки",
            "debug": "Настройки отладки"
        }
    }
}