{
    "pf2e-token-hud": {
        "filter": "Фильтр",
        "actor": {
            "macros": {
                "contextmenu": "Макросы ITT",
                "title": "Макросы ITT"
            }
        },
        "menu": {
            "gm": {},
            "client": {
                "header": "Настройки клиента",
                "distance": "Расстояние",
                "sidebar": "Боковая панель",
                "actions": "Действия",
                "spells": "Заклинания",
                "skills": "Навыки",
                "tooltip": "Подсказка",
                "items": "Снаряжение",
                "extras": "Дополнительно"
            }
        },
        "keybinds": {
            "hold": {
                "name": "Удерживать для отображения",
                "hint": "Ключ, который нужно удерживать, чтобы отобразить всплывающую подсказку токена."
            },
            "filter": {
                "name": "Показать фильтр",
                "hint": "Когда открыта боковая панель, вы можете использовать эту привязку клавиш для отображения поля фильтра, прокручивая верхнюю часть боковой панели и придавая фокус полю."
            }
        },
        "settings": {
            "enabled": {
                "name": "Включено",
                "hint": "Должен ли модуль быть включен на этом клиенте."
            },
            "pips": {
                "name": "Цифровые пункты",
                "hint": "Использовать цифровое представление пунктов во всплывающей подсказке (например, очков героизма)."
            },
            "position": {
                "name": "Позиция всплывающей подсказки",
                "hint": "С какой стороны токена вы бы предпочли, чтобы отображалась основная всплывающая подсказка. Если это невозможно, модуль попытается сначала использовать противоположную сторону, в противном случае - одну из оставшихся двух.",
                "choices": {
                    "left": "Слева",
                    "right": "Справа",
                    "top": "Сверху",
                    "bottom": "Снизу"
                }
            },
            "small-position": {
                "name": "Позиция маленькой всплывающей подсказки",
                "hint": "Выберите предпочтительную сторону для маленькой всплывающей подсказки. Применяется та же логика, что и для обычной.",
                "choices": {
                    "left": "Слева",
                    "right": "Справа",
                    "top": "Сверху",
                    "bottom": "Снизу"
                }
            },
            "delay": {
                "name": "Задержка всплывающей подсказки",
                "hint": "Задержка в миллисекундах перед появлением основной подсказки на экране."
            },
            "autolock": {
                "name": "Автоблокировка",
                "hint": "Должна ли всплывающая подсказка блокироваться при наведении на нее курсора или сразу после ее отображения.",
                "choices": {
                    "none": "Отключено",
                    "hover": "При наведении на всплывающую подсказку",
                    "render": "При отображении всплывающей подсказки"
                }
            },
            "spells-sort": {
                "name": "Сортировка заклинаний",
                "hint": "Как следует сортировать в одной таблице. Они по-прежнему будут отсортированы по алфавиту в качестве второй сортировки",
                "choices": {
                    "disabled": "В алфавитном порядке",
                    "type": "По типу заклинаний",
                    "entry": "По записям колдовства"
                }
            },
            "scrollbar": {
                "name": "Прокрутка боковой панели",
                "hint": "Должна ли отображаться полоса прокрутки на боковых панелях. Если опция отключена, вы все равно сможете прокручивать, но больше не увидите полосу прокрутки."
            },
            "height": {
                "name": "Максимальная высота боковой панели",
                "hint": "Устанавливает максимальную высоту боковых панелей. Может быть любой строкой css используемой для свойства 'высота' (например '50%' или '300px'). Модуль позаботится о том, чтобы боковые панели не выходили за пределы высоты области просмотра."
            },
            "actions": {
                "name": "Сортировка действий",
                "hint": "Как сортировать действия.",
                "choices": {
                    "name": "Сгруппированы по Названию",
                    "type": "Сгруппированы по Типу",
                    "split": "Разделить по Типу"
                }
            },
            "actions-colors": {
                "name": "Системные цвета Ударов & Урона",
                "hint": "При включении модуль будет воспроизводить цветовую схему кнопок ударов и урона на листе персонажа."
            },
            "distance": {
                "name": "Расстояние до токена",
                "hint": "Должно ли отображаться расстояние до выбранного/целевого токена на дисплее.",
                "choices": {
                    "none": "Отключено",
                    "self": "Только собственные токены",
                    "all": "Все токены"
                }
            },
            "unit": {
                "name": "Единица расстояния",
                "hint": "Строка, представляющая множитель, единицу измерения и количество знаков после запятой (все разделенные запятыми), используемые при отображении 'Расстояние до токена'. Пример: '0.3, м, 2'. Если оставить пустым, значение по умолчанию: '1, фт, 0', "
            },
            "status": {
                "name": "Состояние здоровья",
                "hint": "Строки, разделенные запятыми, представляющие различные подразделения состояния здоровья существа от худшего, к лучшему (не включая \"мертв\"). Модуль разделит максимальное здоровье на количество предоставленных строк. Оставьте пустым, чтобы отключить.",
                "statuses": {
                    "first": "На пороге смерти",
                    "second": "Плохое самочувствие",
                    "third": "Видел лучшие дни",
                    "fourth": "Совершенно отличное"
                }
            },
            "last-status": {
                "name": "Последнее состояние на 100%",
                "hint": "Когда включено, строка последнего состояния здоровья будет использоваться только при 100% вместо последнего деления коэффициента здоровья."
            },
            "see-status": {
                "name": "Состояние здоровья владельца",
                "hint": "Если включено, состояние здоровья также будет отображаться в обычной всплывающей подсказке, а не только в не-принадлежащих."
            },
            "untrained": {
                "name": "Скрыть нетренированные действия навыков",
                "hint": "Если включено, действия навыков, требующие минимального обучения, не будут отображаться на боковой панели навыков."
            },
            "tradition": {
                "name": "Показать традицию заклинаний",
                "hint": "Это добавит первую букву традиции перед категорией колдовства."
            },
            "actions-columns": {
                "name": "Два столбца действий",
                "hint": "Делит боковую панель действий на 2 столбца."
            },
            "items-columns": {
                "name": "Два столбца снаряжения",
                "hint": "Делит боковую панель снаряжения на 2 столбца."
            },
            "spells-columns": {
                "name": "Два столбца заклинаний",
                "hint": "Делит боковую панель заклинаний на 2 столбца."
            },
            "skills-columns": {
                "name": "Два столбца навыков",
                "hint": "Делит боковую панель навыков на 2 столбца."
            },
            "show-death": {
                "name": "Показать строку смерти",
                "hint": "Укажите, будет ли строка При смерти и Ранен отображаться в основной всплывающей подсказке.",
                "choices": {
                    "none": "Никогда не показывать",
                    "always": "Всегда показывать",
                    "only": "Только при необходимости"
                }
            },
            "key-holding": {
                "name": "Использовать удержание клавиш",
                "choices": {
                    "none": "Отключено",
                    "player": {
                        "hint": "Какие типы токенов требуют нажатия/удержания клавиши для отображения всплывающей подсказки.",
                        "half": "Только собственные токены",
                        "all": "Собственные и чужие токены"
                    },
                    "gm": {
                        "hint": "Не показывать всплывающие подсказки без удержания клавиш, или только маленькую версию до нажатия/удержания.",
                        "half": "Удерживать, чтобы показать полностью",
                        "all": "Удерживать или ничего"
                    }
                }
            },
            "observer": {
                "name": "Всплывающая подсказка при наблюдении",
                "hint": "Если включено, нередактируемая версия обычной всплывающей подсказки будет отображаться для токенов, к которым у вас есть разрешение 'наблюдатель'. Кроме того, большинство функций 'только владелец' теперь будет распространяться и на 'наблюдатель'."
            },
            "chat": {
                "name": "Отключение при наведении на карточку чата",
                "hint": "Предотвратит появление всплывающей подсказки при наведении курсора на карточку чата, принадлежащую токену."
            },
            "party": {
                "name": "Партия под наблюдением",
                "hint": "Считать, что участники в альянсе 'Партии' наблюдаемые для игроков."
            },
            "saves": {
                "name": "Показать спасброски",
                "hint": "Должны ли во всплывающей подсказке отображаться спасброски Стойкости, Рефлекса и Воли.",
                "choices": {
                    "none": "Отключено",
                    "bonus": "Показать бонус",
                    "dc": "Показать КС"
                }
            },
            "others": {
                "name": "Восприятие,Скрытность, Атлетика",
                "hint": "Должны ли во всплывающей подсказке отображаться бонус/КС Восприятия, Скрытности и Атлетики.",
                "choices": {
                    "none": "Отключено",
                    "bonus": "Показать бонус",
                    "dc": "Показать КС"
                }
            },
            "ranks": {
                "name": "Показать ранг мастерства",
                "hint": "Если включено, в основной всплывающей подсказке к спасброскам будет добавлен небольшой индикатор мастерства."
            },
            "tooltips": {
                "name": "Отключить иконки всплывающей подсказки",
                "hint": "Отключить отображение всех иконок в основной всплывающей подсказке."
            },
            "scale": {
                "name": "Масштабировать шрифт",
                "hint": "Вы можете масштабировать всю всплывающую подсказку и прикрепленные к ней боковые панели/всплывающие окна, изменив размер шрифта. Модуль был разработан с расчетом на использование размера шрифта 14px по умолчанию."
            },
            "hazard-width": {
                "name": "Максимальная ширина опасности",
                "hint": "Это позволит вам установить максимальную ширину (в 'em'), которую может занимать боковая панель опасностей"
            },
            "force-speed": {
                "name": "Форсировать наивысшую скорость",
                "hint": "Если включено, то скорость по умолчанию (когда она не выбрана вручную), всегда будет самой высокой из найденных у актёра, а не только если наземная скорость равна 0."
            },
            "filter": {
                "name": "Всегда показывать фильтр",
                "hint": "Если включено, поле фильтра всегда будут отображаться в верхней части боковых панелей, а не при использовании привязки клавиш 'Показывать фильтр', привязка клавиш все равно прокручивает панель вверх и дает фокус полю."
            },
            "containers": {
                "name": "Предметы в контейнерах",
                "hint": "Если включено, предметы в контейнерах всегда будут отображаться в своем контейнере."
            },
            "attack-close": {
                "name": "Закрыть всплывающее окно при атаке/уроне",
                "hint": "Каждый раз, когда вы нажимаете на кнопку Удара/Взрыва или Урона/Критического урона, всплывающее окно закрывается."
            },
            "cast-close": {
                "name": "Закрыть всплывающее окно при сотворении заклинания",
                "hint": "Каждый раз, когда вы нажимаете на значок сотворения заклинания, всплывающее окно закрывается."
            },
            "chat-close": {
                "name": "Закрыть всплывающее окно при отправке в чат",
                "hint": "Каждый раз, когда вы нажимаете на значок отправки в чат, всплывающее окно закрывается."
            },
            "action-close": {
                "name": "Закрыть всплывающее окно при использовании действия",
                "hint": "Каждый раз, когда вы нажимаете кнопку действия, всплывающее окно закрывается."
            },
            "skill-close": {
                "name": "Закрыть всплывающее окно при броске навыка",
                "hint": "Каждый раз, когда вы нажимаете на кнопку, выполняющую проверку навыка (включая проверки Восприятия), всплывающее окно закрывается."
            },
            "macro-close": {
                "name": "Закрыть всплывающее окно при использовании макроса",
                "hint": "Каждый раз, когда вы нажимаете кнопку использования макроса, всплывающее окно закрывается."
            },
            "use-close": {
                "name": "Закрыть всплывающее окно при использовании элемента",
                "hint": "Каждый раз, когда вы нажимаете кнопку использования предмета, всплывающее окно закрывается."
            },
            "no-dead": {
                "name": "Нет всплывающего окна у мертвых персонажей мастера",
                "hint": "Если включено, всплывающие окна не будут отображаться у мертвых персонажей мастера."
            },
            "action-effect": {
                "name": "Автоматически применять эффект действия",
                "hint": "Если включено, действия будут автоматически применять свой ассоциированный эффект при использовании."
            },
            "rk-dice": {
                "name": "Вспомнить информацию - бросок кости",
                "hint": "Если включено, формат действия Вспомнить информацию немного изменится, и будет отображаться бросок кости, что делает его совместимым с модулем Dice So Nice."
            }
        },
        "spells": {
            "title": "Заклинания",
            "empty": "У {name} нет заклинаний, магия в любом случае зло.",
            "charges": "Заряды",
            "staff": "Посох",
            "attacks": {
                "title": "Выберите запись заклинания",
                "ok": "Бросок"
            },
            "cast": "Сотворить заклинание",
            "draw": "Выхватить расходник"
        },
        "extras": {
            "title": "Дополнительно",
            "empty": "Здесь не на что смотреть, может быть когда-нибудь.",
            "no-macro": "Перетащите сюда Макросы"
        },
        "actions": {
            "title": "Действия",
            "empty": "{name} нечего делать, так скучно.",
            "recall-knowledge": {
                "result": "Результат",
                "modifier": "Мод.",
                "target": "Цель",
                "first": "1-й",
                "second": "2-й",
                "third": "3-й",
                "fourth": "4-й",
                "fifth": "5-й",
                "sixth": "6-й",
                "dc": "КС",
                "unspecific": "Неспецифические",
                "specific": "Конкретные"
            },
            "treat-wounds": {
                "title": "{name} - Лечение ран",
                "no-proficiency": "У {name} нет необходимого мастерства для лечения ран."
            },
            "stances": "Стойки",
            "heroActions": {
                "label": "Действия Геройства",
                "redraw": "Вытащить снова все Действия Геройства",
                "draw": "Вытащить недостающие Действия Геройства",
                "trade": "Обменять Действия Геройства"
            }
        },
        "hazard": {
            "empty": "{name} не очень опасен."
        },
        "popup": {
            "close": "Закрыть"
        },
        "skills": {
            "title": "Навыки",
            "actions": {
                "earnIncome": "Заработок денег",
                "treatWounds": "Лечение ран",
                "borrow-arcane-spell": "Одолжить арканное заклинание",
                "identify-magic": "Идентификация магии",
                "identify-alchemy": "Идентификация алхимии",
                "learn-spell": "Выучить заклинание",
                "crafting-goods": "Создание рыночных товаров",
                "staging-performance": "Выступление на сцене",
                "distracting-words": "Отвлекающие слова",
                "gesture": "Жест",
                "trick": "Трюк",
                "stabilize": "Стабилизировать",
                "stop-bleeding": "Остановить кровотечение",
                "acting": "Пьеса",
                "comedy": "Комедия",
                "dance": "Танец",
                "keyboards": "Клавишные",
                "oratory": "Ораторство",
                "percussion": "Ударные",
                "singing": "Пение",
                "strings": "Струнные",
                "winds": "Духовые",
                "follow": "Повторять за экспертом",
                "following": "Повторяет за экспертом"
            },
            "modifiers": {
                "no-crowbar": "Нет ломика"
            },
            "variant": {
                "title": "Вариант навыка",
                "label": "Вариант навыка",
                "dc": "Класс сложности",
                "button": "Выбрать",
                "agile": "Быстрое?"
            }
        },
        "items": {
            "title": "Снаряжение",
            "empty": "К сожалению, у {name} карманы пусты.",
            "inContainer": "Отображать предметы в контейнере",
            "outContainer": "Отображать предметы в категориях",
            "use": "Использовать предмет"
        },
        "deleteItem": {
            "title": "Подтверждения удаления",
            "ok": "Удалить",
            "cancel": "Отменить"
        },
        "hud": {
            "resolve": {
                "title": "Использовать очко Решимости",
                "yes": "Принять",
                "no": "Отменить",
                "full": "{name} полон выносливости и не нуждается в отдыхе.",
                "breather": {
                    "label": "Передохнуть",
                    "msg": "Отдохните 10 минут, потратьте очко решимости и восстановите всю свою выносливость.",
                    "used": "{name} имеет {ratio} ОВ и тратит очко решимости, взяв 10-минутную передышку. Выносливость обновлена."
                },
                "steel": {
                    "msg": "Используйте действие, потратьте очко решимости и восстановите половину вашей выносливости."
                }
            }
        }
    }
}