{
	"label": "Hopefinder - Эффекты",
	"entries": {
		"Bruised": {
			"name": "Ссадины",
			"description": "<p>В зомби-апокалипсисе вашему выжившему, скорее всего, придется изрядно пострадать, и ссадины - это долговременное напоминание об их испытаниях. Самый распространенный способ получить ссадину - это когда ваша броня поглощает весь урон от атаки. Другие распространенные способы - падение, спотыкание или другие опасности, связанные с окружающей средой. Наконец, некоторые зомби и крупные животные легче наносят ссадины своими особыми атаками.</p>\n<ul>\n<li>Как только количество полученных вами ссадин становится равным вашему максимальному количеству Очков Здоровья или превышает его, вы становитесь @UUID[Compendium.pf2e.conditionitems.Item.HL2l2VRSaQHu9lUw]{Утомлены} и вы не можете избавиться от этого состояния до тех пор, пока количество ссадин не станет меньше вашего максимального количества ОЗ.</li>\n<li>Если количество синяков равно или больше удвоенного количества ваших максимальных Очков Здоровья, вы также становитесь @UUID[Compendium.pf2e.conditionitems.Item.xYTAsEpcJE1Ccni3]{Замедлены 1} и не можете избавиться от этого состояния, пока общее количество ссадин не станет меньше удвоенного количества ваших максимальных Очков Здоровья.</li>\n<li>И наконец, если количество ваших ссадин когда-либо станет равным или превысит утроенное количество ваших максимальных Очков Здоровья, вы падаете @Compendium[pf2e.conditionitems.Unconscious] и не можете прийти в себя, пока общее количество ссадин не станет меньше этого значения.</li>\n</ul>\n<p>Восстановиться после ссадин можно несколькими способами.</p>\n<ul>\n<li>Успешное @Compendium[hopefinder.actions.jIN7minzIXOY3YJk]{Лечение ран}, осуществленное кем-то, кто обучен Медицине, исцеляет 1 или более ссадину.</li>\n<li>Полный ночной отдых исцеляет количество ссадин, равное вашему модификатору Телосложения (минимум 1). Прибавьте к этому числу свой уровень, если вы полностью сыты и не обезвожены. Полный дневной отдых удваивает это число (минимум до 2 ссадин).</li>\n<li>@Compendium[hopefinder.equipment.QhQICRaozexpChof]{Аспирин} и @UUID[Compendium.hopefinder.equipment.Item.vNIuFsgm2P0fxtuB]{Холодные компрессы} исцеляют 1 ссадину и 1d4 ссадин соответственно.</li>\n<li>@Compendium[hopefinder.equipment.SV0M9dfS2dEOUQqP] и @Compendium[hopefinder.equipment.gf43bT7SBtUvVPFn] исцеляют 1 и 2 ссадины соответственно, но увеличивает ваше обезвоживание.</li>\n</ul>"
		},
		"Effect: Burning Branch": {
			"name": "Эффект: Горящая ветка",
			"description": "<p>Попадания горящей веткой наносят дополнительно 1d4 урона огнем.</p>"
		},
		"Effect: Demand Results": {
			"name": "Эффект: Потребовать результатов",
			"description": "<p>Цели получает бонус состояния +1 к броскам атаки и урона.</p>"
		},
		"Effect: Inspire": {
			"name": "Эффект: Вдохновить",
			"description": "<p>Вы получаете бонус состояния +1 к броскам атаки, броскам урона и спасброскам против эффектов @Trait[Fear]{страха}</p>"
		},
		"Effect: Insulted": {
			"name": "Эффект: Насмешка",
			"description": "<p>Цель получает штраф обстоятельства -2 при атаке кого-либо, кроме вас (-4 при критическом успехе)</p>"
		},
		"Effect: Menace": {
			"name": "Эффект: Угроза",
			"description": "<p>Рейдер получает бонус обстоятельства +1 к проверкам Запугивания, сделанным для @UUID[Compendium.pf2e.actionspf2e.2u915NdUyQan6uKF]{Деморализации}, за каждого другого видимого рейдера или воина дороги в округе (максимум +4).</p>"
		},
		"Effect: Rehearsed": {
			"name": "Эффект: Подготовка",
			"description": "<p>Вы узнали, как очистить свой разум перед выполнением важного задания. Потратьте 10 минут на репетицию, медитацию или иную подготовку к выполнению задачи. Вы получаете бонус обстоятельства +2 к выполнению этой задачи, если вы совершите проверку в течение следующего часа. Во время подготовки вы должны назвать задачу. Если вы вступаете в бой, эта подготовка теряется.</p>"
		},
		"Effect: Vitamins": {
			"name": "Эффект: Витамины",
			"description": "<p>Вы получаете бонус +2 к спасброскам Стойкости.</p>"
		},
		"Hope": {
			"name": "Надежда",
			"description": "<p>Вы можете использовать свои Очки Надежды следующим образом:</p>\n<ul>\n<li>После совершения проверки, но до того, как результат станет известен, вы можете призвать свою Надежду, чтобы совершить повторный бросок и использовать лучший результат.</li>\n<li>Если в бою по вам попали, и бросок атаки оказался критическим попаданием, вы можете призвать свою Надежду, чтобы атака считалась обычным попаданием.</li>\n<li>Если вы @UUID[Compendium.pf2e.conditionitems.Item.fBnFDH2MTzgFijKf] и @UUID[Compendium.pf2e.conditionitems.yZRUzMqrMmfLu0V1], вы можете призвать свою Надежду, чтобы пропустить проверку восстановления в конце своего хода. Это не уменьшает значение вашего состояния @Condition[Dying]{при смерти} и не стабилизирует вас - в следующий ход вы должны совершать проверку снова, как обычно.</li>\n</ul>"
		}
	}
}