{
	"label": "Hopefinder - Снаряжение",
	"entries": {
		"Arrows": {
			"name": "Стрелы [Hopefinder]",
			"description": "<p><strong>Прочность:</strong> 1</p>"
		},
		"Aspirin (Bottle)": {
			"name": "Аспирин [Бутылка]",
			"description": "<p>Содержит 10 порций. Каждая исцеляет 1 ссадину после 10 минут. Максимум до 2 ссадин за 4 часа.</p>\n<hr>\n<p><strong>Прочность:</strong> 2</p>"
		},
		"Automotive Kit": {
			"name": "Автомобильный набор",
			"description": "<p>Позволяет использовать Механику, чтобы чинить и строить транспортные средства.</p>\n<hr>\n<p><strong>Прочность:</strong> 4</p>"
		},
		"Backpack": {
			"name": "Рюкзак [Hopefinder]",
			"description": "<p>Позволяет переносить до 4 Масс предметов. Они не учитываются при подсчете общей Массы (хотя сам рюкзак все равно учитывается).</p>\n<hr>\n<p><strong>Прочность:</strong> 4</p>"
		},
		"Bandages": {
			"name": "Бинты",
			"description": "<p>Позволяет использовать @UUID[Compendium.pf2e.actionspf2e.Item.MHLuKy4nQO2Z4Am1]{Первую помощь} и @UUID[Compendium.hopefinder.actions.Item.jIN7minzIXOY3YJk]{Лечение ран}. Расходуются при использовании.</p>\n<hr>\n<p><strong>Прочность:</strong> 1</p>"
		},
		"Baseball Bat": {
			"name": "Бейсбольная бита",
			"description": "<p><strong>Прочность:</strong> 4</p>"
		},
		"Battery (Large)": {
			"name": "Батарея [Большая]",
			"description": "<p>Обеспечивает питание в зависимости от устройства. Большие и маленькие батареи не взаимозаменяемы без @UUID[Compendium.hopefinder.equipment.Item.KLYPmqyFUSUKfoff]{токового шунта}. Большая батарея имеет мощность в 10 раз больше, чем маленькая.</p>\n<hr>\n<p><strong>Прочность:</strong> 2</p>"
		},
		"Battery (Small)": {
			"name": "Батарея [Маленькая]",
			"description": "<p>Обеспечивает питание в зависимости от устройства. Большие и маленькие батареи не взаимозаменяемы без @UUID[Compendium.hopefinder.equipment.Item.KLYPmqyFUSUKfoff]{токового шунта}.</p>\n<hr>\n<p><strong>Прочность:</strong> 1</p>"
		},
		"Bedroll": {
			"name": "Спальник [Hopefinder]",
			"description": "<p><strong>Прочность:</strong> 2</p>"
		},
		"Beer": {
			"name": "Пиво",
			"description": "<p>Считается -1 (отрицательной) единицей питья. Употребление снимает 1 ссадину. Получить это преимущество можно лишь раз в день.</p>\n<hr>\n<p><strong>Прочность:</strong> 1</p>"
		},
		"Bike Helmet": {
			"name": "Мотоциклетный шлем",
			"description": "<p>К вашему доспеху добавляется шлем, что обеспечивает вам защиту от критических попаданий.</p>\n<hr>\n<p><strong>Прочность:</strong> 4</p>"
		},
		"Biker Gear": {
			"name": "Снаряжение байкера",
			"description": "<p><strong>Сопротивление:</strong> 3 дробящему, колющему и рубящему урону</p>\n<p><strong>Прочность:</strong> 10</p>"
		},
		"Bolts": {
			"name": "Болты [Hopefinder]",
			"description": "<p><strong>Прочность:</strong> 1</p>"
		},
		"Bottle": {
			"name": "Бутылка",
			"description": "<p><strong>Прочность:</strong> расходуемый</p>"
		},
		"Branch": {
			"name": "Ветка",
			"description": "<p><strong>Прочность:</strong> 2</p>"
		},
		"Brass Knuckles": {
			"name": "Кастет [Hopefinder]",
			"description": "<p><strong>Прочность:</strong> 4</p>"
		},
		"Brick": {
			"name": "Кирпич",
			"description": "<p><strong>Прочность:</strong> 1</p>"
		},
		"Bullet Proof Vest": {
			"name": "Пуленепробиваемый жилет",
			"description": "<p><strong>Сопротивление:</strong> 5 дробящему, колющему и рубящему урону</p>\n<p><strong>Прочность:</strong> 10</p>"
		},
		"Bullets (Pistol)": {
			"name": "Пули [Пистолет]",
			"description": "<p>Стандартная амуниция. Наносит урон, указанный в описании оружия.</p>\n<hr>\n<p><strong>Прочность:</strong> 1</p>"
		},
		"Bullets (Rifle)": {
			"name": "Пули [Винтовка]",
			"description": "<p>Стандартная амуниция. Наносит урон, указанный в описании оружия.</p>\n<hr>\n<p><strong>Прочность:</strong> 1</p>"
		},
		"Bullets (Shotgun)": {
			"name": "Пули [Дробовик]",
			"description": "<p>Стандартная амуниция. Наносит урон, указанный в описании оружия.</p>\n<hr>\n<p><strong>Прочность:</strong> 1</p>"
		},
		"Canned Goods": {
			"name": "Консервы",
			"description": "<p>Считается 1 единицей еды.</p>\n<hr>\n<p><strong>Прочность:</strong> 1</p>"
		},
		"Canned Goods (Expired)": {
			"name": "Консервы [Просроченные]",
			"description": "<p>Считается 1 единицей еды. Если вы употребляете просроченную пишу, вы должны совершить спасбросок @Check[fortitude|dc:15]{Стойкости} или получить @Compendium[pf2e.conditionitems.fesd1n5eVhpCSS18]{Тошноту} на 1 день.</p>\n<hr>\n<p><strong>Прочность:</strong> 1</p>"
		},
		"Canteen": {
			"name": "Фляга",
			"description": "<p>Содержит 2 единицы питья.</p>\n<hr>\n<p><strong>Прочность:</strong> 2</p>"
		},
		"Chainsaw": {
			"name": "Бензопила",
			"description": "<p><strong>Прочность:</strong> 4</p>"
		},
		"Climbing Kit": {
			"name": "Альпинистское снаряжение",
			"description": "<p>Дает бонус +2 к проверкам Атлетики, чтобы @UUID[Compendium.pf2e.actionspf2e.Item.pprgrYQ1QnIDGZiy].</p>\n<hr>\n<p><strong>Прочность:</strong> 4</p>"
		},
		"Clothes (Basic)": {
			"name": "Простая одежда [Hopefinder]",
			"description": "<p><strong>Сопротивление:</strong> 1 рубящему урону</p>\n<p><strong>Прочность:</strong> 6</p>"
		},
		"Clothes (Fancy)": {
			"name": "Изысканная одежда [Hopefinder]",
			"description": "<p><strong>Сопротивление:</strong> 1 рубящему урон</p>\n<p><strong>Прочность:</strong> 6</p>"
		},
		"Clothes (Winter)": {
			"name": "Зимняя одежда [Hopefinder]",
			"description": "<p><strong>Сопротивление:</strong> 2 дробящему, колющему и рубящему урону</p>\n<p><strong>Прочность:</strong> 8</p>"
		},
		"Cold Pack": {
			"name": "Холодный компресс",
			"description": "<p>Исцеляет [[/r 1d4 #Ссадины]]{1d4 ссадин} за 10 минут. Можно использовать только один холодный компресс за 6 часов.</p>\n<hr>\n<p><strong>Прочность:</strong> 1</p>"
		},
		"Combat Knife": {
			"name": "Боевой нож",
			"description": "<p><strong>Прочность:</strong> 4</p>"
		},
		"Compass": {
			"name": "Компас",
			"description": "<p><strong>Прочность:</strong> 1</p>"
		},
		"Compound Bow": {
			"name": "Составной лук",
			"description": "<p><strong>Прочность:</strong> 6</p>"
		},
		"Crafted Bow": {
			"name": "Самодельный лук",
			"description": "<p><strong>Прочность:</strong> 4</p>"
		},
		"Crafted Spear": {
			"name": "Самодельное копье",
			"description": "<p><strong>Прочность:</strong> 4</p>"
		},
		"Crossbow": {
			"name": "Арбалет",
			"description": "<p><strong>Прочность:</strong> 4</p>"
		},
		"Crowbar": {
			"name": "Ломик [Hopefinder]",
			"description": "<p><strong>Прочность:</strong> 4</p>"
		},
		"Crude Bow": {
			"name": "Примитивный лук",
			"description": "<p><strong>Прочность:</strong> 2</p>"
		},
		"Crude Pistol": {
			"name": "Примитивный пистолет",
			"description": "<p><strong>Прочность:</strong> 2</p>"
		},
		"Crude Rifle": {
			"name": "Примитивная винтовка",
			"description": "<p><strong>Прочность:</strong> 2</p>"
		},
		"Crude Spear": {
			"name": "Примитивное копье",
			"description": "<p><strong>Прочность:</strong> 1</p>"
		},
		"Crude Sword": {
			"name": "Примитивный меч",
			"description": "<p><strong>Прочность:</strong> 1</p>"
		},
		"Double Barrel Shotgun": {
			"name": "Двуствольный дробовик",
			"description": "<p><strong>Прочность:</strong> 4</p>"
		},
		"Duct Tape": {
			"name": "Изолента",
			"description": "<p>Может временно устранить до 4 повреждений на предметах. Каждый ремонт занимает 1 минуту. Ремонт длится только до тех пор, пока на предмете снова не появится повреждение.</p>\n<hr>\n<p><strong>Прочность:</strong> 1</p>"
		},
		"Fire Axe": {
			"name": "Пожарный топор",
			"description": "<p><strong>Прочность:</strong> 4</p>"
		},
		"Firefighter Gear": {
			"name": "Снаряжение пожарника",
			"description": "<p><strong>Сопротивление:</strong> 4 всему урону</p>\n<p><strong>Прочность:</strong> 10</p>"
		},
		"First Aid Kit": {
			"name": "Аптечка",
			"description": "<p>Открывает различные применения Медицины.</p>\n<hr>\n<p><strong>Прочность:</strong> 2</p>"
		},
		"Flashlight": {
			"name": "Фонарик",
			"description": "<p>Работает 4 часа от одной @UUID[Compendium.hopefinder.equipment.Item.xBYhPtekXHcZbOEy]{маленькой батареи}. Дает свет в @Template[type:cone|distance:30]{30-футовом конусе}.</p>\n<hr>\n<p><strong>Прочность:</strong> 1</p>"
		},
		"Frag Grenade": {
			"name": "Осколочная граната",
			"description": "<p><strong>Прочность:</strong> расходуемый</p>"
		},
		"Garden Shears": {
			"name": "Садовые ножницы",
			"description": "<p><strong>Прочность:</strong> 2</p>"
		},
		"Gasoline (1 Gallon)": {
			"name": "Бензин [1 галлон]",
			"description": "<p><strong>Прочность:</strong> 1</p>"
		},
		"Generator": {
			"name": "Генератор",
			"description": "<p>Дает много энергии, но для его работы требуется 1 галлон @UUID[Compendium.hopefinder.equipment.Item.33Jyq8aGXR1s67GX]{бензина} в час.</p>\n<hr>\n<p><strong>Прочность:</strong> 1</p>"
		},
		"Golf Club": {
			"name": "Клюшка для гольфа",
			"description": "<p><strong>Прочность:</strong> 4</p>"
		},
		"Hammer": {
			"name": "Молоток",
			"description": "<p><strong>Прочность:</strong> 4</p>"
		},
		"Hand Axe": {
			"name": "Топорик",
			"description": "<p><strong>Прочность:</strong> 4</p>"
		},
		"Hand Cannon": {
			"name": "Ручная пушка",
			"description": "<p><strong>Прочность:</strong> 4</p>"
		},
		"Hardhat": {
			"name": "Каска",
			"description": "<p>К вашему доспеху добавляется шлем, что обеспечивает вам защиту от критических попаданий.</p>\n<hr>\n<p><strong>Прочность:</strong> 4</p>"
		},
		"Hazmat Suit": {
			"name": "Защитный комбинезон",
			"description": "<p><strong>Сопротивление:</strong> 6 всему урону</p>\n<p><strong>Прочность:</strong> 8</p>"
		},
		"Headlight": {
			"name": "Налобный фонарик",
			"description": "<p>Работает 8 часов от одной @UUID[Compendium.hopefinder.equipment.Item.xBYhPtekXHcZbOEy]{маленькой батареи}. Дает свет в @Template[cone|distance:15]{15-футовом конусе}.</p>\n<hr>\n<p><strong>Прочность:</strong> 1</p>"
		},
		"Heavy Machinegun": {
			"name": "Тяжелый пулемет",
			"description": "<p><strong>Прочность:</strong> 6</p>"
		},
		"Heavy Patchwork": {
			"name": "Тяжелый самодельный доспех",
			"description": "<p><strong>Сопротивление:</strong> 5 всему урону</p>\n<p><strong>Прочность:</strong> 12</p>"
		},
		"Hiking Boots": {
			"name": "Походная обувь",
			"description": "<p>Обеспечивает устойчивую опору. Носителю не нужно совершать проверки, чтобы @UUID[Compendium.pf2e.actionspf2e.Item.M76ycLAqHoAgbcej]{Балансировать} на @UUID[Compendium.pf2e.journals.JournalEntry.S55aqwWIzpQRFhcq.JournalEntryPage.cjD6YVPQpmYiOPdC#nerovnaya-zemlya]{Неровной земле}.</p>\n<hr>\n<p><strong>Прочность:</strong> 4</p>"
		},
		"Holster (Pistol)": {
			"name": "Кобура [Пистолетная]",
			"description": "<p>Позволяет вам выхватывать пистолет свободным действием (<span class=\"pf2-icon\">f</span>).</p>\n<hr>\n<p><strong>Прочность:</strong> 2</p>"
		},
		"Hunting Rifle": {
			"name": "Охотничья винтовка",
			"description": "<p><strong>Прочность:</strong> 4</p>"
		},
		"Improvised Shield": {
			"name": "Импровизированный щит",
			"description": "<p><strong>Сопротивление:</strong> 4 всему урону</p>\n<p><strong>Прочность:</strong> 4</p>"
		},
		"Incendiary Grenade": {
			"name": "Зажигательная граната",
			"description": "<p><strong>Прочность:</strong> расходуемый</p>"
		},
		"Infantry Armor": {
			"name": "Пехотная броня",
			"description": "<p><strong>Сопротивление:</strong> 8 всему урону</p>\n<p><strong>Прочность:</strong> 18</p>"
		},
		"Iron Armor": {
			"name": "Железная броня",
			"description": "<p><strong>Сопротивление:</strong> 7 всему урону</p>\n<p><strong>Прочность:</strong> 10</p>"
		},
		"Katana": {
			"name": "Катана",
			"description": "<p><strong>Прочность:</strong> 6</p>"
		},
		"Kitchen Knife": {
			"name": "Кухонный нож",
			"description": "<p><strong>Прочность:</strong> 2</p>"
		},
		"Lab Gear": {
			"name": "Лабораторное облачение",
			"description": "<p><strong>Сопротивление:</strong> 2 всему урону</p>\n<p><strong>Прочность:</strong> 10</p>"
		},
		"Laptop": {
			"name": "Ноутбук",
			"description": "<p>Работает 4 часа от одной @UUID[Compendium.hopefinder.equipment.Item.NDOv2SxOl2UGGBLB]{большой батареи}.</p>\n<hr>\n<p><strong>Прочность:</strong> 4</p>"
		},
		"Leather Armor": {
			"name": "Кожаная броня [Hopefinder]",
			"description": "<p><strong>Сопротивление:</strong> 4 дробящему, колющему и рубящему урону</p>\n<p><strong>Прочность:</strong> 12</p>"
		},
		"Light Machinegun": {
			"name": "Легкий пулемет",
			"description": "<p><strong>Прочность:</strong> 4</p>"
		},
		"Light Patchwork": {
			"name": "Легкий самодельный доспех",
			"description": "<p><strong>Сопротивление:</strong> 3 всему урону</p>\n<p><strong>Прочность:</strong> 10</p>"
		},
		"Lighter": {
			"name": "Зажигалка",
			"description": "<hr>\n<p><strong>Прочность:</strong> 1</p>"
		},
		"Liquor": {
			"name": "Крепкое спиртное",
			"description": "<p>Считается -1 (отрицательной) единицей питья. Употребление снимает 2 ссадины. Получить это преимущество можно лишь раз в день.</p>\n<hr>\n<p><strong>Прочность:</strong> 1</p>"
		},
		"Lockpicks": {
			"name": "Отмычки",
			"description": "<p>Allows the use of Thievery to pick keyed locks.</p>\n<hr>\n<p><strong>Прочность:</strong> 2</p>"
		},
		"Machete": {
			"name": "Мачете",
			"description": "<p><strong>Прочность:</strong> 4</p>"
		},
		"Machinery Kit": {
			"name": "Набор техника",
			"description": "<p>Позволяет использовать Механику, чтобы чинить и строить механизмы (не транспортные средства).</p>\n<hr>\n<p><strong>Прочность:</strong> 4</p>"
		},
		"Makeup Kit": {
			"name": "Гримерный набор",
			"description": "<p>Позволяет использовать Обман, чтобы @UUID[Compendium.pf2e.actionspf2e.Item.AJstokjdG6iDjVjE]{Перевоплощаться}.</p>\n<hr>\n<p><strong>Прочность:</strong> 1</p>"
		},
		"Map (Local)": {
			"name": "Карта [Местная]",
			"description": "<p>Показывает основные места и важные улицы, а также несколько забытых путей.</p>\n<hr>\n<p><strong>Прочность:</strong> 1</p>"
		},
		"Meat (Fresh)": {
			"name": "Мясо [Свежее]",
			"description": "<p>Считается 2 единицами еды. Портится, если не будет употреблено в течение [[/r 1d4 #Дни]]{1d4 дней} (или [[/r 2d4 #Дней]]{2d4 дней}, если его приготовить).</p>\n<hr>\n<p><strong>Прочность:</strong> 1</p>"
		},
		"Military Helmet": {
			"name": "Военный шлем",
			"description": "<p>К вашему доспеху добавляется шлем, что обеспечивает вам защиту от критических попаданий.</p>\n<hr>\n<p><strong>Прочность:</strong> 8</p>"
		},
		"Military Machinegun": {
			"name": "Военный пулемет",
			"description": "<p><strong>Прочность:</strong> 6</p>\n<p><strong>Reload</strong> 4</p>"
		},
		"Molotov Cocktail": {
			"name": "Коктейль Молотова",
			"description": "<p><strong>Прочность:</strong> расходуемый</p>"
		},
		"Multitool": {
			"name": "Мультиинструмент",
			"description": "<p>Содержит маленькие версии большинства инструментов. Позволяет совершать проверки навыков, для которых требуются инструменты (такие, как @UUID[Compendium.pf2e.actionspf2e.Item.cYdz2grcOcRt4jk6]{Отключение устройства}).</p>\n<hr>\n<p><strong>Прочность:</strong> 2</p>"
		},
		"Musical Instrument": {
			"name": "Музыкальный инструмент [Hopefinder]",
			"description": "<p><strong>Прочность:</strong> 2</p>"
		},
		"Parts (Axe)": {
			"name": "Материал [Топор]"
		},
		"Parts (Blade)": {
			"name": "Материал [Клинок]"
		},
		"Parts (Bow)": {
			"name": "Материал [Лук]"
		},
		"Parts (Bullet)": {
			"name": "Материал [Пуля]"
		},
		"Parts (Cloth)": {
			"name": "Материал [Ткань]"
		},
		"Parts (Club)": {
			"name": "Материал [Дубинка]"
		},
		"Parts (Electronic)": {
			"name": "Материал [Электроника]"
		},
		"Parts (Fuel)": {
			"name": "Материал [Топливо]"
		},
		"Parts (Grenade)": {
			"name": "Материал [Граната]"
		},
		"Parts (Leather)": {
			"name": "Материал [Кожа]"
		},
		"Parts (Medicine)": {
			"name": "Материал [Медикамент]"
		},
		"Parts (Pistol)": {
			"name": "Материал [Пистолет]"
		},
		"Parts (Power)": {
			"name": "Материал [Энергия]"
		},
		"Parts (Rifle)": {
			"name": "Материал [Винтовка]"
		},
		"Parts (Shotgun)": {
			"name": "Материал [Дробовик]"
		},
		"Parts (Synthetic)": {
			"name": "Материал [Синтетика]"
		},
		"Parts (Tool)": {
			"name": "Материал [Инструмент]"
		},
		"Piercing Bullets (Pistol)": {
			"name": "Бронебойные пули [Пистолет]",
			"description": "<p>Бронебойная амуниция. Уменьшает сопротивление брони цели вдвое, если таковое имеется (с округлением вниз).</p>\n<hr>\n<p><strong>Прочность:</strong> 2</p>"
		},
		"Piercing Bullets (Rifle)": {
			"name": "Бронебойные пули [Винтовка]",
			"description": "<p>Бронебойная амуниция. Уменьшает сопротивление брони цели вдвое, если таковое имеется (с округлением вниз).</p>\n<hr>\n<p><strong>Прочность:</strong> 2</p>"
		},
		"Piercing Bullets (Shotgun)": {
			"name": "Бронебойные пули [Дробовик]",
			"description": "<p>Бронебойная амуниция. Уменьшает сопротивление брони цели вдвое, если таковое имеется (с округлением вниз).</p>\n<hr>\n<p><strong>Прочность:</strong> 2</p>"
		},
		"Pocket Knife": {
			"name": "Карманный нож",
			"description": "<p><strong>Прочность:</strong> 1</p>"
		},
		"Pocket Pistol": {
			"name": "Карманный пистолет",
			"description": "<p><strong>Прочность:</strong> 4</p>"
		},
		"Police Body Armor": {
			"name": "Полицейский бронежилет",
			"description": "<p><strong>Сопротивление:</strong> 7 всему урону</p>\n<p><strong>Прочность:</strong> 16</p>"
		},
		"Power Shunt": {
			"name": "Токовый шунт",
			"description": "<p>Передает энергию от батареи к устройству, обеспечивая его энергией, необходимой для работы. Для использования требуется 1 минута.</p>\n<hr>\n<p><strong>Прочность:</strong> 1</p>"
		},
		"Pump Shotgun": {
			"name": "Помповый дробовик",
			"description": "<p><strong>Прочность:</strong> 4</p>"
		},
		"Radio (Battery)": {
			"name": "Радиоприемник [На батарее]",
			"description": "<p>Радиоприемник работает 1 день от одной @UUID[Compendium.hopefinder.equipment.Item.xBYhPtekXHcZbOEy]{маленькой батареи}.</p>\n<hr>\n<p><strong>Прочность:</strong> 1</p>"
		},
		"Radio (Crank)": {
			"name": "Радиоприемник [Ручной завод]",
			"description": "<p>Радиоприемник с ручным заводом работает бесконечно, пока его заводят каждый час.</p>\n<hr>\n<p><strong>Прочность:</strong> 2</p>"
		},
		"Raincoat": {
			"name": "Дождевик",
			"description": "<p><strong>Прочность:</strong> 2</p>"
		},
		"Ration (Bar)": {
			"name": "Рацион [Паек]",
			"description": "<p>Стандартный военный паек. Считается 1 единицей еды.</p>\n<hr>\n<p><strong>Прочность:</strong> 1</p>"
		},
		"Ration (Day)": {
			"name": "Рацион [Дневной]",
			"description": "<p>Стандартный комплект военного питания. Считается 3 единицами еды.</p>\n<hr>\n<p><strong>Прочность:</strong> 1</p>"
		},
		"Reference Books": {
			"name": "Справочная литература",
			"description": "<p><strong>Прочность:</strong> 1</p>"
		},
		"Revolver": {
			"name": "Револьвер",
			"description": "<p><strong>Прочность:</strong> 4</p>"
		},
		"Riot Shield": {
			"name": "Полицейский щит",
			"description": "<p><strong>Сопротивление:</strong> 8 всему урону</p>\n<p><strong>Прочность:</strong> 10</p>"
		},
		"Rope (20 ft)": {
			"name": "Веревка [20 футов]",
			"description": "<p><strong>Прочность:</strong> 2</p>"
		},
		"Screwdriver": {
			"name": "Отвертка",
			"description": "<p><strong>Прочность:</strong> 2</p>"
		},
		"Sedative": {
			"name": "Успокоительное",
			"description": "<p>В форме инъекции или таблетки. Через 1 минуту после приема цель должна совершить спасбросок @Check[fortitude|dc:25]{Стойкости} с КС 25 или упасть @UUID[Compendium.pf2e.conditionitems.Item.fBnFDH2MTzgFijKf]{Без сознания} на 1 час. Без успокоительного хирургические проверки, касающейся цели, получают штраф -4.</p>\n<hr>\n<p><strong>Прочность:</strong> расходуемый</p>"
		},
		"Semiauto Pistol": {
			"name": "Полуавтоматический пистолет",
			"description": "<p><strong>Прочность:</strong> 4</p>"
		},
		"Semiauto Shotgun": {
			"name": "Полуавтоматический дробовик",
			"description": "<p><strong>Прочность:</strong> 6</p>"
		},
		"Shiv": {
			"name": "Заточка",
			"description": "<p><strong>Прочность:</strong> расходуемый</p>"
		},
		"Shovel": {
			"name": "Лопата",
			"description": "<hr>\n<p><strong>Прочность:</strong> 2</p>"
		},
		"Siphon Kit": {
			"name": "Набор для перекачки",
			"description": "<p>Медленно перекачивает топливо или жидкость из одного бака в другую емкость. На каждый перелитый галлон уходит 1 минута.</p>\n<hr>\n<p><strong>Прочность:</strong> 2</p>"
		},
		"Skillet": {
			"name": "Сковорода",
			"description": "<p><strong>Прочность:</strong> 4</p>"
		},
		"Sledgehammer": {
			"name": "Кувалда",
			"description": "<p><strong>Прочность:</strong> 6</p>"
		},
		"Sniper Rifle": {
			"name": "Снайперская винтовка",
			"description": "<p><strong>Прочность:</strong> 4</p>"
		},
		"Soft Drink": {
			"name": "Безалкогольный напиток",
			"description": "<p>Газировка, сок, вода или чай. Считается 1 единицей питья.</p>\n<hr>\n<p><strong>Прочность:</strong> 1</p>"
		},
		"Splint": {
			"name": "Медицинская шина",
			"description": "<p>Позволяет сломанной кости срастись за [[/r 2d4 #Недели]]{2d4 недели}. Убирает штраф за 1 день.</p>\n<hr>\n<p><strong>Прочность:</strong> 2</p>"
		},
		"Sports Protection": {
			"name": "Спортивная защита",
			"description": "<p><strong>Сопротивление:</strong> 5 всему урону</p>\n<p><strong>Прочность:</strong> 12</p>"
		},
		"Surgical Kit": {
			"name": "Хирургический набор",
			"description": "<p>Позволяет использовать способность @UUID[Compendium.hopefinder.feats.Item.y9oAlWcDVlCAucqA].</p>\n<hr>\n<p><strong>Прочность:</strong> 4</p>"
		},
		"Tarp": {
			"name": "Брезент",
			"description": "<p><strong>Прочность:</strong> 2</p>"
		},
		"Tear Gas Grenade": {
			"name": "Газовая граната",
			"description": "<p><strong>Прочность:</strong> расходуемый</p>"
		},
		"Tent (2 Person)": {
			"name": "Двухместная палатка [Hopefinder]",
			"description": "<p><strong>Прочность:</strong> 2</p>"
		},
		"Tool Belt": {
			"name": "Пояс с инструментами",
			"description": "<p>Позволяет носить до четырех инструментов в качестве подготовленных предметов (занимает только одно место в списке подготовленных предметов).</p>\n<hr>\n<p><strong>Прочность:</strong> 2</p>"
		},
		"Translation Dictionary": {
			"name": "Переводной словарь",
			"description": "<p><strong>Прочность:</strong> 1</p>"
		},
		"Trap (Explosive)": {
			"name": "Ловушка [Взрывчатая]",
			"description": "<p>Это простые проволочные ловушки, которые можно установить за 1 минуту. Каждая ловушка создает @Template[type:line|distance:10]{10-футовую линию}, и каждый, кто через нее проходит, должен совершить спасбросок @Check[reflex|dc:15]{Рефлекса}, иначе вызовет срабатывание ловушки. Ловушку можно заметить, совершив проверку @Check[perception|dc:20]{Восприятия} с КС 20. Ловушки уничтожаются, когда срабатывают.</p>\n<p>Эта ловушка взрывает гранату. Урон зависит от гранаты, которая не включена в ловушку.</p>\n<hr>\n<p><strong>Прочность:</strong> 2</p>"
		},
		"Trap (Noise)": {
			"name": "Ловушка [Шумовая]",
			"description": "<p>Это простые проволочные ловушки, которые можно установить за 1 минуту. Каждая ловушка создает @Template[type:line|distance:10]{10-футовую линию}, и каждый, кто через нее проходит, должен совершить спасбросок @Check[reflex|dc:15]{Рефлекса}, иначе вызовет срабатывание ловушки. Ловушку можно заметить, совершив проверку @Check[perception|dc:20]{Восприятия} с КС 20. Ловушки уничтожаются, когда срабатывают.</p>\n<p>При срабатывании эта ловушка издает громкий шум и хорошо слышна в @Template[type:burst|distance:50]{50-футовом радиусе}.</p>\n<hr>\n<p><strong>Прочность:</strong> 1</p>"
		},
		"Trap (Trip Wire)": {
			"name": "Ловушка [Растяжка]",
			"description": "<p>Это простые проволочные ловушки, которые можно установить за 1 минуту. Каждая ловушка создает @Template[type:line|distance:10]{10-футовую линию}, и каждый, кто через нее проходит, должен совершить спасбросок @Check[reflex|dc:15]{Рефлекса}, иначе вызовет срабатывание ловушки. Ловушку можно заметить, совершив проверку @Check[perception|dc:20]{Восприятия} с КС 20. Ловушки уничтожаются, когда срабатывают.</p>\n<p>Существа, получившие провал против этой ловушки, падают @UUID[Compendium.pf2e.conditionitems.Item.j91X7x0XSomq8d60]{Ничком}.</p>\n<hr>\n<p><strong>Прочность:</strong> 1</p>"
		},
		"Urban Camouflage": {
			"name": "Городская маскировка",
			"description": "<p>Легковесный мусор и труха, прикрепленные к сетчатому костюму, делают его обладателя похожим на кучу мусора. Этот предмет дает бонус +2 к проверкам Скрытности в городской среде.</p>\n<hr>\n<p><strong>Прочность:</strong> 2</p>"
		},
		"Vegetables (Fresh)": {
			"name": "Овощи [Свежие]",
			"description": "<p>Считаются 1 единицей еды. Портятся, если не будут употреблены в течение [[/r 1d6 #Дни]]{1d6 дней} (или [[/r 2d6 #Дни]]{2d6 дней}, если их приготовить).</p>\n<hr>\n<p><strong>Прочность:</strong> 1</p>"
		},
		"Vitamins (Bottle)": {
			"name": "Витамины [Бутылка]",
			"description": "<p>Содержит 10 порций. Каждая дает бонус +2 к спасброскам Стойкости на 1 день. Этот бонус не суммируется сам с собой.</p>\n<p>@UUID[Compendium.hopefinder.effects.Item.nBTRC7tLNZt1oNlK]</p>\n<hr>\n<p><strong>Прочность:</strong> 1</p>"
		},
		"Walkie Talkie": {
			"name": "Рация",
			"description": "<p>Обеспечивает связь на расстоянии до 5 миль. Работает 4 часа от @UUID[Compendium.hopefinder.equipment.Item.xBYhPtekXHcZbOEy]{маленькой батареи}. В большинстве поселений есть постоянная рация, подключенная к источнику питания.</p>\n<hr>\n<p><strong>Прочность:</strong> 4</p>"
		},
		"Watch": {
			"name": "Часы",
			"description": "<p><strong>Прочность:</strong> 1</p>"
		},
		"Water (1 Gallon)": {
			"name": "Вода [1 галлон]",
			"description": "<p>Кувшин, в котором содержится количество воды, эквивалентное 4 единицам питья.</p>\n<hr>\n<p><strong>Прочность:</strong> 1</p>"
		},
		"Water Purification Tablets": {
			"name": "Таблетки для очистки воды",
			"description": "<p>Упаковка содержит 4 таблетки. Каждая таблетка очищает 1 галлон воды от биологических веществ (включая Z-чуму). Она не удаляет химические загрязнения и загрязнения тяжелыми металлами.</p>\n<hr>\n<p><strong>Прочность:</strong> 1</p>"
		},
		"Workwear": {
			"name": "Рабочая одежда",
			"description": "<p><strong>Сопротивление:</strong> 2 дробящему, колющему и рубящему урону</p>\n<p><strong>Прочность:</strong> 10</p>"
		},
		"Wrench": {
			"name": "Гаечный ключ",
			"description": "<p><strong>Прочность:</strong> 4</p>"
		},
		"Z-Day Armor": {
			"name": "Броня апокалипсиса",
			"description": "<p><strong>Сопротивление:</strong> 12 всему урону</p>\n<p><strong>Прочность:</strong> 20</p>"
		},
		"Z-Noc": {
			"name": "Z-вакцина",
			"description": "<p>Вакцина дает вашему организму средства для борьбы с чумой зомби. На 1-ой стадии вы дважды совершаете спасброски Стойкости, чтобы противостоять инфекции, используя лучший результат.</p>\n<p>@UUID[Compendium.hopefinder.features.Item.PplJHSqlQOz25dpl]</p>\n<hr>\n<p><strong>Прочность:</strong> расходуемый</p>"
		},
		"Z-Round Bullets (Pistol)": {
			"name": "Z-патроны [Пистолет]",
			"description": "<p>Специальный патрон, разработанный специально для уничтожения зомби. Z-патроны наносят зомби удвоенный урон от оружия (бросайте в два раза больше костей). При критическом попадании они автоматически убивают зомби.</p>\n<hr>\n<p><strong>Прочность:</strong> 4</p>"
		},
		"Z-Round Bullets (Rifle)": {
			"name": "Z-патроны [Винтовка]",
			"description": "<p>Специальный патрон, разработанный специально для уничтожения зомби. Z-патроны наносят зомби удвоенный урон от оружия (бросайте в два раза больше костей). При критическом попадании они автоматически убивают зомби.</p>\n<hr>\n<p><strong>Прочность:</strong> 4</p>"
		}
	}
}