{
	"label": "Hopefinder - Роли",
	"entries": {
		"Child": {
			"name": "Ребенок",
			"description": "<p>Вы были маленьким ребенком, когда мир пал. Возможно, вы тогда еще даже не родились. В любом случае вам пришлось расти в разрушенном мире. Взрослеть в мире, кишащем зомби, нелегко, и ваше образование в лучшем случае было неполным. Вы научились справляться с этим лучше многих, потому что это единственная жизнь, которую вы когда-либо знали.</p>\n<p><strong>Вечная надежда</strong>: Вы начинаете каждую сессию с 1 дополнительным Очком Надежды, но если вы не потратите хотя бы 1 Очко Надежды за эту сессию, оно будет потеряно. Также не существует ограничений на максимальное количество Очков Надежды.</p>\n<p><strong>Навык:</strong> Увеличьте свой уровень мастерства Акробатики или Выживания на 1 ступень.</p>\n<p><strong>Способности:</strong> Вы можете выбирать из категорий @Trait[Agility]{Проворство}, @Trait[Building]{Строительство} и @Trait[сlose]{Ближний бой}.</p>"
		},
		"Criminal": {
			"name": "Преступник",
			"description": "<p>До Падения вы общались с крутыми людьми и не раз имели конфликты с законом. Вполне вероятно, что вы провели время в тюрьме и, возможно, даже были вынуждены бежать оттуда, когда общество развалилось. Виновны вы были или нет, теперь это не имеет большого значения - правила изменились, и вы научились идти к успеху на руинах этого мира.</p>\n<p><strong>Оценить обстановку</strong> (@Trait[Exploration]{исследование}): Потратьте 10 минут на изучение места и совершите проверку @Check[type:perception|traits:action:case-the-joint]{Восприятия}, чтобы узнать о нем больше. КС устанавливается рассказчиком. При успехе вы узнаете общие подробности о том, что вы можете найти в этом месте, включая возможную добычу и любые обычные препятствия или испытания, с которыми вы можете столкнуться. Критический успех позволит дополнительно узнать один конкретный факт об этом месте, который вы можете узнать со своей точки обзора. Эта способность дает информацию только о территории размером с бензоколонку. Если место больше, то вы должны сосредоточиться на одной его части, чтобы узнать о ней подробнее.</p>\n<p><strong>Навык:</strong> Увеличьте свой уровень мастерства Обмана или Воровства на 1 ступень.</p>\n<p><strong>Способности:</strong> Вы можете выбирать из категорий @Trait[Agility]{Проворство}, @Trait[Cunning]{Хитрость} и @Trait[Ranged]{Дальний бой}.</p>"
		},
		"Delivery Driver": {
			"name": "Водитель-экспедитор",
			"description": "<p>Вы всю жизнь провели за рулем, доставляя посылки, развозя грузы или следя за тем, чтобы люди получали свою пиццу за 30 минут или меньше. Хорошее чувство направления и умение узнавать быстрые маршруты, конечно, пригодились вам в условиях апокалипсиса, но вы все еще мечтаете о тех днях, когда проводили долгие часы на открытой дороге.</p>\n<p><strong>Карта в голове</strong>: Когда вы совершаете проверку Вождения, чтобы @UUID[Compendium.hopefinder.actions.Item.OQd0SU3snsY9JqmW], или проверку Выживания, чтобы не заблудиться или найти самый безопасный маршрут, вы считаете провал успехом, а критический провал - обычным провалом. Кроме того, если вы совершаете проверку Восприятия, чтобы избежать внезапного нападения в знакомой местности (в месте, которое вы свободно исследовали в течение 1 дня или более), вы получаете бонус обстоятельства +2 к этой проверке.</p>\n<p><strong>Навыки:</strong> Увеличьте свой уровень мастерства Вождения или Механики на 1 ступень.</p>\n<p><strong>Способности:</strong> Вы можете выбирать из категорий @Trait[Brawn]{Мощь}, @Trait[сlose]{Ближний бой} и @Trait[Technology]{Технологии}.</p>"
		},
		"Displaced": {
			"name": "Бездомный",
			"description": "<p>Прошлый мир был к вам столь же неприветлив, как и последующий. У вас не было дома, вы жили у друзей, в машинах или на улице и полагались на благотворительность, чтобы выжить и остаться в тепле и сытости. Возможно, теперь у вас есть крыша над головой, но большинство людей, которые раньше игнорировали ваше существование, теперь пытаются вас съесть. По крайней мере, прежняя жизнь подготовила вас к нынешнему аду, и люди обращаются к вам за знаниями и опытом.</p>\n<p><strong>Городское собирательство</strong> (@Trait[Exploration]{исследование}, @Trait[Manipulate]{воздействие}): У вас хорошо наметан глаз, чтобы находить ценности в выброшенных отходах. Потратьте 10 минут на то, чтобы порыться в мусоре и хламе в ближайшем месте, и совершите проверку Общества.</p>\n<p>Рассказчик задает КС для этой проверки, основываясь на том, как часто мусорщики обшаривали эти развалины. При успехе можно найти случайный предмет с бартерной стоимостью, равной вашему уровню (или 2 предмета, которые как минимум на 1 уровень ниже). При критическом успехе можно найти случайный предмет с бартерной стоимостью, равной вашему удвоенному уровню. Вы можете использовать это умение только один раз за сцену.</p>\n<p><strong>Навыки:</strong> Увеличьте свой уровень мастерства Дипломатии или Общества на 1 ступень.</p>\n<p><strong>Способности:</strong> Вы можете выбирать из категорий @Trait[сlose]{Ближний бой}, @Trait[Cunning]{Хитрость} и @Trait[Leadership]{Лидерство}.</p>"
		},
		"First Responder": {
			"name": "Спасатель",
			"description": "<p>Вы побежали навстречу опасности. Это была ваша работа. Вы могли быть пожарным, врачом скорой помощи или полицейским, но когда появились первые зомби, вы увидели, как это произошло. Вы видели все: от мгновений паники до полного краха служб. Возможно, вы пострадали, но полученные на работе навыки с тех пор не раз спасали вам жизнь.</p>\n<p><strong>Мрачная решимость</strong>: Вы видели худшее из того, что было во время Падения, и нужно постараться, чтобы пошатнуть вашу уверенность. Увеличьте свой уровень мастерства Воли на 1 ступень. Если вы когда-нибудь окажетесь в @UUID[Compendium.pf2e.conditionitems.yblD8fOR1J8rDwEQ]{Замешательстве}, @UUID[Compendium.pf2e.conditionitems.9qGBRpbX9NEwtAAr] или обращены в @UUID[Compendium.pf2e.conditionitems.sDPxOjQ9kx2RZE8D], вы можете совершать новый спасбросок в конце каждого своего хода, чтобы прекратить действие эффекта (если спасбросок возможен).</p>\n<p><strong>Навыки:</strong> Увеличьте свой уровень мастерства Запугивания или Медицины на 1 ступень.</p>\n<p><strong>Способности:</strong> Вы можете выбирать из категорий @Trait[Agility]{Проворство}, @Trait[Healing]{Лечение} и @Trait[Ranged]{Дальний бой}.</p>"
		},
		"Food Worker": {
			"name": "Сотрудник пищевой промышленности",
			"description": "<p>До полного краха цивилизации мир воспринимал вас как нечто само собой разумеющееся, и вам оставалось только улыбаться и мириться с этим. Теперь они могут только мечтать о быстрой и доступной еде, которую вы готовили и подавали. Теперь мало кто готовит, и большинство блюд упакованы в банки, но у вас есть подходящие навыки, чтобы делать еду здоровой и вкусной.</p>\n<p><strong>Пиршество выживших</strong> (@Trait[Exploration]{исследование}, @Trait[Manipulate]{воздействие}): Раз в день вы можете провести 1 час у костра, готовя пиршество. Любой, кто проведет хотя бы 10 минут за этим пиршеством, исцеляет 1 ссадину и количество Очков Здоровья, равное @Damage[1d4[healing]]{1d4} + ваш бонус мастерства в Выживании. Кроме того, они получают 1 временное Очко Надежды, которое можно использовать только чтобы перебросить проверку, и если его не потратить в течение следующего часа, оно пропадает. Это пиршество расходует и засчитывается как 2 единицы еды и 1 единица питья для каждого участника.</p>\n<p><strong>Навыки:</strong> Увеличьте свой уровень мастерства Обмана или Выживания на 1 ступень.</p>\n<p><strong>Способности:</strong> Вы можете выбирать из категорий @Trait[Brawn]{Мощь}, @Trait[сlose]{Ближний бой}, @Trait[Healing]{Лечение}</p>"
		},
		"Homemaker": {
			"name": "Хранитель очага",
			"description": "<p>До Падения поддержание порядка и порядка в доме было для вас постоянной работой, и вы тратили много времени на уборку, ремонт дома, лечение ушибов и царапин и приготовление еды. К счастью, эти навыки остаются столь же ценными и после Падения, позволяя вам работать над созданием лучшего и более безопасного сообщества.</p>\n<p><strong>Мастер планирования</strong>: Если вы выполняете задачу, которая занимает 10 минут и воздействует только на одну цель, например @UUID[Compendium.hopefinder.actions.Item.Fccbg2WSomdT9QqP]{Ремонт} или оказание @UUID[Compendium.pf2e.actionspf2e.Item.MHLuKy4nQO2Z4Am1]{Первой помощи}, вы можете тщательно спланировать свое время, чтобы вместо этого воздействовать на две цели. Вы также можете использовать эту особенность для планирования чужого времени, предоставляя ему то же преимущество, но вы должны потратить то же время на руководство, чтобы обеспечить эффективную работу.</p>\n<p><strong>Навыки:</strong> Увеличьте свой уровень мастерства Ремесла или Дипломатии на 1 ступень.</p>\n<p><strong>Способности:</strong> Вы можете выбирать из категорий @Trait[Building]{Строительство}, @Trait[Healing]{Лечение}, @Trait[Ranged]{Дальний бой}.</p>"
		},
		"Laborer": {
			"name": "Рабочий",
			"description": "<p>Вы занимались тяжелой работой, благодаря которой мир был сыт, обустроен и наслаждался всеми новейшими технологическими гаджетами. Где бы вы ни работали - на ферме, стройке или заводе, - вы привыкли к долгой, изнурительной работе, и эта подготовка оказалась очень полезной в современном мире, где умение выращивать пищу и строить оборонительные сооружения имеет решающее значение для выживания.</p>\n<p><strong>Неутомимый</strong>: Вы не становитесь @UUID[Compendium.pf2e.conditionitems.HL2l2VRSaQHu9lUw]{Утомлены} от ссадин и не становитесь @Condition[Fatigued]{утомлены}, если спите хотя бы 4 часа. Кроме того, вы можете носить предметы на 3 дополнительных Массы (хотя это не позволяет вам носить больше предметов, чем помещается на листе инвентаря).</p>\n<p><strong>Навыки:</strong> Увеличьте свой уровень мастерства Ремесла или Механики на 1 ступень.</p>\n<p><strong>Способности:</strong> Вы можете выбирать из категорий @Trait[Brawn]{Мощь}, @Trait[Building]{Строительство}, @Trait[сlose]{Ближний бой}.</p>"
		},
		"Medical Professional": {
			"name": "Профессиональный медик",
			"description": "<p>До Падения вы были квалифицированным врачом, медсестрой или хирургом и видели то, что никогда не сможете забыть в те мрачные первые дни. Теперь ваши навыки очень востребованы, и люди, о которых вы заботитесь, безмерно вам благодарны, но, поскольку припасы на исходе, а мертвецы не замедляют свой ход, вы не знаете, как долго сможете сохранять спокойствие.</p>\n<p><strong>Перевязка</strong>: Вы можете оказывать @UUID[Compendium.pf2e.actionspf2e.Item.MHLuKy4nQO2Z4Am1]{Первую помощь} и @UUID[Compendium.hopefinder.actions.Item.jIN7minzIXOY3YJk]{Лечить раны} до 6 человек за 20 минут. Когда вы успешно \"Лечите раны\", вы исцеляете дополнительное количество Очков Здоровья, равное вашему уровню.</p>\n<p><strong>Навыки:</strong> Увеличьте свой уровень мастерства Компьютеров или Медицины на 1 ступень.</p>\n<p><strong>Способности:</strong> Вы можете выбирать из категорий @Trait[Healing]{Лечение}, @Trait[Ranged]{Дальний бой} и @Trait[Technology]{Технологии}.</p>"
		},
		"Office Worker": {
			"name": "Офисный работник",
			"description": "<p>В старом мире вы были одним из бесчисленных людей, работавших в офисе, - архитектором, юристом, программистом или даже гейм-дизайнер. В апокалипсисе мало что из той поры стоит внимания, но иногда вы откапываете что-то полезное из прежних времен.</p>\n<p><strong>Абстракция</strong>: Вы можете легко увлечься простой задачей, что позволяет вам сосредоточиться на мельчайших деталях. Вы получаете бонус обстоятельства +2 ко всем проверкам, связанным с активностями @Trait[Exploration]{исследования}, и к проверкам инициативы.</p>\n<p><strong>Навыки:</strong> Увеличьте один любой навык на 1 ступень.</p>\n<p><strong>Способности:</strong> Выберите два признака способностей, когда у вас случается первый флешбэк. Вы можете выбирать из категорий @Trait[Advanced]{продвинутые} способности из этих двух категорий.</p>"
		},
		"Performer": {
			"name": "Творческая личность",
			"description": "<p>Когда-то люди зарабатывали на жизнь развлечениями, будь то искусство, танцы, музыка или театр. Выживание - это все, что сейчас имеет значение, но вы все еще можете принести немного радости в жизнь людей песней, танцем или рисунком. Это не так много, но в эти мрачные времена это может иметь огромное значение.</p>\n<p><strong>Подготовка</strong> (@Trait[Exploration]{исследование}): Вы узнали, как очистить свой разум перед выполнением важной задачи. Потратьте 10 минут на репетицию, медитацию или иную подготовку к выполнению задачи. Вы получаете бонус обстоятельства +2 к выполнению этой задачи, если вы совершите проверку в течение следующего часа. Во время подготовки вы должны назвать задачу. Если вы вступаете в бой, эта подготовка теряется.</p>\n<p><strong>Навыки:</strong> Увеличьте свой уровень мастерства Акробатики или Выступления на 1 ступень.</p>\n<p><strong>Способности:</strong> Вы можете выбирать из категорий @Trait[Agility]{Проворство}, @Trait[Cunning]{Хитрость} и @Trait[Leadership]{Лидерство}.</p>"
		},
		"Retailer": {
			"name": "Продавец",
			"description": "<p>До появления чумы ваша жизнь состояла из складирования товаров на полках, работы на кассах и общения с раздражительными покупателями. Теперь все стало только хуже, ведь те же раздражающие люди превратились в нежить, пытающуюся вас укусить. По крайней мере, у вас остались навыки общения с людьми и проницательность в том, что касается сделок.</p>\n<p><strong>Торг</strong>: Когда вы торгуете предметами, вы можете совершить проверку Дипломатии или Обмана против КС Воли торговца. Если вам это удастся, то бартерная стоимость одного предлагаемого вами предмета будет считаться на 1 выше. Если вы критически преуспели, считайте его бартерную стоимость на 2 выше. Если вы получаете критический провал, торговец отказывается иметь с вами дело. Вы можете использовать эту особенность только один раз в день с каждым торговцем.</p>\n<p><strong>Навыки:</strong> Увеличьте свой уровень мастерства Обмана или Дипломатии на 1 ступень.</p>\n<p><strong>Способности:</strong> Вы можете выбирать из категорий @Trait[Brawn]{Мощь}, @Trait[Building]{Строительство} и @Trait[Cunning]{Хитрость}.</p>"
		},
		"Scientist": {
			"name": "Ученый",
			"description": "<p>До начала Падения вы проводили долгие дни и ночи в различных исследовательских лабораториях и библиотеках, занимаясь астрологией, биологией, химией, компьютерами, инженерией или физикой. Это была полезная работа, и у вас действительно был шанс совершить прорыв, пока все не развалилось. Теперь вы можете только возиться с работой, которая когда-то была вашей страстью. Возможно, однажды ваши достижения спасут мир.</p>\n<p><strong>Изучение</strong> (@Trait[Exploration]{исследование}): Нет такой проблемы, которую вы не смогли бы решить, проведя небольшое исследование. Проведя 1 час за рабочим компьютером или в научной библиотеке, вы можете совершить выполнить любую проверку навыка Знаний, как если бы вы были обучены этому навыку, или же дать себе бонус обстоятельства +2 к проверке, если хотя бы обучены этому навыку Знаний. Вы также можете использовать это умение, когда пытаетесь проверить @UUID[Compendium.pf2e.actionspf2e.1OagaWtBpVXExToo], чтобы получить бонус обстоятельства +2  к проверке.</p>\n<p><strong>Навыки:</strong> Увеличьте свой уровень мастерства Компьютеров или Механики на 1 ступень.</p>\n<p><strong>Способности:</strong> Вы можете выбирать из категорий @Trait[Agility]{Проворство}, @Trait[Healing]{Лечение} и @Trait[Technology]{Технологии}.</p>"
		},
		"Soldier": {
			"name": "Солдат",
			"description": "<p>Вы служили в одном из военных подразделений до Падения и до самого конца, когда воцарился хаос и рухнул порядок субординации. В те хаотичные дни многие обращались к вам за защитой и руководством, и вы делали все возможное, чтобы обеспечить их безопасность. Чума все равно унесла почти всех, но вы продолжаете жить, делая все возможное, чтобы исправить этот несправедливый мир.</p>\n<p><strong>Всегда наготове</strong>: Вы методично готовитесь к нападению и стараетесь обезопасить свое окружение. Вы получаете бонус +2 к проверкам инициативы и можете достать оружие свободным действием (<span class=\"pf2-icon\">F</span>) в начале своего первого хода, если оно находится в пределах досягаемости или у вас наготове.</p>\n<p><strong>Навыки:</strong> Увеличьте свой уровень мастерства Атлетики или Запугивания на 1 ступень.</p>\n<p><strong>Способности:</strong> Вы можете выбирать из категорий @Trait[Brawn]{Мощь}, @Trait[Leadership]{Лидерство} и @Trait[Ranged]{Дальний бой}.</p>"
		},
		"Student": {
			"name": "Студент",
			"description": "<p>Вы учились в школе или колледже, когда разразилась чума, и на какое-то время, вероятно, забаррикадировались в кампусе вместе с другими отчаявшимися выжившими. В конце концов еда закончилась, зомби прорвали оборону, и теперь вы, как и все остальные, в бегах. У вас украли будущее, но вы оказались достаточно гибкими, чтобы приспособиться и даже прийти к успеху в этом разрушенном мире.</p>\n<p><strong>Бесконечная энергия</strong>: Вы энергичны. Увеличьте свою Скорость на 5 футов. Если вы получаете успех, чтобы @UUID[Compendium.pf2e.actionspf2e.pprgrYQ1QnIDGZiy] или @UUID[Compendium.pf2e.actionspf2e.c8TGiZ48ygoSPofx], расстояние, пройденное вами, увеличивается на 5 футов. Наконец, вы исцеляете 1 дополнительную ссадину каждый раз, когда отдыхаете.</p>\n<p><strong>Навыки:</strong> Увеличьте свой уровень мастерства Атлетики или Скрытности на 1 ступень.</p>\n<p><strong>Способности:</strong> Вы можете выбирать из категорий @Trait[Agility]{Проворство}, @Trait[сlose]{Ближний бой} и @Trait[Technology]{Технологии}.</p>"
		},
		"Teacher": {
			"name": "Учитель",
			"description": "<p>Вы не знаете, что случилось со всеми детьми, которых вы учили, когда мир развалился на части. Вы можете лишь надеяться, что некоторые из них выжили, используя для этого полученные знания. Вы были учителем до Падения, обучая молодых людей навыкам, которые они могли использовать, чтобы прийти к успеху в том мире, который существовал раньше. Некоторые из них могут пригодиться и сегодня, и в апокалипсисе вы, несомненно, были заняты, делясь знаниями с другими выжившими.</p>\n<p><strong>Обучить</strong> (@Trait[Exploration]{исследование}): Потратив 10 минут на разговор и решение проблем с целью, вы можете дать ей базовые знания, необходимые для проверки любого навыка, которому вы хотя бы обучены. При проверке они получают половину вашего бонуса мастерства. Это относится только к первой проверке, и если ее не совершить в течение 1 часа, это преимущество будет потеряно. Если они обучены этому навыку, эта способность дает им бонус обстоятельства +1 при условии, что ваш уровень мастерства выше.</p>\n<p><strong>Навыки:</strong> Увеличьте свой уровень мастерства двух любых Знаний на 1 ступень.</p>\n<p><strong>Способности:</strong> Вы можете выбирать из категорий @Trait[Cunning]{Хитрость}, @Trait[Leadership]{Лидерство} и @Trait[Technology]{Технологии}.</p>"
		}
	}
}