{
    "label": "Макросы тауматурга от MySurvive",
    "mapping": {
        "name": "name"
    },
    "entries": {
        "Cursed Effigy": {
            "name": "Проклятое чучело"
        },
        "Drink from the Chalice": {
            "name": "Пить из чаши"
        },
        "Exploit Vulnerability": {
            "name": "Эксплуатировать уязвимость"
        },
        "Force EV": {
            "name": "Принудительно ЭУ"
        },
        "Intensify Vulnerability": {
            "name": "Усиление уязвимости"
        },
        "Recall Knowledge (Esoteric Lore)": {
            "name": "Вспомнить информацию (Эзотерические знания)"
        },
        "Root to Life": {
            "name": "Корень к жизни"
        },
        "Share Weakness": {
            "name": "Поделиться слабостью"
        },
        "Twin Weakness": {
            "name": "Двойная слабость"
        }
    }
}