{
	"label": "Эффекты",
	"mapping": {
		"name": {
			"path": "name",
			"converter": "itemNameConverter"
		},
		"description": "system.description.value",
		"rules": {
			"path": "system.rules",
			"converter": "carefulMerge"
		}
	},
	"entries": {
		"Effect: Blood Feast": {
			"name": "Эффект: Кровавый пир",
			"description": "<p>Предоставляется @UUID[Compendium.pf2e-animal-companions.AC-Advanced-Maneuvers.Item.cVrW2GGLVpydj8h5]</p>\n<p>Вы получаете временные ОЗ, равные половине своего уровня.</p>"
		},
		"Effect: Badger Rage": {
			"name": "Эффект: Барсучья ярость",
			"description": "<p>Предоставляется @UUID[Compendium.pf2e-animal-companions.AC-Advanced-Maneuvers.Item.HLD4JW6SUn5Oy8C9]</p>\n<p>Вы наносите дополнительные 4 урона своей атакой укусом и дополнительные 2 укуса своей атакой когтем, и получаете штраф −1 к КБ</p>"
		},
		"Effect: Wyvern Support Benefit": {
			"name": "Эффект: Преимущество поддержки [Виверна]",
			"description": "<p>Предоставляется @UUID[Compendium.pf2e-animal-companions.AC-Support.Item.3ZYwTYI4ORCz4xQg]</p>\n<p>Ваши \"Удары\", наносящие урон существу в досягаемости вашей виверны, также наносят дополнительный продолжительный урон ядом.</p>",
			"rules": {
				"0": {
					"prompt": "Ваш компаньон проворный или свирепый?"
				},
				"2": {
					"text": "Ваши \"Удары\", наносящие урон существу в досягаемости вашей виверны, также наносят дополнительные @Damage[({item|flags.pf2e.rulesSelections.wyvernSupportBenefit})d6[persistent,poison]]."
				}
			}
		},
		"Effect: Defensive Curl": {
			"name": "Эффект: Защитный клубок",
			"description": "<p>Предоставляется @UUID[Compendium.pf2e-animal-companions.AC-Advanced-Maneuvers.Item.pMPtswKNokDNyYR2]</p>\n<p>Вы получаете бонус обстоятельства +2 к КБ. Любое существо, попадающее по вам безоружной атакой ближнего боя, пока вы в своём <em>\"Защитном клубке\"</em>, получает 2d6 продолжительного урона кровотечением.</p>",
			"rules": {
				"1": {
					"text": "Вы получаете @Damage[2d6[bleed]]."
				}
			}
		},
		"Effect: Defensive Curl (Hermit Krait)": {
			"name": "Эффект: Защитный клубок [Крайт-отшельник]",
			"description": "<p>Предоставляется @UUID[Compendium.pf2e-animal-companions.AC-Advanced-Maneuvers.Item.wQewsJLOsfucMXyB]</p>\n<p>Вы получаете бонус обстоятельства +2 к КБ и бонус обстоятельства +4 к любой проверке, чтобы притвориться обычной раковиной. Любое существо, попадающее по вам безоружной атакой ближнего боя, получает 2d6 продолжительного урона ядом.</p>",
			"rules": {
				"1": {
					"label": "Имитировать раковину"
				},
				"2": {
					"text": "Вы получаете @Damage[2d6[persistent,poison]]."
				}
			}
		},
		"Effect: Retreat (Rider)": {
			"name": "Эффект: Отступление [Наездник]",
			"description": "<p>Предоставляется @UUID[Compendium.pf2e-animal-companions.AC-Advanced-Maneuvers.Item.SkVl3yomdYZoS7Hx], @UUID[Compendium.pf2e-animal-companions.AC-Advanced-Maneuvers.Item.R2RNXJH06UhSMmzp]</p>\n<p>Вы получаете бонус обстоятельства +2 к КБ против реакций.</p>"
		},
		"Effect: Antelope Support Benefit": {
			"name": "Эффект: Преимущество поддержки [Антилопа]",
			"description": "<p>Предоставляется @UUID[Compendium.pf2e-animal-companions.AC-Support.Item.yIB4qKV5sqcXlOmB]</p>\n<p>Ваши \"Удары\", наносящие урон существу в досягаемости антилопы, также наносят дополнительный продолжительный урон кровотечением.</p>",
			"rules": {
				"0": {
					"prompt": "Ваш компаньон проворный или свирепый?"
				},
				"2": {
					"text": "Ваши \"Удары\", наносящие урон существу в досягаемости антилопы, также наносят дополнительные @Damage[({item|flags.pf2e.rulesSelections.antelopeSupportBenefit})d6[persistent,bleed]]."
				}
			}
		},
		"Effect: Bat Support Benefit": {
			"name": "Эффект: Преимущество поддержки [Летучая мышь]",
			"description": "<p>Предоставляется @UUID[Compendium.pf2e-animal-companions.AC-Support.Item.Aj7JWFXIbF3qmvSX]</p>\n<p>Вы получаете штраф обстоятельства −1 к броскам атаки.</p>"
		},
		"Effect: Bear Support Benefit": {
			"name": "Эффект: Преимущество поддержки [Медведь]",
			"description": "<p>Предоставляется @UUID[Compendium.pf2e-animal-companions.AC-Support.Item.AvDlo1mgxXd7ZA8W]</p>\n<p>Когда вы попадаете по цели, она также получает рубящий урон от медведя.</p>",
			"rules": {
				"0": {
					"prompt": "Ваш компаньон проворный или свирепый?"
				},
				"2": {
					"text": "Цель получает @Damage[({item|flags.pf2e.rulesSelections.bearSupportBenefit})d8[slashing]] от медведя."
				}
			}
		},
		"Effect: Beetle Support Benefit": {
			"name": "Эффект: Преимущество поддержки [Жук]",
			"description": "<p>Предоставляется @UUID[Compendium.pf2e-animal-companions.AC-Support.Item.mFTzDCqNL5EdwlGm]</p>\n<p>Ваши \"Удары\", нанёсшие урон, делают цель либо @UUID[Compendium.pf2e.conditionitems.Item.AJh5ex99aV6VTggg]{Застигнутой врасплох} до конца вашего следующего хода, либо перемещают её на 5 футов от жука (это <a href=https://clck.ru/afcTn>принудительное передвижение</a>). Цель сама выбирает получаемый эффект.</p>",
			"rules": {
				"0": {
					"prompt": "Ваш компаньон проворный или свирепый?"
				},
				"2": {
					"text": "Ваши \"Удары\", нанёсшие урон, делают цель либо @UUID[Compendium.pf2e.conditionitems.Item.AJh5ex99aV6VTggg]{Застигнутой врасплох} до конца вашего следующего хода, либо перемещают её на 5 футов от жука (это <a href=https://clck.ru/afcTn>принудительное передвижение</a>). Цель сама выбирает получаемый эффект."
				}
			}
		},
		"Effect: Bird Support Benefit": {
			"name": "Эффект: Преимущество поддержки [Птица]",
			"description": "<p>Предоставляется @UUID[Compendium.pf2e-animal-companions.AC-Support.Item.7rhcqwMDt2xqnI1N]</p>\n<p>Ваши \"Удары\", наносящие урон цели в пределах досягаемости птицы, также наносят продолжительный урон кровотечением и делают цель @UUID[Compendium.pf2e.conditionitems.Item.TkIyaNPgTZFBCCuh]{Ослеплённой}, пока она не избавится от урона кровотечением.</p>",
			"rules": {
				"0": {
					"prompt": "Ваш компаньон проворный или свирепый?"
				},
				"2": {
					"text": "Ваши \"Удары\", наносящие урон цели в пределах досягаемости птицы, также наносят @Damage[({item|flags.pf2e.rulesSelections.birdSupportBenefit})d4[persistent,bleed]] и делают цель @UUID[Compendium.pf2e.conditionitems.Item.TkIyaNPgTZFBCCuh]{Ослеплённой}, пока она не избавится от урона кровотечением."
				}
			}
		},
		"Effect: Boar Support Benefit": {
			"name": "Эффект: Преимущество поддержки [Кабан]",
			"description": "<p>Предоставляется @UUID[Compendium.pf2e-animal-companions.AC-Support.Item.8re1d4lM0Dn4sLto]</p>\n<p>Ваши \"Удары\", наносящие урон существу в досягаемости вашего кабана, также наносят дополнительный продолжительный урон кровотечением.</p>",
			"rules": {
				"0": {
					"prompt": "Ваш компаньон проворный или свирепый?"
				},
				"2": {
					"text": "Ваши \"Удары\", наносящие урон существу в досягаемости вашего кабана, также наносят дополнительный @Damage[({item|flags.pf2e.rulesSelections.boarSupportBenefit})d6[persistent,bleed]]."
				}
			}
		},
		"Effect: Capybara Support Benefit": {
			"name": "Эффект: Преимущество поддержки [Капибара]",
			"description": "<p>Предоставляется @UUID[Compendium.pf2e-animal-companions.AC-Support.Item.Fl1VEpYhmScEEon8]</p>\n<p>Вы получаете бонус обстоятельства +1 к следующему броску атаки для \"Удара\" по врагу в пределах досягаемости капибары.</p>"
		},
		"Effect: Cat Support Benefit": {
			"name": "Эффект: Преимущество поддержки [Кошка]",
			"description": "<p>Предоставляется @UUID[Compendium.pf2e-animal-companions.AC-Support.Item.HCQXxqMtH81jE1W5]</p>\n<p>Если ваш \"Удар\" наносит урон существу в пределах досягаемости кошки, он делает цель @UUID[Compendium.pf2e.conditionitems.Item.AJh5ex99aV6VTggg]{Застигнутой врасплох}.</p>",
			"rules": {
				"1": {
					"text": "Если ваш \"Удар\" наносит урон существу в пределах досягаемости кошки, он делает цель @UUID[Compendium.pf2e.conditionitems.Item.AJh5ex99aV6VTggg]{Застигнутой врасплох}."
				}
			}
		},
		"Effect: Cave Gecko Support Benefit": {
			"name": "Эффект: Преимущество поддержки [Пещерный геккон]",
			"description": "<p>Предоставляется @UUID[Compendium.pf2e-animal-companions.AC-Support.Item.nDUwRm0TOtc2EX0O]</p>\n<p>Если вы пытаетесь @UUID[Compendium.pf2e.actionspf2e.Item.ge56Lu1xXVFYUnLP]{Опрокинуть}, @UUID[Compendium.pf2e.actionspf2e.Item.Dt6B1slsBy8ipJu9]{Разоружить} или @UUID[Compendium.pf2e.actionspf2e.Item.7blmbDrQFNfdT731]{Толкнуть} противника и получаете критический провал, вместо этого вы получаете провал.</p>"
		},
		"Effect: Crocodile Support Benefit": {
			"name": "Эффект: Преимущество поддержки [Крокодил]",
			"description": "<p>Предоставляется @UUID[Compendium.pf2e-animal-companions.AC-Support.Item.yfjeiYMC27YGgoGW]</p>\n<p>Вы получаете штраф обстоятельства −10 футов к своим Скоростям.</p>"
		},
		"Effect: Draft Lizard Support Benefit": {
			"name": "Эффект: Преимущество поддержки [Тяговая ящерица]",
			"description": "<p>Предоставляется @UUID[Compendium.pf2e-animal-companions.AC-Support.Item.g3Wol5lNhQdxqs7t]</p>\n<p>Вы получаете бонус обстоятельства +1 к следующему броску атаки для \"Удара\" по врагу в пределах досягаемости тяговой ящерицы.</p>"
		},
		"Effect: Spiked Bunker": {
			"name": "Эффект: Бункер с шипами",
			"description": "<p>Предоставляется @UUID[Compendium.pf2e-animal-companions.AC-Advanced-Maneuvers.Item.oyNZpuQ6EU3prvo2]</p>\n<p>Вы получаете бонус обстоятельства +2 к КБ. Любое существо, попавшее по вам безоружной атакой, пока вы находитесь в <em>\"Бункере с шипами\"</em>, получает @Damage[2d6[piercing]] (или @Damage[3d6[piercing]] если у элементаля металла есть специализация).",
			"rules": {
				"0": {
					"prompt": "Компаньон специализированный?"
				},
				"2": {
					"text": "Вы получаете @Damage[({item|flags.pf2e.rulesSelections.isSpecialized})d6[piercing]]."
				}
			}
		}
	}
}